<?xml version="1.0" encoding="utf-8"?>
<!-- Generator: Adobe Illustrator 20.1.0, SVG Export Plug-In . SVG Version: 6.00 Build 0)  -->
<svg version="1.1" id="Layer_1" xmlns="http://www.w3.org/2000/svg" xmlns:xlink="http://www.w3.org/1999/xlink" x="0px" y="0px"
	 viewBox="0 0 130.3 65.1" style="enable-background:new 0 0 130.3 65.1;" xml:space="preserve">
<style type="text/css">
	.st0{fill:#CCCCCC;}
	.st1{clip-path:url(#SVGID_2_);}
	.st2{opacity:0.2;}
	.st3{fill-opacity:0;}
	.st4{opacity:4.975124e-03;enable-background:new    ;}
	.st5{opacity:9.950249e-03;enable-background:new    ;}
	.st6{opacity:1.492537e-02;enable-background:new    ;}
	.st7{opacity:1.990050e-02;enable-background:new    ;}
	.st8{opacity:2.487562e-02;enable-background:new    ;}
	.st9{opacity:2.985075e-02;enable-background:new    ;}
	.st10{opacity:3.482587e-02;enable-background:new    ;}
	.st11{opacity:3.980099e-02;enable-background:new    ;}
	.st12{opacity:4.477612e-02;enable-background:new    ;}
	.st13{opacity:4.975124e-02;enable-background:new    ;}
	.st14{opacity:5.472637e-02;enable-background:new    ;}
	.st15{opacity:5.970149e-02;enable-background:new    ;}
	.st16{opacity:6.467662e-02;enable-background:new    ;}
	.st17{opacity:6.965174e-02;enable-background:new    ;}
	.st18{opacity:7.462686e-02;enable-background:new    ;}
	.st19{opacity:7.960199e-02;enable-background:new    ;}
	.st20{opacity:8.457711e-02;enable-background:new    ;}
	.st21{opacity:8.955224e-02;enable-background:new    ;}
	.st22{opacity:9.452736e-02;enable-background:new    ;}
	.st23{opacity:9.950249e-02;enable-background:new    ;}
	.st24{opacity:0.1045;enable-background:new    ;}
	.st25{opacity:0.1095;enable-background:new    ;}
	.st26{opacity:0.1144;enable-background:new    ;}
	.st27{opacity:0.1194;enable-background:new    ;}
	.st28{opacity:0.1244;enable-background:new    ;}
	.st29{opacity:0.1294;enable-background:new    ;}
	.st30{opacity:0.1343;enable-background:new    ;}
	.st31{opacity:0.1393;enable-background:new    ;}
	.st32{opacity:0.1443;enable-background:new    ;}
	.st33{opacity:0.1493;enable-background:new    ;}
	.st34{opacity:0.1542;enable-background:new    ;}
	.st35{opacity:0.1592;enable-background:new    ;}
	.st36{opacity:0.1642;enable-background:new    ;}
	.st37{opacity:0.1692;enable-background:new    ;}
	.st38{opacity:0.1741;enable-background:new    ;}
	.st39{opacity:0.1791;enable-background:new    ;}
	.st40{opacity:0.1841;enable-background:new    ;}
	.st41{opacity:0.1891;enable-background:new    ;}
	.st42{opacity:0.194;enable-background:new    ;}
	.st43{opacity:0.199;enable-background:new    ;}
	.st44{opacity:0.204;enable-background:new    ;}
	.st45{opacity:0.209;enable-background:new    ;}
	.st46{opacity:0.2139;enable-background:new    ;}
	.st47{opacity:0.2189;enable-background:new    ;}
	.st48{opacity:0.2239;enable-background:new    ;}
	.st49{opacity:0.2289;enable-background:new    ;}
	.st50{opacity:0.2338;enable-background:new    ;}
	.st51{opacity:0.2388;enable-background:new    ;}
	.st52{opacity:0.2438;enable-background:new    ;}
	.st53{opacity:0.2488;enable-background:new    ;}
	.st54{opacity:0.2537;enable-background:new    ;}
	.st55{opacity:0.2587;enable-background:new    ;}
	.st56{opacity:0.2637;enable-background:new    ;}
	.st57{opacity:0.2687;enable-background:new    ;}
	.st58{opacity:0.2736;enable-background:new    ;}
	.st59{opacity:0.2786;enable-background:new    ;}
	.st60{opacity:0.2836;enable-background:new    ;}
	.st61{opacity:0.2886;enable-background:new    ;}
	.st62{opacity:0.2935;enable-background:new    ;}
	.st63{opacity:0.2985;enable-background:new    ;}
	.st64{opacity:0.3035;enable-background:new    ;}
	.st65{opacity:0.3085;enable-background:new    ;}
	.st66{opacity:0.3134;enable-background:new    ;}
	.st67{opacity:0.3184;enable-background:new    ;}
	.st68{opacity:0.3234;enable-background:new    ;}
	.st69{opacity:0.3284;enable-background:new    ;}
	.st70{opacity:0.3333;enable-background:new    ;}
	.st71{opacity:0.3383;enable-background:new    ;}
	.st72{opacity:0.3433;enable-background:new    ;}
	.st73{opacity:0.3483;enable-background:new    ;}
	.st74{opacity:0.3532;enable-background:new    ;}
	.st75{opacity:0.3582;enable-background:new    ;}
	.st76{opacity:0.3632;enable-background:new    ;}
	.st77{opacity:0.3682;enable-background:new    ;}
	.st78{opacity:0.3731;enable-background:new    ;}
	.st79{opacity:0.3781;enable-background:new    ;}
	.st80{opacity:0.3831;enable-background:new    ;}
	.st81{opacity:0.3881;enable-background:new    ;}
	.st82{opacity:0.393;enable-background:new    ;}
	.st83{opacity:0.398;enable-background:new    ;}
	.st84{opacity:0.403;enable-background:new    ;}
	.st85{opacity:0.408;enable-background:new    ;}
	.st86{opacity:0.4129;enable-background:new    ;}
	.st87{opacity:0.4179;enable-background:new    ;}
	.st88{opacity:0.4229;enable-background:new    ;}
	.st89{opacity:0.4279;enable-background:new    ;}
	.st90{opacity:0.4328;enable-background:new    ;}
	.st91{opacity:0.4378;enable-background:new    ;}
	.st92{opacity:0.4428;enable-background:new    ;}
	.st93{opacity:0.4478;enable-background:new    ;}
	.st94{opacity:0.4527;enable-background:new    ;}
	.st95{opacity:0.4577;enable-background:new    ;}
	.st96{opacity:0.4627;enable-background:new    ;}
	.st97{opacity:0.4677;enable-background:new    ;}
	.st98{opacity:0.4726;enable-background:new    ;}
	.st99{opacity:0.4776;enable-background:new    ;}
	.st100{opacity:0.4826;enable-background:new    ;}
	.st101{opacity:0.4876;enable-background:new    ;}
	.st102{opacity:0.4925;enable-background:new    ;}
	.st103{opacity:0.4975;enable-background:new    ;}
	.st104{opacity:0.5025;enable-background:new    ;}
	.st105{opacity:0.5075;enable-background:new    ;}
	.st106{opacity:0.5124;enable-background:new    ;}
	.st107{opacity:0.5174;enable-background:new    ;}
	.st108{opacity:0.5224;enable-background:new    ;}
	.st109{opacity:0.5274;enable-background:new    ;}
	.st110{opacity:0.5323;enable-background:new    ;}
	.st111{opacity:0.5373;enable-background:new    ;}
	.st112{opacity:0.5423;enable-background:new    ;}
	.st113{opacity:0.5473;enable-background:new    ;}
	.st114{opacity:0.5522;enable-background:new    ;}
	.st115{opacity:0.5572;enable-background:new    ;}
	.st116{opacity:0.5622;enable-background:new    ;}
	.st117{opacity:0.5672;enable-background:new    ;}
	.st118{opacity:0.5721;enable-background:new    ;}
	.st119{opacity:0.5771;enable-background:new    ;}
	.st120{opacity:0.5821;enable-background:new    ;}
	.st121{opacity:0.5871;enable-background:new    ;}
	.st122{opacity:0.592;enable-background:new    ;}
	.st123{opacity:0.597;enable-background:new    ;}
	.st124{opacity:0.602;enable-background:new    ;}
	.st125{opacity:0.607;enable-background:new    ;}
	.st126{opacity:0.6119;enable-background:new    ;}
	.st127{opacity:0.6169;enable-background:new    ;}
	.st128{opacity:0.6219;enable-background:new    ;}
	.st129{opacity:0.6269;enable-background:new    ;}
	.st130{opacity:0.6318;enable-background:new    ;}
	.st131{opacity:0.6368;enable-background:new    ;}
	.st132{opacity:0.6418;enable-background:new    ;}
	.st133{opacity:0.6468;enable-background:new    ;}
	.st134{opacity:0.6517;enable-background:new    ;}
	.st135{opacity:0.6567;enable-background:new    ;}
	.st136{opacity:0.6617;enable-background:new    ;}
	.st137{opacity:0.6667;enable-background:new    ;}
	.st138{opacity:0.6716;enable-background:new    ;}
	.st139{opacity:0.6766;enable-background:new    ;}
	.st140{opacity:0.6816;enable-background:new    ;}
	.st141{opacity:0.6866;enable-background:new    ;}
	.st142{opacity:0.6915;enable-background:new    ;}
	.st143{opacity:0.6965;enable-background:new    ;}
	.st144{opacity:0.7015;enable-background:new    ;}
	.st145{opacity:0.7065;enable-background:new    ;}
	.st146{opacity:0.7114;enable-background:new    ;}
	.st147{opacity:0.7164;enable-background:new    ;}
	.st148{opacity:0.7214;enable-background:new    ;}
	.st149{opacity:0.7264;enable-background:new    ;}
	.st150{opacity:0.7313;enable-background:new    ;}
	.st151{opacity:0.7363;enable-background:new    ;}
	.st152{opacity:0.7413;enable-background:new    ;}
	.st153{opacity:0.7463;enable-background:new    ;}
	.st154{opacity:0.7512;enable-background:new    ;}
	.st155{opacity:0.7562;enable-background:new    ;}
	.st156{opacity:0.7612;enable-background:new    ;}
	.st157{opacity:0.7662;enable-background:new    ;}
	.st158{opacity:0.7711;enable-background:new    ;}
	.st159{opacity:0.7761;enable-background:new    ;}
	.st160{opacity:0.7811;enable-background:new    ;}
	.st161{opacity:0.7861;enable-background:new    ;}
	.st162{opacity:0.791;enable-background:new    ;}
	.st163{opacity:0.796;enable-background:new    ;}
	.st164{opacity:0.801;enable-background:new    ;}
	.st165{opacity:0.806;enable-background:new    ;}
	.st166{opacity:0.8109;enable-background:new    ;}
	.st167{opacity:0.8159;enable-background:new    ;}
	.st168{opacity:0.8209;enable-background:new    ;}
	.st169{opacity:0.8259;enable-background:new    ;}
	.st170{opacity:0.8308;enable-background:new    ;}
	.st171{opacity:0.8358;enable-background:new    ;}
	.st172{opacity:0.8408;enable-background:new    ;}
	.st173{opacity:0.8458;enable-background:new    ;}
	.st174{opacity:0.8507;enable-background:new    ;}
	.st175{opacity:0.8557;enable-background:new    ;}
	.st176{opacity:0.8607;enable-background:new    ;}
	.st177{opacity:0.8657;enable-background:new    ;}
	.st178{opacity:0.8706;enable-background:new    ;}
	.st179{opacity:0.8756;enable-background:new    ;}
	.st180{opacity:0.8806;enable-background:new    ;}
	.st181{opacity:0.8856;enable-background:new    ;}
	.st182{opacity:0.8905;enable-background:new    ;}
	.st183{opacity:0.8955;enable-background:new    ;}
	.st184{opacity:0.9005;enable-background:new    ;}
	.st185{opacity:0.9055;enable-background:new    ;}
	.st186{opacity:0.9104;enable-background:new    ;}
	.st187{opacity:0.9154;enable-background:new    ;}
	.st188{opacity:0.9204;enable-background:new    ;}
	.st189{opacity:0.9254;enable-background:new    ;}
	.st190{opacity:0.9303;enable-background:new    ;}
	.st191{opacity:0.9353;enable-background:new    ;}
	.st192{opacity:0.9403;enable-background:new    ;}
	.st193{opacity:0.9453;enable-background:new    ;}
	.st194{opacity:0.9502;enable-background:new    ;}
	.st195{opacity:0.9552;enable-background:new    ;}
	.st196{opacity:0.9602;enable-background:new    ;}
	.st197{opacity:0.9652;enable-background:new    ;}
	.st198{opacity:0.9701;enable-background:new    ;}
	.st199{opacity:0.9751;enable-background:new    ;}
	.st200{opacity:0.9801;enable-background:new    ;}
	.st201{opacity:0.9851;enable-background:new    ;}
	.st202{opacity:0.99;enable-background:new    ;}
	.st203{opacity:0.995;enable-background:new    ;}
	.st204{fill:#57C3FF;}
</style>
<title>Asset 1</title>
<path class="st0" d="M58.1,37.6c0.8-5.7,5.8-10,11.6-10h0.7c2.9-7.4,11.2-11.1,18.6-8.2c3.5,1.4,6.3,4.1,7.9,7.5
	c5.8-2.1,12.3,0.9,14.5,6.7c0.1,0.1,0.1,0.3,0.1,0.4c0.4,0,0.8-0.1,1.2-0.1c6.5,0,11.7,5.2,11.7,11.7s-5.2,11.7-11.7,11.7
	c-0.4,0-0.8,0-1.1-0.1l-0.4,0.1H58.9c-5.5,0-9.9-4.4-10-9.9C48.9,42.3,52.9,38,58.1,37.6L58.1,37.6z"/>
<g>
	<defs>
		<path id="SVGID_1_" d="M58.1,37.6c0.8-5.7,5.8-10,11.6-10h0.7c2.9-7.4,11.2-11.1,18.6-8.2c3.5,1.4,6.3,4.1,7.9,7.5
			c5.8-2.1,12.3,0.9,14.5,6.7c0.1,0.1,0.1,0.3,0.1,0.4c0.4,0,0.8-0.1,1.2-0.1c6.5,0,11.7,5.2,11.7,11.7s-5.2,11.7-11.7,11.7
			c-0.4,0-0.8,0-1.1-0.1l-0.4,0.1H58.9c-5.5,0-9.9-4.4-10-9.9C48.9,42.3,52.9,38,58.1,37.6L58.1,37.6z"/>
	</defs>
	<clipPath id="SVGID_2_">
		<use xlink:href="#SVGID_1_"  style="overflow:visible;"/>
	</clipPath>
	<g class="st1">
		<g class="st2">
			<path class="st3" d="M40.3,70.8c-0.8-5.7-5.8-10-11.6-10H28c-2.9-7.4-11.2-11.1-18.6-8.2c-3.5,1.4-6.3,4.1-7.9,7.5
				c-5.8-2.1-12.3,0.9-14.5,6.7c-0.1,0.1-0.1,0.3-0.1,0.4c-0.4,0-0.8-0.1-1.2-0.1c-6.5,0-11.7,5.2-11.7,11.7s5.2,11.7,11.7,11.7
				c0.4,0,0.8,0,1.1-0.1c0.1,0,0.3,0,0.4,0.1h52.2c5.5,0,9.9-4.4,10-9.9C49.4,75.5,45.4,71.1,40.3,70.8L40.3,70.8z"/>
			<path class="st4" d="M40.4,70.6c-0.8-5.7-5.8-10-11.6-10h-0.7C25.4,53.2,17,49.5,9.6,52.4c-3.5,1.4-6.3,4.1-7.9,7.5
				c-5.8-2.1-12.3,0.9-14.5,6.7c-0.1,0.1-0.1,0.3-0.1,0.4c-0.4,0-0.8-0.1-1.2-0.1c-6.5,0-11.7,5.2-11.7,11.7s5.2,11.7,11.7,11.7
				c0.4,0,0.8,0,1.1-0.1c0.1,0,0.3,0,0.4,0.1h52.2c5.5,0,9.9-4.4,10-9.9C49.6,75.3,45.6,70.9,40.4,70.6L40.4,70.6z"/>
			<path class="st5" d="M40.7,70.4c-0.8-5.7-5.8-10-11.6-10h-0.7c-2.9-7.4-11.3-11-18.7-8.1c-3.5,1.4-6.2,4-7.8,7.4
				c-5.8-2.1-12.3,0.9-14.5,6.7c-0.1,0.1-0.1,0.3-0.1,0.4c-0.4,0-0.8-0.1-1.2-0.1c-6.5,0-11.7,5.2-11.7,11.7
				c0,6.5,5.2,11.7,11.7,11.7c0,0,0,0,0,0c0.4,0,0.8,0,1.1-0.1c0.1,0,0.3,0,0.4,0.1h52.1c5.5,0,9.9-4.4,10-9.9
				C49.8,75.1,45.8,70.8,40.7,70.4L40.7,70.4z"/>
			<path class="st6" d="M40.8,70.2c-0.8-5.7-5.8-10-11.6-10h-0.7c-2.9-7.4-11.2-11-18.6-8.2c-3.5,1.4-6.3,4.1-7.9,7.5
				c-5.8-2.1-12.3,0.9-14.5,6.7c-0.1,0.1-0.1,0.3-0.1,0.4c-0.4,0-0.8-0.1-1.2-0.1c-6.5,0-11.7,5.2-11.7,11.7
				c0,6.5,5.2,11.7,11.7,11.7c0,0,0,0,0,0c0.4,0,0.8,0,1.1-0.1c0.1,0,0.3,0,0.4,0.1H40c5.5,0,9.9-4.4,10-9.9
				C50,74.9,46,70.6,40.8,70.2L40.8,70.2z"/>
			<path class="st7" d="M41.1,70c-0.8-5.7-5.8-10-11.6-10h-0.7c-2.9-7.4-11.2-11.1-18.6-8.2c-3.5,1.4-6.3,4.1-7.9,7.5
				C-3.5,57.1-10,60.1-12.1,66c-0.1,0.1-0.1,0.3-0.1,0.4c-0.4,0-0.8-0.1-1.2-0.1c-6.5,0-11.7,5.2-11.7,11.7
				c0,6.5,5.2,11.7,11.7,11.7c0,0,0,0,0,0c0.4,0,0.8,0,1.1-0.1c0.1,0,0.3,0,0.4,0.1h52.2c5.5,0,9.9-4.4,10-9.9
				C50.2,74.7,46.2,70.3,41.1,70L41.1,70z"/>
			<path class="st8" d="M41.3,69.8c-0.8-5.7-5.8-10-11.6-10H29c-2.9-7.4-11.2-11.1-18.6-8.2c-3.5,1.4-6.3,4.1-7.9,7.5
				c-5.8-2.1-12.3,0.9-14.5,6.7c-0.1,0.1-0.1,0.3-0.1,0.4c-0.4,0-0.8-0.1-1.2-0.1c-6.5,0-11.7,5.2-11.7,11.7
				c0,6.5,5.2,11.7,11.7,11.7c0,0,0,0,0,0c0.4,0,0.8,0,1.1-0.1c0.1,0,0.3,0,0.4,0.1h52.2c5.5,0,9.9-4.4,10-9.9
				C50.4,74.5,46.4,70.1,41.3,69.8L41.3,69.8z"/>
			<path class="st9" d="M41.5,69.6c-0.8-5.7-5.8-10-11.6-10h-0.7c-2.9-7.4-11.2-11.1-18.6-8.2c-3.5,1.4-6.3,4.1-7.9,7.5
				c-5.8-2.1-12.3,0.9-14.5,6.7c-0.1,0.1-0.1,0.3-0.1,0.4c-0.4,0-0.8-0.1-1.2-0.1c-6.5,0-11.7,5.2-11.7,11.7s5.2,11.7,11.7,11.7
				c0.4,0,0.8,0,1.1-0.1c0.1,0,0.3,0,0.4,0.1h52.2c5.5,0,9.9-4.4,10-9.9C50.6,74.3,46.6,69.9,41.5,69.6L41.5,69.6z"/>
			<path class="st10" d="M41.7,69.4c-0.8-5.7-5.8-10-11.6-10h-0.7c-2.9-7.4-11.3-11-18.6-8.1c-3.5,1.4-6.3,4-7.8,7.4
				c-5.8-2.1-12.3,0.9-14.5,6.7c-0.1,0.1-0.1,0.3-0.1,0.4c-0.4,0-0.8-0.1-1.2-0.1c-6.5,0-11.7,5.2-11.7,11.7
				c0,6.5,5.2,11.7,11.7,11.7c0,0,0,0,0,0c0.4,0,0.8,0,1.1-0.1c0.1,0,0.3,0,0.4,0.1h52.1c5.5,0,9.9-4.4,10-9.9
				C50.8,74.1,46.8,69.8,41.7,69.4z"/>
			<path class="st11" d="M41.9,69.2c-0.8-5.7-5.8-10-11.6-10h-0.7c-2.9-7.4-11.2-11-18.6-8.2c-3.5,1.4-6.3,4.1-7.9,7.5
				c-5.8-2.1-12.3,0.9-14.5,6.7c-0.1,0.1-0.1,0.3-0.1,0.4c-0.4,0-0.8-0.1-1.2-0.1c-6.5,0-11.7,5.2-11.7,11.7
				c0,6.5,5.2,11.7,11.7,11.7c0,0,0,0,0,0c0.4,0,0.8,0,1.1-0.1c0.1,0,0.3,0,0.4,0.1h52.2c5.5,0,9.9-4.4,10-9.9
				C51,73.9,47,69.6,41.9,69.2L41.9,69.2z"/>
			<path class="st12" d="M42.1,69c-0.8-5.7-5.8-10-11.6-10h-0.7c-2.9-7.4-11.2-11.1-18.6-8.2c-3.5,1.4-6.3,4.1-7.9,7.5
				C-2.5,56.1-9,59.1-11.1,65c-0.1,0.1-0.1,0.3-0.1,0.4c-0.4,0-0.8-0.1-1.2-0.1c-6.5,0-11.7,5.2-11.7,11.7s5.2,11.7,11.7,11.7
				c0.4,0,0.8,0,1.1-0.1c0.1,0,0.3,0,0.4,0.1h52.2c5.5,0,9.9-4.4,10-9.9C51.2,73.7,47.2,69.3,42.1,69L42.1,69z"/>
			<path class="st13" d="M42.3,68.8c-0.8-5.7-5.8-10-11.6-10H30c-2.9-7.4-11.2-11.1-18.6-8.2c-3.5,1.4-6.3,4.1-7.9,7.5
				C-2.3,56-8.8,59-10.9,64.9c0,0.1-0.1,0.3-0.1,0.4c-0.4,0-0.8-0.1-1.2-0.1c-6.5,0-11.7,5.2-11.7,11.7c0,6.5,5.2,11.7,11.7,11.7
				c0,0,0,0,0,0c0.4,0,0.8,0,1.1-0.1c0.1,0,0.3,0,0.4,0.1h52.1c5.5,0,9.9-4.4,10-9.9C51.5,73.5,47.5,69.2,42.3,68.8L42.3,68.8z"/>
			<path class="st14" d="M42.5,68.6c-0.8-5.7-5.8-10-11.6-10h-0.7c-2.9-7.4-11.2-11.1-18.6-8.2c-3.5,1.4-6.3,4.1-7.9,7.5
				c-5.8-2.1-12.3,0.9-14.5,6.7c-0.1,0.1-0.1,0.3-0.1,0.4c-0.4,0-0.8-0.1-1.2-0.1c-6.5,0-11.7,5.2-11.7,11.7
				c0,6.5,5.2,11.7,11.7,11.7c0.4,0,0.8,0,1.1-0.1c0.1,0,0.3,0,0.4,0.1h52.2c5.5,0,9.9-4.4,10-9.9C51.7,73.3,47.7,68.9,42.5,68.6
				L42.5,68.6z"/>
			<path class="st15" d="M42.7,68.4c-0.8-5.7-5.8-10-11.6-10h-0.7c-2.9-7.4-11.3-11-18.6-8.1c-3.5,1.4-6.3,4-7.8,7.4
				c-5.8-2.1-12.3,0.9-14.5,6.7c-0.1,0.1-0.1,0.3-0.1,0.4c-0.4,0-0.8-0.1-1.2-0.1c-6.5,0-11.7,5.2-11.7,11.7
				c0,6.5,5.2,11.7,11.7,11.7c0,0,0,0,0,0c0.4,0,0.8,0,1.1-0.1c0.1,0,0.3,0,0.4,0.1h52.2c5.5,0,9.9-4.4,10-9.9
				C51.9,73.1,47.9,68.8,42.7,68.4z"/>
			<path class="st16" d="M42.9,68.2c-0.8-5.7-5.8-10-11.6-10h-0.7c-2.9-7.4-11.2-11-18.6-8.2c-3.5,1.4-6.3,4.1-7.9,7.5
				c-5.8-2.1-12.3,0.9-14.5,6.7c-0.1,0.1-0.1,0.3-0.1,0.4c-0.4,0-0.8-0.1-1.2-0.1c-6.5,0-11.7,5.2-11.7,11.7
				c0,6.5,5.2,11.7,11.7,11.7c0,0,0,0,0,0c0.4,0,0.8,0,1.1-0.1c0.1,0,0.3,0,0.4,0.1h52.2c5.5,0,9.9-4.4,10-9.9
				C52.1,72.9,48.1,68.6,42.9,68.2L42.9,68.2z"/>
			<path class="st17" d="M43.1,68c-0.8-5.7-5.8-10-11.6-10h-0.7c-2.9-7.4-11.2-11.1-18.6-8.2c-3.5,1.4-6.3,4.1-7.9,7.5
				c-5.8-2.1-12.3,0.9-14.5,6.7c-0.1,0.1-0.1,0.3-0.1,0.4c-0.4,0-0.8-0.1-1.2-0.1c-6.5,0-11.7,5.2-11.7,11.7
				c0,6.5,5.2,11.7,11.7,11.7c0.4,0,0.8,0,1.1-0.1c0.1,0,0.3,0,0.4,0.1h52.2c5.5,0,9.9-4.4,10-9.9C52.3,72.7,48.3,68.3,43.1,68
				L43.1,68z"/>
			<path class="st18" d="M43.3,67.8c-0.8-5.7-5.8-10-11.6-10h-0.7c-2.9-7.4-11.2-11.1-18.6-8.2c-3.5,1.4-6.3,4.1-7.9,7.5
				C-1.3,55-7.7,58-9.9,63.8c0,0.1-0.1,0.3-0.1,0.4c-0.4,0-0.8-0.1-1.2-0.1c-6.5,0-11.7,5.2-11.7,11.7c0,6.5,5.2,11.7,11.7,11.7
				c0,0,0,0,0,0c0.4,0,0.8,0,1.1-0.1c0.1,0,0.3,0,0.4,0.1h52.1c5.5,0,9.9-4.4,10-9.9C52.5,72.5,48.5,68.2,43.3,67.8z"/>
			<path class="st19" d="M43.5,67.6c-0.8-5.7-5.8-10-11.6-10h-0.7c-2.9-7.4-11.2-11.1-18.6-8.2c-3.5,1.4-6.3,4.1-7.9,7.5
				c-5.8-2.1-12.3,0.9-14.5,6.7c-0.1,0.1-0.1,0.3-0.1,0.4c-0.4,0-0.8-0.1-1.2-0.1c-6.5,0-11.7,5.2-11.7,11.7
				c0,6.5,5.2,11.7,11.7,11.7c0,0,0,0,0,0c0.4,0,0.8,0,1.1-0.1c0.1,0,0.3,0,0.4,0.1h52.2c5.5,0,9.9-4.4,10-9.9
				C52.7,72.3,48.7,67.9,43.5,67.6L43.5,67.6z"/>
			<path class="st20" d="M43.7,67.4c-0.8-5.7-5.8-10-11.6-10h-0.7c-2.9-7.4-11.3-11-18.6-8.1c-3.5,1.4-6.3,4-7.8,7.4
				c-5.8-2.1-12.3,0.9-14.5,6.7c-0.1,0.1-0.1,0.3-0.1,0.4c-0.4,0-0.8-0.1-1.2-0.1c-6.5,0-11.7,5.2-11.7,11.7
				c0,6.5,5.2,11.7,11.7,11.7c0.4,0,0.8,0,1.1-0.1c0.1,0,0.3,0,0.4,0.1h52.2c5.5,0,9.9-4.4,10-9.9C52.9,72.1,48.9,67.8,43.7,67.4
				L43.7,67.4z"/>
			<path class="st21" d="M43.9,67.2c-0.8-5.7-5.8-10-11.6-10h-0.7c-2.9-7.4-11.2-11-18.6-8.1c-3.5,1.4-6.3,4.1-7.9,7.5
				c-5.8-2.1-12.3,0.9-14.5,6.7c-0.1,0.1-0.1,0.3-0.1,0.4c-0.4,0-0.8-0.1-1.2-0.1c-6.5,0-11.7,5.2-11.7,11.7
				c0,6.5,5.2,11.7,11.7,11.7c0,0,0,0,0,0c0.4,0,0.8,0,1.1-0.1c0.1,0,0.3,0,0.4,0.1h52.2c5.5,0,9.9-4.4,10-9.9
				C53.1,71.9,49.1,67.6,43.9,67.2z"/>
			<path class="st22" d="M44.1,66.9c-0.8-5.7-5.8-10-11.6-10h-0.7c-2.9-7.4-11.2-11.1-18.6-8.2c-3.5,1.4-6.3,4.1-7.9,7.5
				C-0.5,54.1-6.9,57.1-9.1,63c-0.1,0.1-0.1,0.3-0.1,0.4c-0.4,0-0.8-0.1-1.2-0.1c-6.5,0-11.7,5.2-11.7,11.7
				c0,6.5,5.2,11.7,11.7,11.7c0,0,0,0,0,0c0.4,0,0.8,0,1.1-0.1c0.1,0,0.3,0,0.4,0.1h52.2c5.5,0,9.9-4.4,10-9.9
				C53.3,71.6,49.3,67.3,44.1,66.9L44.1,66.9z"/>
			<path class="st23" d="M44.3,66.8c-0.8-5.7-5.8-10-11.6-10h-0.7c-2.9-7.4-11.2-11.1-18.6-8.2c-3.5,1.4-6.3,4.1-7.9,7.5
				C-0.3,53.9-6.7,57-8.9,62.8c0,0.1-0.1,0.3-0.1,0.4c-0.4,0-0.8-0.1-1.2-0.1c-6.5,0-11.7,5.2-11.7,11.7c0,6.5,5.2,11.7,11.7,11.7
				c0.4,0,0.8,0,1.1-0.1c0.1,0,0.3,0,0.4,0.1h52.2c5.5,0,9.9-4.4,10-9.9C53.5,71.5,49.5,67.2,44.3,66.8z"/>
			<path class="st24" d="M44.5,66.5c-0.8-5.7-5.8-10-11.6-10h-0.7c-2.9-7.4-11.2-11.1-18.6-8.2c-3.5,1.4-6.3,4.1-7.9,7.5
				c-5.8-2.1-12.3,0.9-14.5,6.7c-0.1,0.1-0.1,0.3-0.1,0.4c-0.4,0-0.8-0.1-1.2-0.1c-6.5,0-11.7,5.2-11.7,11.7
				c0,6.5,5.2,11.7,11.7,11.7c0.4,0,0.8,0,1.1-0.1c0.1,0,0.3,0,0.4,0.1h52.2c5.5-0.2,9.8-4.8,9.6-10.2
				C53.1,71.1,49.4,67.1,44.5,66.5z"/>
			<path class="st25" d="M44.7,66.3c-0.8-5.7-5.8-10-11.6-10h-0.7c-2.9-7.4-11.2-11-18.6-8.1c-3.5,1.4-6.3,4-7.8,7.5
				c-5.8-2.1-12.3,0.9-14.5,6.7c-0.1,0.1-0.1,0.3-0.1,0.4c-0.4,0-0.8-0.1-1.2-0.1c-6.5,0-11.7,5.2-11.7,11.7
				c0,6.5,5.2,11.7,11.7,11.7c0.4,0,0.8,0,1.1-0.1c0.1,0,0.3,0,0.4,0.1h52.2c5.5,0,9.9-4.4,10-9.9C53.9,71.1,49.9,66.7,44.7,66.3
				L44.7,66.3z"/>
			<path class="st26" d="M44.9,66.2c-0.8-5.7-5.8-10-11.6-10h-0.7c-2.9-7.4-11.2-11-18.6-8.1c-3.5,1.4-6.3,4.1-7.9,7.5
				c-5.8-2.1-12.3,0.9-14.5,6.7c-0.1,0.1-0.1,0.3-0.1,0.4c-0.4,0-0.8-0.1-1.2-0.1c-6.5,0-11.7,5.2-11.7,11.7
				c0,6.5,5.2,11.7,11.7,11.7c0,0,0,0,0,0c0.4,0,0.8,0,1.1-0.1c0.1,0,0.3,0,0.4,0.1h52.2c5.5,0,9.9-4.4,10-9.9
				C54.1,70.9,50.1,66.6,44.9,66.2L44.9,66.2z"/>
			<path class="st27" d="M45.1,65.9c-0.8-5.7-5.8-10-11.6-10h-0.7c-2.9-7.4-11.2-11.1-18.6-8.2c-3.5,1.4-6.3,4.1-7.9,7.5
				c-5.8-2.1-12.3,0.9-14.5,6.7c-0.1,0.1-0.1,0.3-0.1,0.4c-0.4,0-0.8-0.1-1.2-0.1c-6.5,0-11.7,5.2-11.7,11.7
				c0,6.5,5.2,11.7,11.7,11.7c0,0,0,0,0,0c0.4,0,0.8,0,1.1-0.1c0.1,0,0.3,0,0.4,0.1h52.2c5.5,0,9.9-4.4,10-9.9
				C54.3,70.6,50.3,66.3,45.1,65.9L45.1,65.9z"/>
			<path class="st28" d="M45.3,65.7c-0.8-5.7-5.8-10-11.6-10h-0.7c-2.9-7.4-11.2-11.1-18.6-8.2c-3.5,1.4-6.3,4.1-7.9,7.5
				c-5.8-2.1-12.3,0.9-14.4,6.7C-7.9,61.9-8,62.1-8,62.2c-0.4,0-0.8-0.1-1.2-0.1c-6.5,0-11.7,5.2-11.7,11.7
				c0,6.5,5.2,11.7,11.7,11.7c0.4,0,0.8,0,1.1-0.1c0.1,0,0.3,0,0.4,0.1h52.2c5.5,0,9.9-4.4,10-9.9C54.5,70.5,50.5,66.1,45.3,65.7z"
				/>
			<path class="st29" d="M45.5,65.5c-0.8-5.7-5.8-10-11.6-10h-0.7c-2.9-7.4-11.2-11.1-18.6-8.2c-3.5,1.4-6.3,4.1-7.9,7.5
				c-5.8-2.1-12.3,0.9-14.5,6.7c-0.1,0.1-0.1,0.3-0.1,0.4c-0.4,0-0.8,0-1.2,0c-6.5,0-11.7,5.2-11.7,11.7c0,6.5,5.2,11.7,11.7,11.7
				c0.4,0,0.8,0,1.1-0.1c0.1,0,0.3,0,0.4,0.1h52.1c5.5,0.2,10.1-4,10.3-9.5C55.2,70.4,51,65.7,45.5,65.5L45.5,65.5z"/>
			<path class="st30" d="M45.7,65.3c-0.8-5.7-5.8-10-11.6-10h-0.7c-2.9-7.4-11.2-11-18.6-8.1c-3.5,1.4-6.3,4.1-7.9,7.5
				c-5.8-2.1-12.3,0.9-14.5,6.7c-0.1,0.1-0.1,0.3-0.1,0.4c-0.4,0-0.8-0.1-1.2-0.1c-6.5,0-11.7,5.2-11.7,11.7
				c0,6.5,5.2,11.7,11.7,11.7c0,0,0,0,0,0c0.4,0,0.8,0,1.1-0.1c0.1,0,0.3,0,0.4,0.1h52.2c5.5,0,9.9-4.4,10-9.9
				C54.9,70.1,50.9,65.7,45.7,65.3L45.7,65.3z"/>
			<path class="st31" d="M45.9,65.1c-0.8-5.7-5.8-10-11.6-10h-0.7c-2.9-7.4-11.2-11-18.6-8.1c-3.5,1.4-6.3,4.1-7.9,7.5
				c-5.8-2.1-12.3,0.9-14.5,6.7c-0.1,0.1-0.1,0.3-0.1,0.4c-0.4-0.1-0.8-0.1-1.2-0.1c-6.5,0-11.7,5.2-11.7,11.7
				c0,6.5,5.2,11.7,11.7,11.7c0,0,0,0,0,0c0.4,0,0.8,0,1.1-0.1c0.1,0,0.3,0,0.4,0.1h52.2c5.5,0,9.9-4.4,10-9.9
				C55.1,69.8,51.1,65.5,45.9,65.1L45.9,65.1z"/>
			<path class="st32" d="M46.1,64.9c-0.8-5.7-5.8-10-11.6-10h-0.7c-2.9-7.4-11.2-11.1-18.6-8.2c-3.5,1.4-6.3,4.1-7.9,7.5
				C1.5,52.1-4.9,55.1-7.1,61c-0.1,0.1-0.1,0.3-0.1,0.4c-0.4,0-0.8-0.1-1.2-0.1c-6.5,0-11.7,5.2-11.7,11.7c0,6.5,5.2,11.7,11.7,11.7
				c0.4,0,0.8,0,1.1-0.1c0.1,0,0.3,0,0.4,0.1h52.2c5.5,0,9.9-4.4,10-9.9C55.3,69.7,51.3,65.3,46.1,64.9L46.1,64.9z"/>
			<path class="st33" d="M46.3,64.7c-0.8-5.7-5.8-10-11.6-10h-0.7c-2.9-7.4-11.2-11.1-18.6-8.2C12,47.9,9.1,50.6,7.6,54
				c-5.8-2.1-12.3,0.9-14.5,6.7C-6.9,60.9-7,61.1-7,61.2c-0.4,0-0.8-0.1-1.2-0.1c-6.5,0-11.7,5.2-11.7,11.7
				c0,6.5,5.2,11.7,11.7,11.7c0,0,0,0,0,0c0.4,0,0.8,0,1.1-0.1c0.1,0,0.3,0,0.4,0.1h52.2c5.5,0,9.9-4.4,10-9.9
				C55.5,69.5,51.5,65.1,46.3,64.7z"/>
			<path class="st34" d="M46.5,64.5c-0.8-5.7-5.8-10-11.6-10h-0.7c-2.9-7.4-11.2-11.1-18.6-8.2c-3.5,1.4-6.3,4.1-7.9,7.5
				C2,51.7-4.5,54.7-6.7,60.5c-0.1,0.2-0.1,0.3-0.2,0.5c-0.4,0-0.8-0.1-1.2-0.1c-6.5,0-11.7,5.2-11.7,11.7c0,6.5,5.2,11.7,11.7,11.7
				c0.4,0,0.8,0,1.1-0.1c0.1,0,0.3,0,0.4,0.1h52.1c5.5,0.2,10.1-4,10.3-9.5C56.2,69.4,52,64.7,46.5,64.5L46.5,64.5z"/>
			<path class="st35" d="M46.7,64.3c-0.8-5.7-5.8-10-11.6-10h-0.7c-2.9-7.4-11.2-11-18.6-8.1c-3.5,1.4-6.3,4.1-7.9,7.5
				c-5.8-2.1-12.3,0.9-14.5,6.7c-0.1,0.1-0.1,0.3-0.1,0.4c-0.4,0-0.8-0.1-1.2-0.1c-6.5,0-11.7,5.2-11.7,11.7
				c0,6.5,5.2,11.7,11.7,11.7c0,0,0,0,0,0c0.4,0,0.8,0,1.1-0.1c0.1,0,0.3,0,0.4,0.1h52.2c5.5,0,9.9-4.4,10-9.9
				C55.9,69.1,51.9,64.7,46.7,64.3z"/>
			<path class="st36" d="M46.9,64.1c-0.8-5.7-5.8-10-11.6-10h-0.7c-2.9-7.4-11.2-11-18.6-8.1c-3.5,1.4-6.3,4.1-7.9,7.5
				c-5.8-2.1-12.3,0.8-14.5,6.7c-0.1,0.1-0.1,0.3-0.1,0.4c-0.4-0.1-0.8-0.1-1.2-0.1c-6.5,0-11.7,5.2-11.7,11.7
				c0,6.5,5.2,11.7,11.7,11.7c0,0,0,0,0,0c0.4,0,0.8,0,1.1-0.1c0.1,0,0.3,0,0.4,0.1h52.2c5.5,0,9.9-4.4,10-9.9
				C56.1,68.8,52.1,64.5,46.9,64.1L46.9,64.1z"/>
			<path class="st37" d="M47.1,63.9c-0.8-5.7-5.8-10-11.6-10h-0.7c-2.9-7.4-11.2-11.1-18.6-8.2c-3.5,1.4-6.3,4.1-7.9,7.5
				C2.6,51.1-3.9,54.1-6.1,60c-0.1,0.1-0.1,0.3-0.2,0.4c-0.4,0-0.8-0.1-1.2-0.1c-6.5,0-11.7,5.2-11.7,11.7c0,6.5,5.2,11.7,11.7,11.7
				c0.4,0,0.8,0,1.1-0.1c0.1,0,0.3,0,0.4,0.1h52.2c5.5,0,9.9-4.4,10-9.9C56.3,68.7,52.3,64.3,47.1,63.9L47.1,63.9z"/>
			<path class="st38" d="M47.3,63.7c-0.8-5.7-5.8-10-11.6-10h-0.7c-2.9-7.4-11.2-11.1-18.6-8.2c-3.5,1.4-6.3,4.1-7.9,7.5
				c-5.8-2.1-12.3,0.9-14.5,6.7C-5.9,59.9-6,60-6,60.2c-0.4,0-0.8-0.1-1.2-0.1c-6.5,0-11.7,5.2-11.7,11.7c0,6.5,5.2,11.7,11.7,11.7
				c0,0,0,0,0,0c0.4,0,0.8,0,1.1-0.1c0.1,0,0.3,0,0.4,0.1h52.2c5.5,0,9.9-4.4,10-9.9C56.5,68.5,52.5,64.1,47.3,63.7L47.3,63.7z"/>
			<path class="st39" d="M47.5,63.5c-0.8-5.7-5.8-10-11.6-10h-0.7c-2.9-7.4-11.2-11.1-18.6-8.2c-3.5,1.4-6.3,4.1-7.9,7.5
				C3,50.7-3.5,53.7-5.6,59.5c-0.1,0.1-0.1,0.3-0.2,0.4c-0.4,0-0.8-0.1-1.2-0.1c-6.5,0-11.7,5.2-11.7,11.7c0,6.5,5.2,11.7,11.7,11.7
				c0,0,0,0,0,0c0.4,0,0.8,0,1.1-0.1c0.1,0,0.3,0,0.4,0.1h52.1c5.5,0.2,10.1-4,10.3-9.5C57.3,68.3,53,63.7,47.5,63.5z"/>
			<path class="st40" d="M47.7,63.3c-0.8-5.7-5.8-10-11.6-10h-0.7c-2.9-7.4-11.2-11-18.6-8.2c-3.5,1.4-6.3,4.1-7.9,7.5
				c-5.8-2.1-12.3,0.9-14.5,6.7c0,0.1-0.1,0.3-0.1,0.4c-0.4,0-0.8-0.1-1.2-0.1c-6.5,0-11.7,5.2-11.7,11.7c0,6.5,5.2,11.7,11.7,11.7
				c0.4,0,0.8,0,1.1-0.1c0.1,0,0.3,0,0.4,0.1h52.2c5.5,0,9.9-4.4,10-9.9C56.9,68.1,52.9,63.7,47.7,63.3z"/>
			<path class="st41" d="M47.9,63.1c-0.8-5.7-5.8-10-11.6-10h-0.7c-2.9-7.4-11.2-11-18.6-8.1c-3.5,1.4-6.3,4.1-7.9,7.5
				c-5.8-2.1-12.3,0.8-14.5,6.7c0,0.1-0.1,0.3-0.1,0.4c-0.4-0.1-0.8-0.1-1.2-0.1c-6.5,0-11.7,5.2-11.7,11.7
				c0,6.5,5.2,11.7,11.7,11.7c0,0,0,0,0,0c0.4,0,0.8,0,1.1-0.1c0.1,0,0.3,0,0.4,0.1h52.2c5.5,0,9.9-4.4,10-9.9
				C57.1,67.8,53.1,63.5,47.9,63.1L47.9,63.1z"/>
			<path class="st42" d="M48.1,62.9c-0.8-5.7-5.8-10-11.6-10h-0.7c-2.9-7.4-11.2-11.1-18.6-8.2c-3.5,1.4-6.3,4.1-7.9,7.5
				C3.6,50.1-2.9,53.1-5,58.9c-0.1,0.1-0.1,0.3-0.2,0.4c-0.4,0-0.8-0.1-1.2-0.1c-6.5,0-11.7,5.2-11.7,11.7c0,6.5,5.2,11.7,11.7,11.7
				c0.4,0,0.8,0,1.1-0.1c0.1,0,0.3,0,0.4,0.1h52.2c5.5,0,9.9-4.5,9.9-10C57.1,67.6,53.2,63.4,48.1,62.9L48.1,62.9z"/>
			<path class="st43" d="M48.3,62.7c-0.8-5.7-5.8-10-11.6-10h-0.7c-2.9-7.4-11.2-11.1-18.6-8.2c-3.5,1.4-6.3,4.1-7.9,7.5
				c-5.8-2.1-12.3,0.9-14.5,6.7C-4.9,58.9-5,59-5,59.2c-0.4,0-0.8-0.1-1.2-0.1c-6.5,0-11.7,5.2-11.7,11.7c0,6.5,5.2,11.7,11.7,11.7
				c0,0,0,0,0,0c0.4,0,0.8,0,1.1-0.1c0.1,0,0.3,0,0.4,0.1h52.2c5.5,0,9.9-4.5,9.9-10C57.3,67.4,53.4,63.2,48.3,62.7L48.3,62.7z"/>
			<path class="st44" d="M48.5,62.5c-0.8-5.7-5.7-10-11.5-10h-0.7c-2.9-7.4-11.2-11.1-18.6-8.2c-3.5,1.4-6.3,4.1-7.9,7.5
				C4,49.7-2.5,52.7-4.6,58.5c-0.1,0.1-0.1,0.3-0.1,0.4c-0.4,0-0.8,0-1.3,0c-6.5,0-11.7,5.2-11.7,11.7c0,6.5,5.2,11.7,11.7,11.7
				c0,0,0,0,0,0c0.4,0,0.8,0,1.1-0.1c0.1,0,0.3,0,0.4,0.1h52.2c5.5,0.1,10-4.2,10.1-9.7C58,67.3,53.8,62.8,48.5,62.5z"/>
			<path class="st45" d="M48.7,62.3c-0.8-5.7-5.8-10-11.6-10h-0.7c-2.9-7.4-11.2-11.1-18.6-8.2c-3.5,1.4-6.4,4.1-7.9,7.5
				c-5.8-2.1-12.3,0.9-14.5,6.7c-0.1,0.1-0.1,0.3-0.1,0.4c-0.4,0-0.8-0.1-1.2-0.1c-6.5,0-11.7,5.2-11.7,11.7s5.2,11.7,11.7,11.7
				c0.4,0,0.8,0,1.1-0.1c0.1,0,0.3,0,0.4,0.1h52.2c5.5,0,9.9-4.5,9.9-10C57.7,67,53.8,62.8,48.7,62.3L48.7,62.3z"/>
			<path class="st46" d="M48.9,62.1c-0.8-5.7-5.8-10-11.6-10h-0.7c-2.9-7.4-11.2-11-18.6-8.1c-3.5,1.4-6.3,4.1-7.9,7.5
				c-5.8-2.1-12.3,0.9-14.5,6.7c-0.1,0.1-0.1,0.3-0.1,0.4c-0.4-0.1-0.8-0.1-1.2-0.1c-6.5,0-11.7,5.2-11.7,11.7
				c0,6.5,5.2,11.7,11.7,11.7c0,0,0,0,0,0c0.4,0,0.8,0,1.1-0.1c0.1,0,0.3,0,0.4,0.1h52.2c5.5,0,9.9-4.5,9.9-10
				C57.9,66.8,54,62.6,48.9,62.1L48.9,62.1z"/>
			<path class="st47" d="M49.1,61.9c-0.8-5.7-5.8-10-11.6-10h-0.7c-2.9-7.4-11.2-11.1-18.6-8.2c-3.5,1.4-6.3,4.1-7.9,7.5
				C4.6,49.1-1.9,52.1-4,57.9c-0.1,0.1-0.1,0.3-0.1,0.4c-0.4,0-0.8-0.1-1.2-0.1c-6.5,0-11.7,5.2-11.7,11.7c0,6.5,5.2,11.7,11.7,11.7
				c0,0,0,0,0,0c0.4,0,0.8,0,1.1-0.1c0.1,0,0.3,0,0.4,0.1h52.2c5.5,0,9.9-4.5,9.9-10C58.1,66.6,54.2,62.3,49.1,61.9L49.1,61.9z"/>
			<path class="st48" d="M49.3,61.7c-0.8-5.7-5.8-10-11.6-10h-0.7c-2.9-7.4-11.2-11.1-18.6-8.2c-3.5,1.4-6.3,4.1-7.9,7.5
				c-5.8-2.1-12.3,0.9-14.5,6.7C-3.9,57.9-4,58-4,58.2c-0.4,0-0.8-0.1-1.2-0.1c-6.5,0-11.7,5.2-11.7,11.7s5.2,11.7,11.7,11.7
				c0.4,0,0.8,0,1.1-0.1c0.1,0,0.3,0,0.4,0.1h52.2c5.5,0,9.9-4.5,9.9-10C58.3,66.4,54.4,62.2,49.3,61.7L49.3,61.7z"/>
			<path class="st49" d="M49.5,61.5c-0.8-5.7-5.7-10-11.5-10h-0.7c-2.9-7.4-11.2-11.1-18.6-8.2c-3.5,1.4-6.3,4.1-7.9,7.5
				C5,48.7-1.5,51.7-3.6,57.5c-0.1,0.1-0.1,0.3-0.1,0.4c-0.4,0-0.8,0-1.3,0c-6.5,0-11.7,5.2-11.7,11.7S-11.5,81.3-5,81.3
				c0.4,0,0.8,0,1.1-0.1c0.1,0,0.3,0,0.4,0.1h52.2c5.5,0,9.9-4.4,10-9.9C58.7,66.2,54.7,61.9,49.5,61.5z"/>
			<path class="st50" d="M49.7,61.3c-0.8-5.7-5.8-10-11.6-10h-0.7c-2.9-7.4-11.2-11.1-18.6-8.2c-3.5,1.4-6.4,4.1-7.9,7.5
				c-5.8-2.1-12.3,0.9-14.5,6.7c-0.1,0.1-0.1,0.3-0.1,0.4c-0.4,0-0.8-0.1-1.2-0.1c-6.5,0-11.7,5.2-11.7,11.7
				c0,6.5,5.2,11.7,11.7,11.7c0,0,0,0,0,0c0.4,0,0.8,0,1.1-0.1c0.1,0,0.3,0,0.4,0.1h52.2c5.5,0,9.9-4.5,9.9-10
				C58.7,66,54.8,61.8,49.7,61.3L49.7,61.3z"/>
			<path class="st51" d="M49.9,61.1c-0.8-5.7-5.8-10-11.6-10h-0.7c-2.9-7.4-11.2-11.1-18.6-8.2c-3.5,1.4-6.3,4.1-7.9,7.5
				c-5.8-2.1-12.3,0.9-14.5,6.7c-0.1,0.1-0.1,0.3-0.1,0.4c-0.4,0-0.8,0-1.2,0c-6.5,0-11.7,5.2-11.7,11.7c0,6.5,5.2,11.7,11.7,11.7
				c0,0,0,0,0,0c0.4,0,0.8,0,1.1-0.1c0.1,0,0.3,0,0.4,0.1h52.2c5.5,0,9.9-4.5,9.9-10C58.9,65.8,55,61.6,49.9,61.1z"/>
			<path class="st52" d="M50.1,60.9c-0.8-5.7-5.8-10-11.6-10h-0.7c-2.9-7.4-11.2-11.1-18.6-8.2c-3.5,1.4-6.3,4.1-7.9,7.5
				C5.6,48.1-0.9,51.1-3,56.9c-0.1,0.1-0.1,0.3-0.1,0.4c-0.4,0-0.8-0.1-1.2-0.1c-6.5,0-11.7,5.2-11.7,11.7c0,6.5,5.2,11.7,11.7,11.7
				c0.4,0,0.8,0,1.1-0.1c0.1,0,0.3,0,0.4,0.1h52.2c5.5,0,9.9-4.5,9.9-10C59.1,65.6,55.2,61.3,50.1,60.9L50.1,60.9z"/>
			<path class="st53" d="M50.3,60.7c-0.8-5.7-5.8-10-11.6-10h-0.7c-2.9-7.4-11.2-11.1-18.6-8.2c-3.5,1.4-6.3,4.1-7.9,7.5
				c-5.8-2.1-12.3,0.8-14.5,6.7C-2.9,56.9-2.9,57-3,57.2c-0.4,0-0.8-0.1-1.2-0.1c-6.5,0-11.7,5.2-11.7,11.7
				c0,6.5,5.2,11.7,11.7,11.7c0.4,0,0.8,0,1.1-0.1c0.1,0,0.3,0,0.4,0.1h52.2c5.5,0,9.9-4.5,9.9-10C59.3,65.4,55.4,61.2,50.3,60.7
				L50.3,60.7z"/>
			<path class="st54" d="M50.5,60.5c-0.8-5.7-5.7-10-11.5-10h-0.7c-2.9-7.4-11.2-11.1-18.6-8.2c-3.5,1.4-6.3,4.1-7.9,7.5
				C6,47.7-0.5,50.7-2.6,56.5c-0.1,0.1-0.1,0.3-0.1,0.4c-0.4,0-0.8,0-1.3,0c-6.5,0-11.7,5.2-11.7,11.7S-10.5,80.3-4,80.3
				c0,0,0,0,0,0c0.4,0,0.8,0,1.1-0.1c0.1,0,0.3,0,0.4,0.1h52.2c5.5,0,9.9-4.5,9.9-10C59.5,65.2,55.6,61,50.5,60.5z"/>
			<path class="st55" d="M50.7,60.3c-0.8-5.7-5.8-10-11.6-10h-0.7c-2.9-7.4-11.2-11.1-18.6-8.2c-3.5,1.4-6.4,4.1-7.9,7.5
				c-5.8-2.1-12.3,0.9-14.5,6.7c-0.1,0.1-0.1,0.3-0.1,0.4c-0.4,0-0.8-0.1-1.2-0.1c-6.5,0-11.7,5.2-11.7,11.7s5.2,11.7,11.7,11.7
				c0,0,0,0,0,0c0.4,0,0.8,0,1.1-0.1c0.1,0,0.3,0,0.4,0.1h52.2c5.5,0,9.9-4.5,9.9-10C59.7,65,55.8,60.8,50.7,60.3z"/>
			<path class="st56" d="M50.9,60.1c-0.8-5.7-5.8-10-11.6-10h-0.7c-2.9-7.4-11.2-11.1-18.6-8.2c-3.5,1.4-6.3,4.1-7.9,7.5
				c-5.8-2.1-12.3,0.9-14.5,6.7c-0.1,0.1-0.1,0.3-0.1,0.4c-0.4,0-0.8,0-1.2,0c-6.5,0-11.7,5.2-11.7,11.7s5.2,11.7,11.7,11.7
				c0,0,0,0,0,0c0.4,0,0.8,0,1.1-0.1c0.1,0,0.3,0,0.4,0.1h52.2c5.5,0,9.9-4.5,9.9-10C59.9,64.8,56,60.6,50.9,60.1L50.9,60.1z"/>
			<path class="st57" d="M51.1,59.9c-0.8-5.7-5.8-10-11.6-10h-0.7c-2.9-7.4-11.2-11.1-18.6-8.2c-3.5,1.4-6.3,4.1-7.9,7.5
				C6.6,47.1,0.1,50.1-2,55.9c-0.1,0.1-0.1,0.3-0.1,0.4c-0.4,0-0.8-0.1-1.2-0.1c-6.5,0-11.7,5.2-11.7,11.7c0,6.5,5.2,11.7,11.7,11.7
				c0.4,0,0.8,0,1.1-0.1c0.1,0,0.3,0,0.4,0.1h52.2c5.5,0,9.9-4.5,9.9-10C60.1,64.6,56.2,60.3,51.1,59.9L51.1,59.9z"/>
			<path class="st58" d="M51.3,59.7c-0.8-5.7-5.8-10-11.6-10h-0.7c-2.9-7.4-11.2-11.1-18.6-8.2c-3.5,1.4-6.3,4.1-7.9,7.5
				c-5.8-2.2-12.3,0.8-14.5,6.7C-1.9,55.8-1.9,56-2,56.2c-0.4,0-0.8-0.1-1.2-0.1c-6.5-0.3-11.9,4.8-12.2,11.2
				c-0.3,6.5,4.8,11.9,11.2,12.2c0.3,0,0.6,0,1,0c0.4,0,0.8,0,1.1-0.1c0.1,0,0.3,0,0.4,0.1h52.2c5.5,0,9.9-4.5,9.9-10
				C60.3,64.4,56.4,60.1,51.3,59.7L51.3,59.7z"/>
			<path class="st59" d="M51.5,59.5c-0.8-5.7-5.7-10-11.5-10h-0.7c-2.9-7.4-11.2-11.1-18.6-8.2c-3.5,1.4-6.3,4.1-7.9,7.5
				C7,46.7,0.5,49.7-1.6,55.5c-0.1,0.1-0.1,0.3-0.1,0.4c-0.4,0-0.8,0-1.2,0c-6.5,0-11.7,5.2-11.7,11.7S-9.5,79.3-3,79.3c0,0,0,0,0,0
				c0.4,0,0.8,0,1.1-0.1c0.1,0,0.3,0,0.4,0.1h52.2c5.5,0,9.9-4.5,9.9-10C60.5,64.2,56.6,60,51.5,59.5z"/>
			<path class="st60" d="M51.7,59.3c-0.8-5.7-5.8-10-11.6-10h-0.7c-2.9-7.4-11.2-11.1-18.6-8.2c-3.5,1.4-6.4,4.1-7.9,7.6
				c-5.8-2.1-12.3,0.9-14.5,6.7c-0.1,0.1-0.1,0.3-0.1,0.4c-0.4,0-0.8-0.1-1.2-0.1c-6.5,0-11.7,5.2-11.7,11.7s5.2,11.7,11.7,11.7
				c0.4,0,0.8,0,1.1-0.1c0.1,0,0.3,0,0.4,0.1h52.2c5.5,0,9.9-4.5,9.9-10C60.7,64,56.8,59.7,51.7,59.3z"/>
			<path class="st61" d="M51.9,59.1c-0.8-5.7-5.8-10-11.6-10h-0.7c-2.9-7.4-11.2-11.1-18.6-8.2c-3.5,1.4-6.3,4.1-7.9,7.5
				c-5.8-2.1-12.3,0.9-14.5,6.7c-0.1,0.1-0.1,0.3-0.1,0.4c-0.4,0-0.8,0-1.2,0c-6.5,0-11.7,5.2-11.7,11.7s5.2,11.7,11.7,11.7
				c0,0,0,0,0,0c0.4,0,0.7,0,1.1-0.1c0.1,0,0.3,0,0.4,0.1h52.2c5.5,0,9.9-4.5,9.9-10C60.9,63.8,57,59.6,51.9,59.1L51.9,59.1z"/>
			<path class="st62" d="M52.1,58.9c-0.8-5.7-5.8-10-11.6-10h-0.7c-2.9-7.4-11.2-11.1-18.6-8.2c-3.5,1.4-6.3,4.1-7.9,7.5
				C7.6,46.1,1.1,49.1-1,54.9c-0.1,0.1-0.1,0.3-0.1,0.4c-0.4,0-0.8-0.1-1.2-0.1c-6.5,0-11.7,5.2-11.7,11.7s5.2,11.7,11.7,11.7
				c0.4,0,0.7,0,1.1-0.1c0.1,0,0.3,0,0.4,0.1h52.2c5.5,0,9.9-4.5,9.9-10C61.2,63.6,57.2,59.3,52.1,58.9L52.1,58.9z"/>
			<path class="st63" d="M52.3,58.7c-0.8-5.7-5.8-10-11.6-10h-0.7c-2.9-7.4-11.2-11.1-18.6-8.2c-3.5,1.4-6.3,4.1-7.9,7.5
				c-5.8-2.2-12.3,0.8-14.5,6.7C-0.9,54.8-0.9,55-1,55.2c-0.4,0-0.8-0.1-1.2-0.1c-6.5,0-11.7,5.2-11.7,11.7s5.2,11.7,11.7,11.7
				c0.4,0,0.7,0,1.1-0.1c0.1,0,0.3,0,0.4,0.1h52.2c5.5,0,9.9-4.5,9.9-10C61.4,63.4,57.4,59.1,52.3,58.7L52.3,58.7z"/>
			<path class="st64" d="M52.6,58.5c-0.8-5.7-5.8-10-11.6-10h-0.7c-2.9-7.4-11.2-11.1-18.6-8.2c-3.5,1.4-6.3,4.1-7.9,7.5
				C8,45.7,1.5,48.7-0.6,54.5c-0.1,0.1-0.1,0.3-0.1,0.4c-0.4,0-0.8,0-1.2,0c-6.5,0-11.7,5.2-11.7,11.7S-8.5,78.3-2,78.3c0,0,0,0,0,0
				c0.4,0,0.7,0,1.1-0.1c0.1,0,0.3,0,0.4,0.1h52.2c5.5-0.1,9.9-4.6,9.8-10.1C61.4,63.2,57.6,59,52.6,58.5z"/>
			<path class="st65" d="M52.8,58.3c-0.8-5.7-5.8-10-11.6-10h-0.7c-2.9-7.4-11.2-11.1-18.6-8.2c-3.5,1.4-6.3,4.1-7.9,7.5
				c-5.8-2.1-12.3,0.9-14.5,6.7c-0.1,0.1-0.1,0.3-0.1,0.4c-0.4,0-0.8-0.1-1.2-0.1c-6.5,0-11.7,5.2-11.7,11.7s5.2,11.7,11.7,11.7
				c0.4,0,0.8,0,1.1-0.1c0.1,0,0.3,0,0.4,0.1h52.2c5.5,0,9.9-4.5,9.9-10C61.8,63,57.8,58.7,52.8,58.3L52.8,58.3z"/>
			<path class="st66" d="M52.9,58.1c-0.8-5.7-5.8-10-11.6-10h-0.7c-2.9-7.4-11.2-11.1-18.6-8.2c-3.5,1.4-6.3,4.1-7.9,7.5
				c-5.8-2.1-12.3,0.8-14.5,6.7c-0.1,0.1-0.1,0.3-0.1,0.4c-0.4,0-0.8,0-1.2,0c-6.5,0-11.7,5.2-11.7,11.7s5.2,11.7,11.7,11.7
				c0,0,0,0,0,0c0.4,0,0.8,0,1.1-0.1c0.1,0,0.3,0,0.4,0.1h52.2c5.5,0,9.9-4.5,9.9-10C62,62.8,58,58.6,52.9,58.1L52.9,58.1z"/>
			<path class="st67" d="M53.2,57.9c-0.8-5.7-5.8-10-11.6-10h-0.7c-2.9-7.4-11.2-11.1-18.6-8.2c-3.5,1.4-6.3,4.1-7.9,7.5
				C8.6,45,2.1,48,0,53.9c-0.1,0.1-0.1,0.3-0.1,0.4c-0.4,0-0.8-0.1-1.2-0.1c-6.5,0-11.7,5.2-11.7,11.7s5.2,11.7,11.7,11.7
				c0,0,0,0,0,0c0.4,0,0.8,0,1.1-0.1c0.1,0,0.3,0,0.4,0.1h52.2c5.5,0,9.9-4.5,9.9-10C62.2,62.6,58.2,58.3,53.2,57.9L53.2,57.9z"/>
			<path class="st68" d="M53.3,57.7c-0.8-5.7-5.8-10-11.6-10h-0.7c-2.9-7.4-11.2-11.1-18.6-8.2c-3.5,1.4-6.3,4.1-7.9,7.5
				c-5.8-2.2-12.3,0.8-14.5,6.7C0.1,53.8,0.1,54,0,54.2c-0.4,0-0.8-0.1-1.2-0.1c-6.5,0-11.7,5.2-11.7,11.7s5.2,11.7,11.7,11.7
				c0.4,0,0.8,0,1.1-0.1c0.1,0,0.3,0,0.4,0.1h52.2c5.5,0,9.9-4.5,9.9-10C62.4,62.4,58.5,58.1,53.3,57.7L53.3,57.7z"/>
			<path class="st69" d="M53.6,57.5c-0.8-5.7-5.8-10-11.6-10h-0.7c-2.9-7.4-11.2-11.1-18.6-8.2c-3.5,1.4-6.3,4.1-7.9,7.5
				C9,44.7,2.5,47.7,0.4,53.5c-0.1,0.1-0.1,0.3-0.1,0.4c-0.4,0-0.8-0.1-1.3,0c-6.5,0-11.7,5.2-11.7,11.7S-7.5,77.3-1,77.3
				c0.4,0,0.8,0,1.1-0.1c0.1,0,0.3,0,0.4,0.1h52.2c5.5-0.1,9.8-4.7,9.7-10.2C62.3,62.1,58.5,58,53.6,57.5z"/>
			<path class="st70" d="M53.8,57.3c-0.8-5.7-5.8-10-11.6-10h-0.7c-2.9-7.4-11.2-11.1-18.6-8.2c-3.5,1.4-6.3,4.1-7.9,7.5
				c-5.8-2.1-12.3,0.9-14.5,6.7c-0.1,0.1-0.1,0.3-0.1,0.4c-0.4,0-0.8-0.1-1.2-0.1c-6.5,0-11.7,5.2-11.7,11.7s5.2,11.7,11.7,11.7
				c0,0,0,0,0,0c0.4,0,0.8,0,1.1-0.1c0.1,0,0.3,0,0.4,0.1h52.2c5.5,0,9.9-4.5,9.9-10C62.8,61.9,58.9,57.7,53.8,57.3L53.8,57.3z"/>
			<path class="st71" d="M54,57.1c-0.8-5.7-5.8-10-11.6-10h-0.7c-2.9-7.4-11.2-11.1-18.6-8.2c-3.5,1.4-6.3,4.1-7.9,7.5
				C9.5,44.2,3,47.2,0.8,53c-0.1,0.2-0.1,0.3-0.2,0.5c-0.4,0-0.8,0-1.2,0c-6.5,0-11.7,5.2-11.7,11.7s5.2,11.7,11.7,11.7c0,0,0,0,0,0
				c0.4,0,0.8,0,1.1-0.1c0.1,0,0.3,0,0.4,0.1h52.2c5.5,0.2,10.1-4,10.3-9.5S59.5,57.3,54,57.1z"/>
			<path class="st72" d="M54.2,56.9c-0.8-5.7-5.8-10-11.6-10H42c-2.9-7.4-11.2-11.1-18.6-8.2c-3.5,1.4-6.3,4.1-7.9,7.5
				C9.6,44,3.1,47,1,52.9c-0.1,0.1-0.1,0.3-0.1,0.4c-0.4,0-0.8-0.1-1.2-0.1c-6.5,0-11.7,5.2-11.7,11.7s5.2,11.7,11.7,11.7
				c0,0,0,0,0,0c0.4,0,0.8,0,1.1-0.1c0.1,0,0.3,0,0.4,0.1h52.2c5.5,0,9.9-4.5,9.9-10C63.2,61.5,59.3,57.3,54.2,56.9L54.2,56.9z"/>
			<path class="st73" d="M54.4,56.7c-0.8-5.7-5.8-10-11.6-10h-0.7c-2.9-7.4-11.2-11.1-18.6-8.2c-3.5,1.4-6.3,4.1-7.9,7.5
				c-5.8-2.1-12.3,0.9-14.5,6.7c-0.1,0.1-0.1,0.3-0.1,0.4c-0.4,0-0.8-0.1-1.2-0.1c-6.5,0-11.7,5.2-11.7,11.7s5.2,11.7,11.7,11.7
				c0.4,0,0.8,0,1.1-0.1c0.1,0,0.3,0,0.4,0.1h52.2c5.5,0,9.9-4.5,9.9-10C63.4,61.3,59.5,57.1,54.4,56.7L54.4,56.7z"/>
			<path class="st74" d="M54.6,56.5c-0.8-5.7-5.8-10-11.6-10h-0.7c-2.9-7.4-11.2-11.1-18.6-8.2c-3.5,1.4-6.3,4.1-7.9,7.5
				C10,43.7,3.5,46.7,1.4,52.5c-0.1,0.1-0.1,0.3-0.1,0.4c-0.4,0-0.8-0.1-1.3-0.1c-6.5,0-11.7,5.2-11.7,11.7
				c0,6.5,5.2,11.7,11.7,11.7c0.4,0,0.8,0,1.1-0.1c0.1,0,0.3,0,0.4,0.1h52.2c5.5-0.2,9.8-4.8,9.6-10.3
				C63.2,61.1,59.4,57.1,54.6,56.5z"/>
			<path class="st75" d="M54.8,56.3c-0.8-5.7-5.8-10-11.6-10h-0.7c-2.9-7.4-11.2-11.1-18.6-8.2c-3.5,1.4-6.3,4.1-7.9,7.5
				c-5.8-2.1-12.3,0.9-14.5,6.7c-0.1,0.1-0.1,0.3-0.1,0.4c-0.4,0-0.8-0.1-1.2-0.1c-6.5,0-11.7,5.2-11.7,11.7s5.2,11.7,11.7,11.7
				c0,0,0,0,0,0c0.4,0,0.8,0,1.1-0.1c0.1,0,0.3,0,0.4,0.1H54c5.5,0,9.9-4.5,9.9-10C63.8,60.9,59.9,56.7,54.8,56.3L54.8,56.3z"/>
			<path class="st76" d="M55,56.1c-0.8-5.7-5.8-10-11.6-10h-0.7c-2.9-7.4-11.2-11.1-18.6-8.2c-3.5,1.4-6.3,4.1-7.9,7.5
				C10.5,43.2,4,46.2,1.8,52c-0.1,0.2-0.1,0.3-0.2,0.5c-0.4,0-0.8,0-1.2,0c-6.5,0-11.7,5.2-11.7,11.7S-6,75.9,0.4,75.9c0,0,0,0,0,0
				c0.4,0,0.8,0,1.1-0.1c0.1,0,0.3,0,0.4,0.1h52.2c5.5,0.2,10.1-4,10.3-9.5C64.7,60.9,60.5,56.3,55,56.1z"/>
			<path class="st77" d="M55.2,55.9c-0.8-5.7-5.8-10-11.6-10H43c-2.9-7.4-11.2-11.1-18.6-8.2c-3.5,1.4-6.3,4.1-7.9,7.5
				C10.6,43,4.2,46,2,51.9C2,52,1.9,52.1,1.9,52.3c-0.4,0-0.8-0.1-1.2-0.1c-6.5,0-11.7,5.2-11.7,11.7s5.2,11.7,11.7,11.7
				c0.4,0,0.8,0,1.1-0.1c0.1,0,0.3,0,0.4,0.1h52.2c5.5,0,9.9-4.5,9.9-10C64.2,60.5,60.3,56.3,55.2,55.9L55.2,55.9z"/>
			<path class="st78" d="M55.4,55.7c-0.8-5.7-5.8-10-11.6-10h-0.7c-2.9-7.4-11.2-11.1-18.6-8.2c-3.5,1.4-6.3,4.1-7.9,7.5
				c-5.8-2.1-12.3,0.9-14.5,6.7c-0.1,0.1-0.1,0.3-0.1,0.4C1.7,52,1.2,52,0.8,52c-6.5,0-11.7,5.2-11.7,11.7s5.2,11.7,11.7,11.7
				c0,0,0,0,0,0c0.4,0,0.8,0,1.1-0.1c0.1,0,0.3,0,0.4,0.1h52.2c5.5,0,9.9-4.5,9.9-10C64.4,60.3,60.5,56.1,55.4,55.7L55.4,55.7z"/>
			<path class="st79" d="M55.6,55.5c-0.8-5.7-5.8-10-11.6-10h-0.7c-2.9-7.4-11.2-11.1-18.6-8.2c-3.5,1.4-6.3,4.1-7.9,7.5
				C11,42.7,4.5,45.7,2.4,51.5c-0.1,0.1-0.1,0.3-0.1,0.4c-0.4,0-0.8-0.1-1.3-0.1c-6.5,0-11.7,5.2-11.7,11.7S-5.5,75.3,1,75.3
				c0,0,0,0,0,0c0.4,0,0.8,0,1.1-0.1c0.1,0,0.3,0,0.4,0.1h52.2c5.5-0.2,9.7-4.8,9.5-10.3C64.1,60.1,60.4,56.1,55.6,55.5z"/>
			<path class="st80" d="M55.8,55.3c-0.8-5.7-5.8-10-11.6-10h-0.7c-2.9-7.4-11.2-11.1-18.6-8.2c-3.5,1.4-6.3,4.1-7.9,7.5
				c-5.8-2.1-12.3,0.9-14.5,6.7c-0.1,0.1-0.1,0.3-0.1,0.4c-0.4,0-0.8-0.1-1.2-0.1c-6.5,0-11.7,5.2-11.7,11.7S-5.2,75,1.2,75
				c0,0,0,0,0,0C1.6,75,2,75,2.3,75c0.1,0,0.3,0,0.4,0.1H55c5.5,0,9.9-4.5,9.9-10C64.8,59.9,60.9,55.7,55.8,55.3L55.8,55.3z"/>
			<path class="st81" d="M56,55.1c-0.8-5.7-5.8-10-11.6-10h-0.7c-2.9-7.4-11.2-11.1-18.6-8.2c-3.5,1.4-6.3,4.1-7.9,7.5
				C11.5,42.2,5,45.2,2.8,51c-0.1,0.2-0.1,0.3-0.2,0.5c-0.4,0-0.8,0-1.2,0c-6.5,0-11.7,5.2-11.7,11.7S-5,74.9,1.4,74.9c0,0,0,0,0,0
				c0.4,0,0.8,0,1.1-0.1c0.1,0,0.3,0,0.4,0.1h52.2c5.5,0.2,10.1-4,10.3-9.5C65.7,59.9,61.5,55.3,56,55.1z"/>
			<path class="st82" d="M56.2,54.8c-0.8-5.7-5.8-10-11.6-10H44c-2.9-7.4-11.2-11.1-18.6-8.2c-3.5,1.4-6.3,4.1-7.9,7.5
				C11.6,42,5.2,45,3,50.9C3,51,2.9,51.1,2.9,51.3c-0.4,0-0.8-0.1-1.2-0.1c-6.5,0-11.7,5.2-11.7,11.7s5.2,11.7,11.7,11.7
				c0.4,0,0.8,0,1.1-0.1c0.1,0,0.3,0,0.4,0.1h52.2c5.5,0,9.9-4.5,9.9-10C65.2,59.5,61.3,55.3,56.2,54.8L56.2,54.8z"/>
			<path class="st83" d="M56.4,54.7c-0.8-5.7-5.8-10-11.6-10h-0.7c-2.9-7.4-11.2-11.1-18.6-8.2c-3.5,1.4-6.3,4.1-7.9,7.5
				c-5.8-2.1-12.3,0.9-14.5,6.7c-0.1,0.1-0.1,0.3-0.1,0.4C2.7,51,2.3,51,1.8,51c-6.5,0-11.7,5.2-11.7,11.7s5.2,11.7,11.7,11.7
				c0.4,0,0.8,0,1.1-0.1c0.1,0,0.3,0,0.4,0.1h52.2c5.5,0,9.9-4.5,9.9-10C65.4,59.3,61.5,55.1,56.4,54.7L56.4,54.7z"/>
			<path class="st84" d="M56.6,54.5c-0.8-5.7-5.8-10-11.6-10h-0.7c-2.9-7.4-11.2-11.1-18.6-8.2c-3.5,1.4-6.3,4.1-7.9,7.5
				C12,41.7,5.5,44.7,3.4,50.5c-0.1,0.1-0.1,0.3-0.1,0.4c-0.4,0-0.8-0.1-1.3-0.1c-6.5,0-11.7,5.2-11.7,11.7C-9.7,69-4.5,74.3,2,74.3
				c0,0,0,0,0,0c0.4,0,0.8,0,1.1-0.1c0.1,0,0.3,0,0.4,0.1h52.2c5.5-0.2,9.7-4.9,9.5-10.4C65,59.1,61.4,55.1,56.6,54.5z"/>
			<path class="st85" d="M56.8,54.3c-0.8-5.7-5.8-10-11.6-10h-0.7c-2.9-7.4-11.2-11.1-18.6-8.2c-3.5,1.4-6.3,4.1-7.9,7.5
				c-5.8-2.1-12.3,0.9-14.5,6.7c-0.1,0.1-0.1,0.3-0.1,0.4c-0.4,0-0.8-0.1-1.2-0.1c-6.5,0-11.7,5.2-11.7,11.7S-4.2,74,2.2,74
				C2.6,74,3,74,3.4,74c0.1,0,0.3,0,0.4,0.1H56c5.5,0,9.9-4.5,9.9-10C65.8,58.9,61.9,54.7,56.8,54.3L56.8,54.3z"/>
			<path class="st86" d="M57,54c-0.8-5.7-5.8-10-11.6-10h-0.7c-2.9-7.4-11.2-11.1-18.6-8.2c-3.5,1.4-6.3,4.1-7.9,7.5
				C12.5,41.2,6,44.2,3.8,50c-0.1,0.2-0.1,0.3-0.2,0.5c-0.4,0-0.8,0-1.2,0c-6.5,0-11.7,5.2-11.7,11.7c0,6.5,5.2,11.7,11.7,11.7
				c0,0,0,0,0,0c0.4,0,0.8,0,1.1-0.1c0.1,0,0.3,0,0.4,0.1h52.2c5.5,0.2,10.1-4,10.3-9.5C66.8,58.9,62.5,54.3,57,54z"/>
			<path class="st87" d="M57.2,53.8c-0.8-5.7-5.8-10-11.6-10H45c-2.9-7.4-11.2-11.1-18.6-8.2c-3.5,1.4-6.3,4.1-7.9,7.5
				C12.6,41,6.2,44,4,49.9C4,50,3.9,50.1,3.9,50.3c-0.4,0-0.8-0.1-1.2-0.1c-6.5,0-11.7,5.2-11.7,11.7s5.2,11.7,11.7,11.7
				c0.4,0,0.8,0,1.1-0.1c0.1,0,0.3,0,0.4,0.1h52.2c5.5,0,9.9-4.5,9.9-10C66.2,58.5,62.3,54.3,57.2,53.8L57.2,53.8z"/>
			<path class="st88" d="M57.4,53.6c-0.8-5.7-5.8-10-11.6-10h-0.7c-2.9-7.4-11.2-11.1-18.6-8.2c-3.5,1.4-6.3,4.1-7.9,7.5
				c-5.8-2.1-12.3,0.9-14.5,6.7c-0.1,0.1-0.1,0.3-0.1,0.4C3.7,50,3.3,50,2.9,50c-6.5,0-11.7,5.2-11.7,11.7s5.2,11.7,11.7,11.7
				c0.4,0,0.8,0,1.1-0.1c0.1,0,0.3,0,0.4,0.1h52.2c5.5,0,9.9-4.5,9.9-10C66.4,58.3,62.5,54.1,57.4,53.6L57.4,53.6z"/>
			<path class="st89" d="M57.6,53.4c-0.9-5.7-5.8-10-11.6-9.9h-0.7c-2.9-7.4-11.2-11.1-18.6-8.2c-3.5,1.4-6.3,4.1-7.9,7.5
				C13,40.7,6.5,43.7,4.4,49.5c-0.1,0.1-0.1,0.3-0.1,0.4c-0.4,0-0.8-0.1-1.2-0.1c-6.5,0-11.7,5.2-11.7,11.7S-3.4,73.3,3,73.3
				c0.4,0,0.8,0,1.1-0.1c0.1,0,0.3,0,0.4,0.1h52.2c5.5,0,9.9-4.5,9.9-10C66.6,58.2,62.7,53.9,57.6,53.4L57.6,53.4z"/>
			<path class="st90" d="M57.8,53.2c-0.8-5.7-5.8-10-11.6-10h-0.7c-2.9-7.4-11.2-11.1-18.6-8.2c-3.5,1.4-6.3,4.1-7.9,7.5
				c-5.8-2.1-12.3,0.9-14.5,6.7c-0.1,0.1-0.1,0.3-0.1,0.4c-0.4,0-0.8-0.1-1.2-0.1c-6.5,0-11.7,5.2-11.7,11.7
				C-8.5,67.8-3.2,73,3.2,73c0,0,0,0,0,0C3.6,73,4,73,4.4,73c0.1,0,0.3,0,0.4,0.1H57c5.5,0,9.9-4.5,9.9-10
				C66.8,57.9,62.9,53.7,57.8,53.2L57.8,53.2z"/>
			<path class="st91" d="M58,53c-0.8-5.7-5.8-10-11.6-10h-0.7c-2.9-7.4-11.2-11.1-18.6-8.2c-3.5,1.4-6.3,4.1-7.9,7.5
				C13.5,40.2,7,43.2,4.8,49c-0.1,0.2-0.1,0.3-0.2,0.5c-0.4,0-0.8-0.1-1.2-0.1c-6.5,0-11.7,5.2-11.7,11.7S-3,72.9,3.4,72.9
				c0.4,0,0.8,0,1.1-0.1c0.1,0,0.3,0,0.4,0.1h52.2c5.5,0,9.9-4.5,9.9-10C67,57.7,63.1,53.5,58,53z"/>
			<path class="st92" d="M58.2,52.8c-0.8-5.7-5.8-10-11.6-10H46c-2.9-7.4-11.2-11.1-18.6-8.2c-3.5,1.4-6.3,4.1-7.9,7.5
				C13.6,40,7.2,43,5,48.8C5,49,4.9,49.1,4.9,49.3c-0.4,0-0.8-0.1-1.2-0.1c-6.5,0-11.7,5.2-11.7,11.7c0,6.5,5.2,11.7,11.7,11.7
				c0,0,0,0,0,0c0.4,0,0.8,0,1.1-0.1c0.1,0,0.3,0,0.4,0.1h52.2c5.5,0,9.9-4.5,9.9-10C67.2,57.5,63.3,53.3,58.2,52.8L58.2,52.8z"/>
			<path class="st93" d="M58.4,52.6c-0.8-5.7-5.8-10-11.6-10h-0.7c-2.9-7.4-11.2-11.1-18.6-8.2c-3.5,1.4-6.3,4.1-7.9,7.5
				c-5.8-2.1-12.3,0.9-14.5,6.7c-0.1,0.1-0.1,0.3-0.1,0.4c-0.4,0-0.8-0.1-1.2-0.1c-6.5,0-11.7,5.2-11.7,11.7s5.2,11.7,11.7,11.7
				c0.4,0,0.8,0,1.1-0.1c0.1,0,0.3,0,0.4,0.1h52.2c5.5,0,9.9-4.5,9.9-10C67.4,57.3,63.5,53.1,58.4,52.6L58.4,52.6z"/>
			<path class="st94" d="M58.6,52.4c-0.8-5.8-5.8-10-11.6-10h-0.7c-2.9-7.4-11.2-11.1-18.6-8.2c-3.5,1.4-6.3,4.1-7.9,7.5
				C14,39.6,7.5,42.7,5.4,48.5c0,0.1-0.1,0.3-0.1,0.4c-0.4,0-0.8-0.1-1.2-0.1c-6.5,0-11.7,5.2-11.7,11.7s5.2,11.7,11.7,11.7
				c0.4,0,0.8,0,1.1-0.1c0.1,0,0.3,0,0.4,0.1h52.2c5.5,0,9.9-4.5,9.9-10C67.6,57.1,63.7,52.9,58.6,52.4z"/>
			<path class="st95" d="M58.8,52.2c-0.8-5.7-5.8-10-11.6-10h-0.7c-2.9-7.4-11.2-11.1-18.6-8.2c-3.5,1.4-6.3,4.1-7.9,7.5
				c-5.8-2.1-12.3,0.9-14.5,6.7c-0.1,0.1-0.1,0.3-0.2,0.4c-0.4,0-0.8-0.1-1.2-0.1c-6.5,0-11.7,5.2-11.7,11.7
				c0,6.5,5.2,11.7,11.7,11.7c0,0,0,0,0,0c0.4,0,0.8,0,1.1-0.1c0.1,0,0.3,0,0.4,0.1H58c5.5,0,9.9-4.5,9.9-10
				C67.8,56.9,63.9,52.7,58.8,52.2L58.8,52.2z"/>
			<path class="st96" d="M59,52c-0.8-5.7-5.8-10-11.6-10h-0.7c-2.9-7.4-11.2-11.1-18.6-8.2c-3.5,1.4-6.3,4.1-7.9,7.5
				C14.5,39.2,8,42.2,5.8,48.1c-0.1,0.1-0.1,0.3-0.2,0.4c-0.4,0-0.8-0.1-1.2-0.1c-6.5,0-11.7,5.2-11.7,11.7S-2,71.9,4.5,71.9
				c0.4,0,0.8,0,1.1-0.1c0.1,0,0.3,0,0.4,0.1h52.2c5.5,0,9.9-4.4,10-9.9C68.2,56.8,64.2,52.4,59,52z"/>
			<path class="st97" d="M59.2,51.8c-0.8-5.7-5.8-10-11.6-10H47c-2.9-7.4-11.2-11.1-18.6-8.2c-3.5,1.4-6.3,4.1-7.9,7.5
				C14.7,39,8.2,42,6,47.9C6,48,5.9,48.1,5.9,48.3c-0.4,0-0.8-0.1-1.2-0.1c-6.5,0-11.7,5.2-11.7,11.7c0,6.5,5.2,11.7,11.7,11.7
				c0,0,0,0,0,0c0.4,0,0.8,0,1.1-0.1c0.1,0,0.3,0,0.4,0.1h52.2c5.5,0,9.9-4.5,9.9-10C68.2,56.5,64.3,52.3,59.2,51.8L59.2,51.8z"/>
			<path class="st98" d="M59.4,51.6c-0.8-5.7-5.8-10-11.6-10h-0.7c-2.9-7.4-11.2-11.1-18.6-8.2c-3.5,1.4-6.3,4.1-7.9,7.5
				c-5.8-2.1-12.3,0.9-14.5,6.7c-0.1,0.1-0.1,0.3-0.2,0.4c-0.4,0-0.8-0.1-1.2-0.1c-6.5,0-11.7,5.2-11.7,11.7s5.2,11.7,11.7,11.7
				c0.4,0,0.8,0,1.1-0.1c0.1,0,0.3,0,0.4,0.1h52.2c5.5,0,9.9-4.5,9.9-10C68.4,56.3,64.5,52.1,59.4,51.6L59.4,51.6z"/>
			<path class="st99" d="M59.6,51.4c-0.8-5.8-5.8-10-11.6-10h-0.7c-2.9-7.4-11.2-11.1-18.6-8.2c-3.5,1.4-6.3,4.1-7.9,7.5
				C15,38.6,8.5,41.7,6.4,47.5c0,0.1-0.1,0.2-0.1,0.4c-0.4,0-0.8-0.1-1.2-0.1c-6.5,0-11.7,5.2-11.7,11.7s5.2,11.7,11.7,11.7
				c0.4,0,0.8,0,1.1-0.1c0.1,0,0.3,0,0.4,0.1h52.2c5.5,0,9.9-4.5,9.9-10C68.6,56.1,64.7,51.9,59.6,51.4L59.6,51.4z"/>
			<path class="st100" d="M59.8,51.2c-0.8-5.7-5.8-10-11.6-10h-0.7c-2.9-7.4-11.2-11.1-18.6-8.2c-3.5,1.4-6.3,4.1-7.9,7.5
				c-5.8-2.1-12.3,0.9-14.5,6.7c-0.1,0.1-0.1,0.3-0.2,0.4c-0.4,0-0.8-0.1-1.2-0.1c-6.5,0-11.7,5.2-11.7,11.7
				C-6.4,65.8-1.2,71,5.3,71c0,0,0,0,0,0C5.6,71,6,71,6.4,71c0.1,0,0.3,0,0.4,0.1H59c5.5,0,9.9-4.5,9.9-10
				C68.8,55.9,64.9,51.7,59.8,51.2z"/>
			<path class="st101" d="M60,51c-0.8-5.7-5.8-10-11.6-10h-0.7c-2.9-7.4-11.2-11.1-18.6-8.2c-3.5,1.4-6.3,4.1-7.9,7.5
				C15.5,38.2,9,41.2,6.9,47.1c-0.1,0.1-0.1,0.3-0.2,0.4c-0.4,0-0.8-0.1-1.2-0.1c-6.5,0-11.7,5.2-11.7,11.7S-1,70.9,5.5,70.9
				c0.4,0,0.8,0,1.1-0.1c0.1,0,0.3,0,0.4,0.1h52.2c5.5,0.1,10-4.2,10.1-9.7C69.4,55.8,65.3,51.3,60,51z"/>
			<path class="st102" d="M60.2,50.8c-0.8-5.7-5.8-10-11.6-10H48c-2.9-7.4-11.2-11.1-18.6-8.2c-3.5,1.4-6.3,4.1-7.9,7.5
				C15.7,38,9.2,41,7.1,46.8C7,47,6.9,47.1,6.9,47.3c-0.4,0-0.8-0.1-1.2-0.1C-0.8,47.2-6,52.5-6,58.9s5.2,11.7,11.7,11.7
				c0.4,0,0.8,0,1.1-0.1c0.1,0,0.3,0,0.4,0.1h52.2c5.5,0,9.9-4.5,9.9-10C69.2,55.5,65.3,51.3,60.2,50.8L60.2,50.8z"/>
			<path class="st103" d="M60.4,50.6c-0.8-5.7-5.8-10-11.6-10h-0.7c-2.9-7.4-11.2-11.1-18.6-8.2c-3.5,1.4-6.3,4.1-7.9,7.5
				c-5.8-2.1-12.3,0.9-14.5,6.7c-0.1,0.1-0.1,0.3-0.2,0.4C6.7,47,6.3,47,5.9,47c-6.5,0-11.7,5.2-11.7,11.7c0,6.5,5.2,11.7,11.7,11.7
				c0,0,0,0,0,0c0.4,0,0.8,0,1.1-0.1c0.1,0,0.3,0,0.4,0.1h52.2c5.5,0,9.9-4.5,9.9-10C69.4,55.3,65.5,51.1,60.4,50.6L60.4,50.6z"/>
			<path class="st104" d="M60.6,50.4c-0.8-5.7-5.8-10-11.6-10h-0.7c-2.9-7.4-11.2-11.1-18.6-8.2c-3.5,1.4-6.3,4.1-7.9,7.5
				c-5.8-2.1-12.3,0.9-14.5,6.7c-0.1,0.1-0.1,0.3-0.2,0.4c-0.4,0-0.8-0.1-1.2-0.1c-6.5,0-11.7,5.2-11.7,11.7s5.2,11.7,11.7,11.7
				c0.4,0,0.8,0,1.1-0.1c0.1,0,0.3,0,0.4,0.1h52.2c5.5,0,9.9-4.5,9.9-10C69.6,55.1,65.7,50.9,60.6,50.4L60.6,50.4z"/>
			<path class="st105" d="M60.8,50.2c-0.8-5.7-5.8-10-11.6-10h-0.7C45.7,32.8,37.4,29.2,30,32c-3.5,1.4-6.3,4.1-7.9,7.5
				c-5.8-2.1-12.3,0.9-14.5,6.7c-0.1,0.1-0.1,0.3-0.1,0.4c-0.4,0-0.8-0.1-1.2-0.1c-6.5,0-11.7,5.2-11.7,11.7S-0.2,70,6.3,70
				C6.7,70,7,70,7.4,70c0.1,0,0.3,0,0.4,0.1H60c5.5,0,9.9-4.5,9.9-10C69.8,54.9,65.9,50.6,60.8,50.2L60.8,50.2z"/>
			<path class="st106" d="M61,50c-0.8-5.7-5.8-10-11.6-10h-0.7c-2.9-7.4-11.2-11.1-18.6-8.2c-3.5,1.4-6.3,4.1-7.9,7.5
				c-5.8-2.1-12.3,0.9-14.4,6.7c-0.1,0.1-0.1,0.3-0.1,0.4c-0.4,0-0.8-0.1-1.2-0.1C0,46.4-5.2,51.7-5.2,58.1S0,69.9,6.5,69.9
				c0.4,0,0.8,0,1.1-0.1c0.1,0,0.3,0,0.4,0.1h52.2c5.5,0.1,10-4.3,10.1-9.7C70.4,54.8,66.3,50.3,61,50z"/>
			<path class="st107" d="M61.2,49.8c-0.8-5.7-5.8-10-11.6-10H49c-2.9-7.4-11.2-11.1-18.6-8.2c-3.5,1.4-6.3,4.1-7.9,7.5
				C16.7,37,10.2,40,8.1,45.8C8,46,8,46.1,7.9,46.2c-0.4,0-0.8-0.1-1.2-0.1C0.2,46.2-5,51.4-5,57.9c0,6.5,5.2,11.7,11.7,11.7
				c0,0,0,0,0,0c0.4,0,0.8,0,1.1-0.1c0.1,0,0.3,0,0.4,0.1h52.2c5.5,0,9.9-4.5,9.9-10C70.2,54.5,66.3,50.2,61.2,49.8L61.2,49.8z"/>
			<path class="st108" d="M61.4,49.6c-0.8-5.7-5.8-10-11.6-10h-0.7c-2.9-7.4-11.2-11.1-18.6-8.2c-3.5,1.4-6.3,4.1-7.9,7.5
				c-5.8-2.1-12.3,0.9-14.5,6.7c-0.1,0.1-0.1,0.3-0.1,0.4C7.7,46,7.3,46,6.9,46C0.4,46-4.8,51.2-4.8,57.7S0.4,69.4,6.9,69.4
				c0.4,0,0.8,0,1.1-0.1c0.1,0,0.3,0,0.4,0.1h52.2c5.5,0,9.9-4.5,9.9-10C70.4,54.3,66.5,50,61.4,49.6L61.4,49.6z"/>
			<path class="st109" d="M61.6,49.4c-0.8-5.7-5.8-10-11.6-10h-0.7c-2.9-7.4-11.2-11.1-18.6-8.2c-3.5,1.4-6.3,4.1-7.9,7.5
				c-5.8-2.1-12.3,0.9-14.5,6.7c-0.1,0.1-0.1,0.3-0.1,0.4c-0.4,0-0.8-0.1-1.2-0.1C0.6,45.8-4.6,51-4.6,57.5
				c0,6.5,5.2,11.7,11.7,11.7c0,0,0,0,0,0c0.4,0,0.8,0,1.1-0.1c0.1,0,0.3,0,0.4,0.1h52.2c5.5,0,9.9-4.5,9.9-10
				C70.6,54.1,66.7,49.8,61.6,49.4L61.6,49.4z"/>
			<path class="st110" d="M61.8,49.2c-0.8-5.7-5.8-10-11.6-10h-0.7C46.7,31.8,38.4,28.2,31,31c-3.5,1.4-6.3,4.1-7.9,7.5
				c-5.8-2.1-12.3,0.9-14.5,6.7c-0.1,0.1-0.1,0.3-0.1,0.4c-0.4,0-0.8-0.1-1.2-0.1c-6.5,0-11.7,5.2-11.7,11.7S0.8,69,7.3,69
				c0.4,0,0.7,0,1.1-0.1c0.1,0,0.3,0,0.4,0.1H61c5.5,0,9.9-4.5,9.9-10C70.8,53.9,66.9,49.6,61.8,49.2L61.8,49.2z"/>
			<path class="st111" d="M62,49c-0.8-5.7-5.8-10-11.6-10h-0.7c-2.9-7.4-11.2-11.1-18.6-8.2c-3.5,1.4-6.3,4.1-7.9,7.5
				c-5.8-2.1-12.3,0.9-14.4,6.7c-0.1,0.1-0.1,0.3-0.1,0.4c-0.4,0-0.8-0.1-1.2-0.1C1,45.4-4.2,50.7-4.2,57.1S1,68.9,7.5,68.9
				c0.4,0,0.7,0,1.1-0.1c0.1,0,0.3,0,0.4,0.1h52.2c5.5,0.2,10.1-4.1,10.3-9.5C71.8,53.8,67.5,49.2,62,49L62,49z"/>
			<path class="st112" d="M62.2,48.8c-0.8-5.7-5.8-10-11.6-10H50c-2.9-7.4-11.2-11.1-18.6-8.2c-3.5,1.4-6.3,4.1-7.9,7.5
				C17.7,36,11.2,39,9.1,44.8C9,45,9,45.1,8.9,45.2c-0.4,0-0.8-0.1-1.2-0.1C1.2,45.2-4,50.4-4,56.9c0,6.5,5.2,11.7,11.7,11.7
				c0,0,0,0,0,0c0.4,0,0.7,0,1.1-0.1c0.1,0,0.3,0,0.4,0.1h52.2c5.5,0,9.9-4.5,9.9-10C71.2,53.5,67.3,49.2,62.2,48.8L62.2,48.8z"/>
			<path class="st113" d="M62.4,48.6c-0.8-5.7-5.8-10-11.6-10h-0.7c-2.9-7.4-11.2-11.1-18.6-8.2c-3.5,1.4-6.3,4.1-7.9,7.5
				c-5.8-2.1-12.3,0.9-14.5,6.7c-0.1,0.1-0.1,0.3-0.1,0.4C8.7,45,8.3,45,7.9,45C1.4,45-3.8,50.2-3.8,56.7S1.4,68.4,7.9,68.4
				c0.4,0,0.7,0,1.1-0.1c0.1,0,0.3,0,0.4,0.1h52.2c5.5,0,9.9-4.5,9.9-10C71.4,53.3,67.5,49,62.4,48.6L62.4,48.6z"/>
			<path class="st114" d="M62.6,48.4c-0.8-5.7-5.8-10-11.6-10h-0.7c-2.9-7.4-11.2-11.1-18.6-8.2c-3.5,1.4-6.3,4.1-7.9,7.5
				c-5.8-2.1-12.3,0.9-14.5,6.7c-0.1,0.1-0.1,0.3-0.1,0.4c-0.4,0-0.8-0.1-1.2-0.1C1.6,44.8-3.6,50-3.6,56.5S1.6,68.2,8.1,68.2
				c0.4,0,0.8,0,1.1-0.1c0.1,0,0.3,0,0.4,0.1h52.2c5.5,0,9.9-4.5,9.9-10C71.6,53.1,67.7,48.8,62.6,48.4L62.6,48.4z"/>
			<path class="st115" d="M62.8,48.2c-0.8-5.7-5.8-10-11.6-10h-0.7C47.7,30.8,39.4,27.1,32,30c-3.5,1.4-6.3,4.1-7.9,7.5
				c-5.8-2.1-12.3,0.9-14.5,6.7c-0.1,0.1-0.1,0.3-0.1,0.4c-0.4,0-0.8-0.1-1.2-0.1c-6.5,0-11.7,5.2-11.7,11.7
				C-3.4,62.7,1.8,68,8.3,68c0,0,0,0,0,0c0.4,0,0.8,0,1.1-0.1c0.1,0,0.3,0,0.4,0.1H62c5.5,0,9.9-4.5,9.9-10
				C71.8,52.9,67.9,48.6,62.8,48.2L62.8,48.2z"/>
			<path class="st116" d="M63,48c-0.8-5.7-5.8-10-11.6-10h-0.7c-2.9-7.4-11.2-11.1-18.6-8.2c-3.5,1.4-6.3,4.1-7.9,7.5
				c-5.9-2.1-12.3,0.9-14.4,6.8c-0.1,0.1-0.1,0.3-0.1,0.4c-0.4,0-0.8-0.1-1.2-0.1C2,44.4-3.2,49.7-3.2,56.1S2,67.9,8.5,67.9
				c0.4,0,0.8,0,1.1-0.1c0.1,0,0.3,0,0.4,0.1h52.2c5.5,0.2,10.1-4.1,10.3-9.5S68.5,48.2,63,48L63,48z"/>
			<path class="st117" d="M63.2,47.8c-0.8-5.7-5.8-10-11.6-10H51c-2.9-7.4-11.2-11.1-18.6-8.2c-3.5,1.4-6.3,4.1-7.9,7.5
				C18.7,35,12.2,38,10.1,43.8c-0.1,0.1-0.1,0.3-0.1,0.4c-0.4,0-0.8-0.1-1.2-0.1C2.2,44.2-3,49.4-3,55.9c0,6.5,5.2,11.7,11.7,11.7
				c0,0,0,0,0,0c0.4,0,0.8,0,1.1-0.1c0.1,0,0.3,0,0.4,0.1h52.2c5.5,0,9.9-4.5,9.9-10C72.2,52.5,68.3,48.2,63.2,47.8L63.2,47.8z"/>
			<path class="st118" d="M63.4,47.6c-0.8-5.7-5.8-10-11.6-10h-0.7c-2.9-7.4-11.2-11.1-18.6-8.2c-3.5,1.4-6.3,4.1-7.9,7.5
				c-5.8-2.1-12.3,0.9-14.5,6.7c-0.1,0.1-0.1,0.3-0.1,0.4C9.7,44,9.3,44,8.9,44C2.4,44-2.8,49.2-2.8,55.7S2.4,67.4,8.9,67.4
				c0.4,0,0.8,0,1.1-0.1c0.1,0,0.3,0,0.4,0.1h52.2c5.5,0,9.9-4.5,9.9-10C72.4,52.3,68.5,48,63.4,47.6L63.4,47.6z"/>
			<path class="st119" d="M63.6,47.4c-0.8-5.7-5.8-10-11.6-10h-0.7c-2.9-7.4-11.2-11.1-18.6-8.2c-3.5,1.4-6.3,4.1-7.9,7.5
				c-5.8-2.1-12.3,0.9-14.5,6.7c-0.1,0.1-0.1,0.3-0.1,0.4c-0.4,0-0.8-0.1-1.2-0.1C2.6,43.8-2.6,49-2.6,55.5S2.6,67.2,9.1,67.2
				c0.4,0,0.8,0,1.1-0.1c0.1,0,0.3,0,0.4,0.1h52.2c5.5,0,9.9-4.5,9.9-10C72.6,52.1,68.7,47.8,63.6,47.4L63.6,47.4z"/>
			<path class="st120" d="M63.8,47.2c-0.8-5.7-5.8-10-11.6-10h-0.7C48.7,29.8,40.4,26.1,33,29c-3.5,1.4-6.3,4.1-7.9,7.5
				c-5.8-2.1-12.3,0.9-14.5,6.7c-0.1,0.1-0.1,0.3-0.1,0.4c-6.5-0.3-12,4.6-12.3,11.1S2.8,66.7,9.3,67c0.4,0,0.8,0,1.1,0
				c0.1,0,0.3,0,0.4,0H63c5.5,0,9.9-4.5,9.9-10C72.8,51.9,68.9,47.7,63.8,47.2L63.8,47.2z"/>
			<path class="st121" d="M64,47c-0.8-5.7-5.8-10-11.6-10h-0.7c-2.9-7.4-11.2-11.1-18.6-8.2c-3.5,1.4-6.3,4.1-7.9,7.5
				c-5.9-2.1-12.3,0.9-14.4,6.8c-0.1,0.1-0.1,0.3-0.1,0.4c-6.4-0.9-12.3,3.6-13.2,10s3.6,12.3,10,13.2c0.6,0.1,1.3,0.1,1.9,0.1
				c0.4,0,0.8,0,1.1,0c0.1,0,0.3,0,0.4,0h52.2c5.5-0.1,9.9-4.6,9.8-10C73,51.7,69.1,47.4,64,47z"/>
			<path class="st122" d="M64.2,46.8c-0.8-5.7-5.8-10-11.6-10H52c-2.9-7.4-11.2-11.1-18.6-8.2c-3.5,1.4-6.3,4.1-7.9,7.5
				C19.7,34,13.2,37,11.1,42.8c-0.1,0.1-0.1,0.3-0.1,0.4c-6.4-0.7-12.2,4-12.8,10.5c-0.7,6.4,4,12.2,10.5,12.8
				c0.4,0,0.8,0.1,1.1,0.1c0.4,0,0.8,0,1.1-0.1c0.1,0,0.3,0,0.4,0.1h52.2c5.5,0,9.9-4.5,9.9-10C73.2,51.5,69.3,47.2,64.2,46.8
				L64.2,46.8z"/>
			<path class="st123" d="M64.4,46.6c-0.8-5.7-5.8-10-11.6-10h-0.7c-2.9-7.4-11.2-11.1-18.6-8.2c-3.5,1.4-6.3,4.1-7.9,7.5
				c-5.8-2.1-12.3,0.9-14.5,6.7c-0.1,0.1-0.1,0.3-0.1,0.4C4.7,42.4-1,47.1-1.7,53.5c-0.7,6.4,4,12.2,10.5,12.8
				c0.4,0,0.8,0.1,1.1,0.1c0.4,0,0.8,0,1.1,0c0.1,0,0.3,0,0.4,0h52.2c5.5,0,9.9-4.5,9.9-10C73.5,51.3,69.5,47,64.4,46.6L64.4,46.6z"
				/>
			<path class="st124" d="M64.6,46.4c-0.8-5.7-5.8-10-11.6-10h-0.7c-2.9-7.4-11.2-11.1-18.6-8.2c-3.5,1.4-6.3,4.1-7.9,7.5
				c-5.8-2.1-12.3,0.9-14.5,6.7c-0.1,0.1-0.1,0.3-0.1,0.4c-6.4-0.7-12.2,4-12.8,10.5c-0.7,6.4,4,12.2,10.5,12.8
				c0.4,0,0.8,0.1,1.1,0.1c0.4,0,0.8,0,1.1-0.1c0.1,0,0.3,0,0.4,0.1h52.2c5.5,0,9.9-4.5,9.9-10C73.7,51.1,69.7,46.8,64.6,46.4
				L64.6,46.4z"/>
			<path class="st125" d="M64.8,46.2c-0.8-5.7-5.8-10-11.6-10h-0.7c-2.9-7.4-11.2-11-18.6-8.2c-3.5,1.4-6.3,4.1-7.9,7.5
				c-5.8-2.1-12.3,0.9-14.5,6.7c-0.1,0.1-0.1,0.3-0.1,0.4C5.1,42-0.6,46.7-1.3,53.1c-0.7,6.4,4,12.2,10.5,12.8
				c0.4,0,0.8,0.1,1.1,0.1c0.4,0,0.8,0,1.1,0c0.1,0,0.3,0,0.4,0H64c5.5,0,9.9-4.5,9.9-10C73.8,50.9,69.9,46.6,64.8,46.2L64.8,46.2z"
				/>
			<path class="st126" d="M65,46c-0.8-5.7-5.8-10-11.6-10h-0.7c-2.9-7.4-11.2-11.1-18.6-8.2c-3.5,1.4-6.3,4.1-7.9,7.5
				c-5.9-2.1-12.3,0.9-14.4,6.8c0,0.1-0.1,0.3-0.1,0.4C5.3,41.8-0.4,46.5-1.1,53c-0.7,6.4,4,12.2,10.5,12.8c0.4,0,0.8,0.1,1.1,0.1
				c0.4,0,0.8,0,1.1-0.1c0.1,0,0.3,0,0.4,0.1h52.2c5.5,0.2,10.1-4.1,10.3-9.6S70.5,46.2,65,46z"/>
			<path class="st127" d="M65.3,45.8c-0.8-5.7-5.8-10-11.6-10H53c-2.9-7.4-11.2-11.1-18.6-8.2c-3.5,1.4-6.3,4.1-7.9,7.5
				c-5.8-2.1-12.3,0.9-14.5,6.7c-0.1,0.1-0.1,0.3-0.1,0.4C5.5,41.9,0,46.8-0.4,53.3c-0.3,6.5,4.6,12,11.1,12.3c0.4,0,0.8,0,1.1-0.1
				c0.1,0,0.3,0,0.4,0.1h52.2c5.5,0,9.9-4.5,9.9-10C74.3,50.5,70.3,46.2,65.3,45.8z"/>
			<path class="st128" d="M65.4,45.6c-0.8-5.7-5.8-10-11.6-10h-0.7c-2.9-7.4-11.2-11.1-18.6-8.2c-3.5,1.4-6.3,4.1-7.9,7.5
				c-5.8-2.1-12.3,0.9-14.5,6.7c-0.1,0.1-0.1,0.3-0.1,0.4c-6.5-0.3-12,4.6-12.3,11.1c-0.3,6.5,4.6,12,11.1,12.3l0,0
				c0.4,0,0.8,0,1.1-0.1c0.1,0,0.3,0,0.4,0.1h52.2c5.5,0,9.9-4.5,9.9-10C74.5,50.3,70.5,46,65.4,45.6z"/>
			<path class="st129" d="M65.7,45.4c-0.8-5.7-5.8-10-11.6-10h-0.7c-2.9-7.4-11.3-11-18.7-8.1c-3.5,1.4-6.2,4-7.8,7.4
				c-5.8-2.1-12.3,0.9-14.5,6.7c-0.1,0.1-0.1,0.3-0.1,0.4C6,41.2,0.2,45.9-0.4,52.3s4,12.2,10.5,12.8c0.4,0,0.7,0.1,1.1,0.1
				c0.4,0,0.8,0,1.1,0c0.1,0,0.3,0,0.4,0h52.2c5.5,0,9.9-4.5,9.9-10C74.7,50.1,70.8,45.8,65.7,45.4L65.7,45.4z"/>
			<path class="st130" d="M65.8,45.2c-0.8-5.7-5.8-10-11.6-10h-0.7c-2.9-7.4-11.2-11-18.6-8.1c-3.5,1.4-6.3,4-7.9,7.5
				c-5.8-2.1-12.3,0.9-14.5,6.7c-0.1,0.1-0.1,0.3-0.1,0.4C6.1,41.1,0.5,45.9,0,52.4C-0.5,58.8,4.3,64.5,10.7,65c0.2,0,0.4,0,0.6,0
				c0.4,0,0.8,0,1.1-0.1c0.1,0,0.3,0,0.4,0.1H65c5.5,0,9.9-4.5,9.9-10C74.8,49.9,70.9,45.6,65.8,45.2L65.8,45.2z"/>
			<path class="st131" d="M66.1,45c-0.8-5.7-5.8-10-11.6-10h-0.7c-2.9-7.4-11.2-11.1-18.6-8.2c-3.5,1.4-6.3,4.1-7.9,7.5
				C21.5,32.1,15,35.1,12.9,41c-0.1,0.1-0.1,0.3-0.1,0.4C6.3,41.1,0.8,46,0.4,52.5s4.6,12,11.1,12.3c0.4,0,0.8,0,1.1,0
				c0.1,0,0.3,0,0.4,0h52.2c5.5,0,9.9-4.5,9.9-10C75.1,49.7,71.2,45.4,66.1,45L66.1,45z"/>
			<path class="st132" d="M66.3,44.8c-0.8-5.7-5.8-10-11.6-10h-0.7c-2.9-7.4-11.2-11.1-18.6-8.2c-3.5,1.4-6.3,4.1-7.9,7.5
				c-5.8-2.1-12.3,0.9-14.5,6.7C13,40.9,13,41.1,13,41.2C6.5,40.9,1,45.8,0.6,52.3s4.6,12,11.1,12.3c0.4,0,0.8,0,1.1-0.1
				c0.1,0,0.3,0,0.4,0.1h52.2c5.5,0,9.9-4.5,9.9-10C75.3,49.5,71.4,45.2,66.3,44.8L66.3,44.8z"/>
			<path class="st133" d="M66.5,44.6c-0.8-5.7-5.8-10-11.6-10h-0.7c-2.9-7.4-11.2-11.1-18.6-8.2c-3.5,1.4-6.3,4.1-7.9,7.5
				c-5.8-2.1-12.3,0.9-14.5,6.7c-0.1,0.1-0.1,0.3-0.1,0.4c-6.5-0.3-12,4.6-12.3,11.1s4.6,12,11.1,12.3c0.4,0,0.8,0,1.1-0.1
				c0.1,0,0.3,0,0.4,0.1h52.2c5.5,0,9.9-4.5,9.9-10C75.5,49.3,71.6,45,66.5,44.6L66.5,44.6z"/>
			<path class="st134" d="M66.7,44.4c-0.8-5.7-5.8-10-11.6-10h-0.7c-2.9-7.4-11.3-11-18.6-8.1c-3.5,1.4-6.3,4-7.8,7.4
				c-5.8-2.1-12.3,0.9-14.5,6.7c-0.1,0.1-0.1,0.3-0.1,0.4C7,40.2,1.2,44.9,0.6,51.3c-0.7,6.4,4,12.2,10.5,12.8
				c0.4,0,0.8,0.1,1.1,0.1c0.4,0,0.8,0,1.1,0c0.1,0,0.3,0,0.4,0h52.1c5.5,0,9.9-4.5,9.9-10C75.7,49.1,71.8,44.8,66.7,44.4z"/>
			<path class="st135" d="M66.9,44.2c-0.8-5.7-5.8-10-11.6-10h-0.7c-2.9-7.4-11.2-11-18.6-8.1c-3.5,1.4-6.3,4.1-7.9,7.5
				c-5.8-2.1-12.3,0.9-14.5,6.7c-0.1,0.1-0.1,0.3-0.1,0.4C7.1,40,1.4,44.7,0.7,51.1c-0.7,6.4,4,12.2,10.5,12.8
				c0.4,0,0.8,0.1,1.1,0.1c0.4,0,0.8,0,1.1,0c0.1,0,0.3,0,0.4,0h52.2c5.5,0,9.9-4.5,9.9-10C75.9,48.9,72,44.6,66.9,44.2L66.9,44.2z"
				/>
			<path class="st136" d="M67.1,44c-0.8-5.7-5.8-10-11.6-10h-0.7c-2.9-7.4-11.2-11.1-18.6-8.2c-3.5,1.4-6.3,4.1-7.9,7.5
				C22.5,31.1,16,34.1,13.9,40c-0.1,0.1-0.1,0.3-0.1,0.4c-6.4-0.7-12.2,4-12.8,10.5c-0.7,6.4,4,12.2,10.5,12.8
				c0.4,0,0.8,0.1,1.1,0.1c0.4,0,0.8,0,1.1,0c0.1,0,0.3,0,0.4,0h52.2c5.5,0,9.9-4.5,9.9-10C76.1,48.6,72.2,44.4,67.1,44L67.1,44z"/>
			<path class="st137" d="M67.3,43.8c-0.8-5.7-5.8-10-11.6-10h-0.7c-2.9-7.4-11.2-11.1-18.6-8.2c-3.5,1.4-6.3,4.1-7.9,7.5
				C22.7,31,16.3,34,14.1,39.8c0,0.1-0.1,0.3-0.1,0.4c-6.4-0.7-12.2,4-12.8,10.5c-0.7,6.4,4,12.2,10.5,12.8c0.4,0,0.8,0.1,1.1,0.1
				c0.4,0,0.8,0,1.1,0c0.1,0,0.3,0,0.4,0h52.1c5.5,0,9.9-4.5,9.9-10C76.3,48.5,72.4,44.2,67.3,43.8z"/>
			<path class="st138" d="M67.5,43.6c-0.8-5.7-5.8-10-11.6-10h-0.7c-2.9-7.4-11.2-11.1-18.6-8.2c-3.5,1.4-6.3,4.1-7.9,7.5
				c-5.8-2.1-12.3,0.9-14.5,6.7c-0.1,0.1-0.1,0.3-0.1,0.4C7.7,39.3,2,44,1.3,50.5c-0.7,6.4,4,12.2,10.5,12.8c0.4,0,0.8,0.1,1.1,0.1
				c0.4,0,0.8,0,1.1,0c0.1,0,0.3,0,0.4,0h52.2c5.5,0,9.9-4.5,9.9-10C76.5,48.2,72.6,44,67.5,43.6L67.5,43.6z"/>
			<path class="st139" d="M67.7,43.4c-0.8-5.7-5.8-10-11.6-10h-0.7c-2.9-7.4-11.3-11-18.6-8.1c-3.5,1.4-6.3,4-7.8,7.4
				c-5.8-2.1-12.3,0.9-14.5,6.7c-0.1,0.1-0.1,0.3-0.1,0.4C8,39.2,2.2,43.9,1.6,50.3c-0.7,6.4,4,12.2,10.5,12.8
				c0.4,0,0.8,0.1,1.1,0.1c0.4,0,0.8,0,1.1,0c0.1,0,0.3,0,0.4,0h52.2c5.5,0,9.9-4.5,9.9-10C76.7,48.1,72.8,43.8,67.7,43.4L67.7,43.4
				z"/>
			<path class="st140" d="M67.9,43.2c-0.8-5.7-5.8-10-11.6-10h-0.7c-2.9-7.4-11.2-11-18.6-8.2c-3.5,1.4-6.3,4.1-7.9,7.5
				c-5.8-2.1-12.3,0.9-14.5,6.7c-0.1,0.1-0.1,0.3-0.1,0.4C8.1,39,2.4,43.7,1.7,50.1c-0.7,6.4,4,12.2,10.5,12.8
				c0.4,0,0.8,0.1,1.1,0.1c0.4,0,0.8,0,1.1,0c0.1,0,0.3,0,0.4,0h52.2c5.5,0,9.9-4.5,9.9-10C76.9,47.9,73,43.6,67.9,43.2z"/>
			<path class="st141" d="M68.1,43c-0.8-5.7-5.8-10-11.6-10h-0.7c-2.9-7.4-11.2-11.1-18.6-8.2c-3.5,1.4-6.3,4.1-7.9,7.5
				c-5.8-2.1-12.3,0.9-14.5,6.7c-0.1,0.1-0.1,0.3-0.1,0.4c-6.4-0.7-12.2,4-12.8,10.5C1.3,56.3,6,62,12.4,62.7c0.4,0,0.8,0.1,1.1,0.1
				c0.4,0,0.8,0,1.1,0c0.1,0,0.3,0,0.4,0h52.2c5.5,0,9.9-4.5,9.9-10C77.1,47.6,73.2,43.4,68.1,43L68.1,43z"/>
			<path class="st142" d="M68.3,42.8c-0.8-5.7-5.8-10-11.6-10h-0.7c-2.9-7.4-11.2-11.1-18.6-8.2c-3.5,1.4-6.3,4.1-7.9,7.5
				c-5.9-2.1-12.3,0.9-14.4,6.8c0,0.1-0.1,0.3-0.1,0.4c-6.4-0.7-12.2,4-12.8,10.5c-0.7,6.4,4,12.2,10.5,12.8c0.4,0,0.8,0.1,1.1,0.1
				c0.4,0,0.8,0,1.1,0c0.1,0,0.3,0,0.4,0h52.2c5.5,0,9.9-4.5,9.9-10C77.3,47.5,73.4,43.2,68.3,42.8L68.3,42.8z"/>
			<path class="st143" d="M68.5,42.6c-0.8-5.7-5.8-10-11.6-10h-0.7c-2.9-7.4-11.2-11.1-18.6-8.2c-3.5,1.4-6.3,4.1-7.9,7.5
				c-5.8-2.1-12.3,0.9-14.5,6.7c-0.1,0.1-0.1,0.3-0.1,0.4C8.7,38.3,3,43,2.3,49.5c-0.7,6.4,4,12.2,10.5,12.8c0.4,0,0.8,0.1,1.1,0.1
				c0.4,0,0.8,0,1.1,0c0.1,0,0.3,0,0.4,0h52.2c5.5,0,9.9-4.5,9.9-10C77.5,47.2,73.6,43,68.5,42.6L68.5,42.6z"/>
			<path class="st144" d="M68.7,42.3c-0.8-5.7-5.8-10-11.6-10h-0.7c-2.9-7.4-11.2-11-18.6-8.1c-3.5,1.4-6.3,4-7.8,7.5
				c-5.8-2.1-12.3,0.9-14.5,6.7c-0.1,0.1-0.1,0.3-0.1,0.4C9,38.2,3.2,42.9,2.6,49.3c-0.7,6.4,4,12.2,10.5,12.8
				c0.4,0,0.8,0.1,1.1,0.1c0.4,0,0.8,0,1.1,0c0.1,0,0.3,0,0.4,0h52.2c5.5,0,9.9-4.5,9.9-10C77.7,47.1,73.8,42.8,68.7,42.3L68.7,42.3
				z"/>
			<path class="st145" d="M68.9,42.2c-0.8-5.7-5.8-10-11.6-10h-0.7c-2.9-7.4-11.2-11-18.6-8.1c-3.5,1.4-6.3,4.1-7.9,7.5
				c-5.8-2.1-12.3,0.9-14.5,6.7c-0.1,0.1-0.1,0.3-0.1,0.4C9.1,38,3.4,42.7,2.7,49.1c-0.7,6.4,4,12.2,10.5,12.8
				c0.4,0,0.8,0.1,1.1,0.1c0.4,0,0.8,0,1.1,0c0.1,0,0.3,0,0.4,0h52.2c5.5,0,9.9-4.5,9.9-10C77.9,46.9,74,42.6,68.9,42.2L68.9,42.2z"
				/>
			<path class="st146" d="M69.1,42c-0.8-5.7-5.8-10-11.6-10h-0.7c-2.9-7.4-11.2-11.1-18.6-8.2c-3.5,1.4-6.3,4.1-7.9,7.5
				c-5.8-2.1-12.3,0.9-14.5,6.7c-0.1,0.1-0.1,0.3-0.1,0.4c-6.4-0.7-12.2,4-12.8,10.5C2.3,55.3,7,61,13.4,61.7c0.4,0,0.8,0.1,1.1,0.1
				c0.4,0,0.8,0,1.1,0c0.1,0,0.3,0,0.4,0h52.2c5.5,0,9.9-4.5,9.9-10C78.1,46.6,74.2,42.4,69.1,42L69.1,42z"/>
			<path class="st147" d="M69.3,41.8c-0.8-5.7-5.8-10-11.6-10h-0.7c-2.9-7.4-11.2-11.1-18.6-8.2c-3.5,1.4-6.3,4.1-7.9,7.5
				c-5.9-2.1-12.3,0.9-14.4,6.7c0,0.1-0.1,0.3-0.1,0.4c-6.4-0.7-12.2,4-12.8,10.5c-0.7,6.4,4,12.2,10.5,12.8c0.4,0,0.8,0.1,1.1,0.1
				c0.4,0,0.8,0,1.1,0c0.1,0,0.3,0,0.4,0h52.2c5.5,0,9.9-4.5,9.9-10C78.3,46.5,74.4,42.2,69.3,41.8L69.3,41.8z"/>
			<path class="st148" d="M69.5,41.5c-0.8-5.7-5.8-10-11.6-10h-0.7c-2.9-7.4-11.2-11.1-18.6-8.2c-3.5,1.4-6.3,4.1-7.9,7.5
				c-5.8-2.1-12.3,0.9-14.5,6.7c-0.1,0.1-0.1,0.3-0.1,0.4C9.7,37.3,4,42,3.3,48.4c-0.7,6.4,4,12.2,10.5,12.8c0.4,0,0.8,0.1,1.1,0.1
				c0.4,0,0.8,0,1.1,0c0.1,0,0.3,0,0.4,0h52.2c5.5-0.2,9.8-4.8,9.6-10.3C78.1,46.1,74.4,42.1,69.5,41.5z"/>
			<path class="st149" d="M69.7,41.3c-0.8-5.7-5.8-10-11.6-10h-0.7c-2.9-7.4-11.2-11-18.6-8.1c-3.5,1.4-6.3,4.1-7.9,7.5
				c-5.8-2.1-12.3,0.9-14.5,6.7c-0.1,0.1-0.1,0.3-0.1,0.4c-6.4-0.7-12.2,4-12.8,10.5c-0.7,6.4,4,12.2,10.5,12.8
				c0.4,0,0.8,0.1,1.1,0.1c0.4,0,0.8,0,1.1,0c0.1,0,0.3,0,0.4,0h52.2c5.5,0,9.9-4.5,9.9-10C78.7,46.1,74.8,41.8,69.7,41.3z"/>
			<path class="st150" d="M69.9,41.1c-0.8-5.7-5.8-10-11.6-10h-0.7c-2.9-7.4-11.2-11-18.6-8.1c-3.5,1.4-6.3,4.1-7.9,7.5
				c-5.8-2.1-12.3,0.9-14.5,6.7c-0.1,0.1-0.1,0.3-0.1,0.4c-6.4-0.7-12.2,4-12.8,10.5c-0.7,6.4,4,12.2,10.5,12.8
				c0.4,0,0.8,0.1,1.1,0.1c0.4,0,0.8,0,1.1,0c0.1,0,0.3,0,0.4,0h52.2c5.5,0,9.9-4.5,9.9-10C78.9,45.9,75,41.6,69.9,41.1L69.9,41.1z"
				/>
			<path class="st151" d="M70.1,40.9c-0.8-5.7-5.8-10-11.6-10h-0.7c-2.9-7.4-11.2-11.1-18.6-8.2c-3.5,1.4-6.3,4.1-7.9,7.5
				c-5.8-2.1-12.3,0.9-14.5,6.7c-0.1,0.1-0.1,0.3-0.1,0.4c-6.4-0.7-12.2,4-12.8,10.5C3.3,54.3,8,60,14.4,60.7c0.4,0,0.8,0.1,1.1,0.1
				c0.4,0,0.8,0,1.1,0c0.1,0,0.3,0,0.4,0h52.2c5.5,0,9.9-4.5,9.9-10C79.1,45.6,75.2,41.4,70.1,40.9L70.1,40.9z"/>
			<path class="st152" d="M70.3,40.7c-0.8-5.7-5.8-10-11.6-10h-0.7c-2.9-7.4-11.2-11.1-18.6-8.2c-3.5,1.4-6.3,4.1-7.9,7.5
				c-5.8-2.1-12.3,0.9-14.4,6.7c-0.1,0.1-0.1,0.3-0.1,0.4c-6.4-0.7-12.2,4-12.8,10.5c-0.7,6.4,4,12.2,10.5,12.8
				c0.4,0,0.8,0.1,1.1,0.1c0.4,0,0.8,0,1.1,0c0.1,0,0.3,0,0.4,0h52.2c5.5,0,9.9-4.5,9.9-10C79.3,45.5,75.4,41.2,70.3,40.7L70.3,40.7
				z"/>
			<path class="st153" d="M70.5,40.5c-0.8-5.7-5.8-10-11.6-10h-0.7c-2.9-7.4-11.2-11.1-18.6-8.2c-3.5,1.4-6.3,4.1-7.9,7.5
				c-5.8-2.1-12.3,0.9-14.5,6.7c-0.1,0.1-0.1,0.3-0.1,0.4c-6.5-0.3-12,4.7-12.3,11.1S9.5,60,16,60.4l0,0c0.4,0,0.8,0,1.1,0
				c0.1,0,0.3,0,0.4,0h52.1c5.5,0.2,10.1-4,10.3-9.5C80.2,45.4,76,40.7,70.5,40.5L70.5,40.5z"/>
			<path class="st154" d="M70.7,40.3c-0.8-5.7-5.8-10-11.6-10h-0.7c-2.9-7.4-11.2-11-18.6-8.1c-3.5,1.4-6.3,4.1-7.9,7.5
				c-5.8-2.1-12.3,0.8-14.5,6.7c-0.1,0.1-0.1,0.3-0.2,0.4c-6.4-0.7-12.2,4-12.8,10.5c-0.7,6.4,4,12.2,10.5,12.8
				c0.4,0,0.8,0.1,1.1,0.1c0.4,0,0.8,0,1.1,0c0.1,0,0.3,0,0.4,0h52.2c5.5,0,9.9-4.5,9.9-10C79.7,45,75.8,40.8,70.7,40.3L70.7,40.3z"
				/>
			<path class="st155" d="M70.9,40.1c-0.8-5.7-5.8-10-11.6-10h-0.7c-2.9-7.4-11.2-11-18.6-8.1c-3.5,1.4-6.3,4.1-7.9,7.5
				c-5.8-2.2-12.3,0.8-14.5,6.7c-0.1,0.1-0.1,0.3-0.1,0.4c-6.4-0.7-12.2,4-12.8,10.5c-0.7,6.4,4,12.2,10.5,12.8
				c0.4,0,0.8,0.1,1.1,0.1c0.4,0,0.8,0,1.1,0c0.1,0,0.3,0,0.4,0h52.2c5.5,0,9.9-4.5,9.9-10C79.9,44.8,76,40.6,70.9,40.1z"/>
			<path class="st156" d="M71.1,39.9c-0.8-5.7-5.8-10-11.6-10h-0.7c-2.9-7.4-11.2-11.1-18.6-8.2c-3.5,1.4-6.3,4.1-7.9,7.5
				c-5.8-2.1-12.3,0.9-14.4,6.7c-0.1,0.2-0.1,0.3-0.2,0.5c-6.4-0.7-12.2,4-12.8,10.5C4.3,53.3,9,59,15.4,59.7c0.4,0,0.8,0.1,1.1,0.1
				c0.4,0,0.8,0,1.1,0c0.1,0,0.3,0,0.4,0h52.2c5.5,0,9.9-4.5,9.9-10C80.1,44.6,76.2,40.4,71.1,39.9L71.1,39.9z"/>
			<path class="st157" d="M71.3,39.7c-0.8-5.7-5.8-10-11.6-10h-0.7c-2.9-7.4-11.2-11.1-18.6-8.2c-3.5,1.4-6.3,4.1-7.9,7.5
				c-5.8-2.1-12.3,0.9-14.4,6.7C18.1,35.9,18,36,18,36.2c-6.4-0.7-12.2,4-12.8,10.5c-0.7,6.4,4,12.2,10.5,12.8
				c0.4,0,0.8,0.1,1.1,0.1c0.4,0,0.7,0,1.1,0c0.1,0,0.3,0,0.4,0h52.2c5.5,0,9.9-4.5,9.9-10C80.3,44.4,76.4,40.2,71.3,39.7L71.3,39.7
				z"/>
			<path class="st158" d="M71.5,39.5c-0.8-5.7-5.8-10-11.6-10h-0.7c-2.9-7.4-11.2-11.1-18.6-8.2c-3.5,1.4-6.3,4.1-7.9,7.5
				c-5.8-2.1-12.3,0.9-14.4,6.7c-0.1,0.2-0.1,0.3-0.2,0.5C11.8,35.3,6,39.9,5.3,46.4s3.9,12.2,10.4,12.9c0.5,0,0.9,0.1,1.4,0.1
				c0.4,0,0.7,0,1.1,0c0.1,0,0.3,0,0.4,0h52.1c5.5,0.2,10.1-4,10.3-9.5C81.2,44.3,77,39.7,71.5,39.5L71.5,39.5z"/>
			<path class="st159" d="M71.7,39.3c-0.8-5.7-5.8-10-11.6-10h-0.7c-2.9-7.4-11.2-11-18.6-8.2c-3.5,1.4-6.3,4.1-7.9,7.5
				c-5.8-2.1-12.3,0.8-14.5,6.7c-0.1,0.1-0.1,0.3-0.2,0.4c-6.4-0.7-12.2,4-12.8,10.5c-0.7,6.4,4,12.2,10.5,12.8
				c0.4,0,0.8,0.1,1.1,0.1c0.4,0,0.7,0,1.1,0c0.1,0,0.3,0,0.4,0h52.2c5.5,0,9.9-4.5,9.9-10C80.7,44,76.8,39.8,71.7,39.3L71.7,39.3z"
				/>
			<path class="st160" d="M71.9,39.1c-0.8-5.7-5.8-10-11.6-10h-0.7c-2.9-7.4-11.2-11-18.6-8.1c-3.5,1.4-6.3,4.1-7.8,7.5
				c-5.8-2.1-12.3,0.8-14.5,6.7c-0.1,0.1-0.1,0.3-0.2,0.4c-6.4-0.7-12.2,4-12.8,10.5c-0.7,6.4,4,12.2,10.5,12.8
				c0.4,0,0.8,0.1,1.1,0.1c0.4,0,0.7,0,1.1,0c0.1,0,0.3,0,0.4,0h52.2c5.5,0,9.9-4.5,9.9-10C80.9,43.9,77,39.6,71.9,39.1L71.9,39.1z"
				/>
			<path class="st161" d="M72.1,38.9c-0.8-5.7-5.8-10-11.6-10h-0.7c-2.9-7.4-11.2-11.1-18.6-8.2c-3.5,1.4-6.3,4.1-7.9,7.5
				c-5.8-2.1-12.3,0.9-14.4,6.7c-0.1,0.1-0.1,0.3-0.2,0.4c-6.4-0.7-12.2,4-12.8,10.5C5.3,52.3,10,58,16.4,58.7
				c0.4,0,0.8,0.1,1.1,0.1c0.4,0,0.7,0,1.1,0c0.1,0,0.3,0,0.4,0h52.2c5.5,0,9.9-4.5,9.9-10C81.1,43.6,77.2,39.4,72.1,38.9L72.1,38.9
				z"/>
			<path class="st162" d="M72.3,38.7c-0.8-5.7-5.8-10-11.6-10h-0.7c-2.9-7.4-11.2-11.1-18.6-8.2c-3.5,1.4-6.3,4.1-7.9,7.5
				c-5.8-2.1-12.3,0.9-14.4,6.7C19.1,34.9,19,35,19,35.2c-6.4-0.9-12.3,3.6-13.2,10c-0.9,6.4,3.6,12.3,10,13.2
				c0.6,0.1,1.3,0.1,1.9,0.1c0.4,0,0.7,0,1.1,0c0.1,0,0.3,0,0.4,0h52.2c5.5,0,9.9-4.5,9.9-10C81.3,43.4,77.4,39.1,72.3,38.7
				L72.3,38.7z"/>
			<path class="st163" d="M72.5,38.5c-0.8-5.7-5.8-10-11.6-10h-0.7c-2.9-7.4-11.2-11.1-18.6-8.2c-3.5,1.4-6.3,4.1-7.9,7.5
				c-5.8-2.1-12.3,0.9-14.4,6.7c-0.1,0.2-0.1,0.3-0.2,0.5C12.8,34.3,7,39,6.4,45.5c-0.7,6.4,4,12.2,10.5,12.8c0.4,0,0.8,0.1,1.2,0.1
				c0.4,0,0.7,0,1.1,0c0.1,0,0.3,0,0.4,0h52.2c5.5,0.2,10.1-4,10.3-9.5S78,38.7,72.5,38.5L72.5,38.5z"/>
			<path class="st164" d="M72.7,38.3c-0.8-5.7-5.8-10-11.6-10h-0.7c-2.9-7.4-11.2-11-18.6-8.2c-3.5,1.4-6.3,4.1-7.9,7.5
				c-5.8-2.1-12.3,0.9-14.5,6.7c-0.1,0.1-0.1,0.3-0.1,0.4c-6.4-0.7-12.2,4-12.8,10.5c-0.7,6.4,4,12.2,10.5,12.8
				c0.4,0,0.8,0.1,1.1,0.1c0.4,0,0.7,0,1.1,0c0.1,0,0.3,0,0.4,0h52.2c5.5,0,9.9-4.5,9.9-10C81.7,43,77.8,38.8,72.7,38.3L72.7,38.3z"
				/>
			<path class="st165" d="M72.9,38.1c-0.8-5.7-5.8-10-11.6-10h-0.7c-2.9-7.4-11.2-11-18.6-8.1c-3.5,1.4-6.3,4.1-7.9,7.5
				c-5.8-2.2-12.3,0.8-14.5,6.7c-0.1,0.1-0.1,0.3-0.1,0.4c-6.4-0.7-12.2,4-12.8,10.5s4,12.2,10.5,12.8c0.4,0,0.8,0.1,1.1,0.1
				c0.4,0,0.7,0,1.1,0c0.1,0,0.3,0,0.4,0h52.2c5.5,0,9.9-4.5,9.9-10C81.9,42.8,78,38.6,72.9,38.1L72.9,38.1z"/>
			<path class="st166" d="M73.1,37.9c-0.8-5.7-5.8-10-11.6-10h-0.7c-2.9-7.4-11.2-11.1-18.6-8.2c-3.5,1.4-6.3,4.1-7.9,7.5
				c-5.8-2.1-12.3,0.9-14.5,6.7c-0.1,0.2-0.1,0.3-0.2,0.5c-6.4-0.7-12.2,4-12.8,10.5S11,57,17.4,57.7c0.4,0,0.8,0.1,1.1,0.1
				c0.4,0,0.7,0,1.1,0c0.1,0,0.3,0,0.4,0h52.2c5.5,0,9.9-4.5,9.9-10C82.1,42.6,78.2,38.4,73.1,37.9L73.1,37.9z"/>
			<path class="st167" d="M73.3,37.7c-0.8-5.7-5.8-10-11.6-10h-0.7c-2.9-7.4-11.2-11.1-18.6-8.2c-3.5,1.4-6.3,4.1-7.9,7.5
				c-5.8-2.1-12.3,0.9-14.5,6.7C20.1,33.9,20,34,20,34.2c-6.4-0.8-12.3,3.7-13.1,10.1C6.1,50.7,10.6,56.6,17,57.4
				c0.6,0.1,1.2,0.1,1.8,0.1c0.4,0,0.7,0,1.1,0c0.1,0,0.3,0,0.4,0h52.2c5.5,0,9.9-4.5,9.9-10C82.3,42.4,78.4,38.1,73.3,37.7
				L73.3,37.7z"/>
			<path class="st168" d="M73.5,37.5c-0.8-5.7-5.7-10-11.5-10h-0.7c-2.9-7.4-11.2-11.1-18.6-8.2c-3.5,1.4-6.3,4.1-7.9,7.5
				c-5.8-2.1-12.3,0.8-14.5,6.7c-0.1,0.1-0.1,0.3-0.2,0.4c-6.5-0.3-12,4.6-12.3,11.1C7.6,51.5,12.5,57,19,57.3c0.4,0,0.7,0,1.1,0
				c0.1,0,0.3,0,0.4,0h52.2c5.5,0.1,10-4.2,10.1-9.7C83,42.3,78.9,37.8,73.5,37.5z"/>
			<path class="st169" d="M73.7,37.3c-0.8-5.7-5.8-10-11.6-10h-0.7c-2.9-7.4-11.2-11.1-18.6-8.2c-3.5,1.4-6.4,4.1-7.9,7.5
				c-5.8-2.1-12.3,0.8-14.5,6.7c-0.1,0.1-0.1,0.3-0.2,0.4c-6.4-0.7-12.2,4-12.8,10.5s4,12.2,10.5,12.8c0.4,0,0.8,0.1,1.1,0.1
				c0.4,0,0.7,0,1.1,0c0.1,0,0.3,0,0.4,0h52.2c5.5,0,9.9-4.5,9.9-10C82.7,42,78.8,37.8,73.7,37.3L73.7,37.3z"/>
			<path class="st170" d="M73.9,37.1c-0.8-5.7-5.8-10-11.6-10h-0.7c-2.9-7.4-11.2-11-18.6-8.1c-3.5,1.4-6.3,4.1-7.9,7.5
				c-5.8-2.1-12.3,0.8-14.5,6.7c-0.1,0.1-0.1,0.3-0.2,0.4c-6.4-0.7-12.2,4-12.8,10.5s4,12.2,10.5,12.8c0.4,0,0.8,0.1,1.1,0.1
				c0.4,0,0.7,0,1.1,0c0.1,0,0.3,0,0.4,0h52.2c5.5,0,9.9-4.5,9.9-10C82.9,41.9,79,37.6,73.9,37.1L73.9,37.1z"/>
			<path class="st171" d="M74.1,36.9c-0.8-5.7-5.8-10-11.6-10h-0.7c-2.9-7.4-11.2-11.1-18.6-8.2c-3.5,1.4-6.3,4.1-7.9,7.5
				c-5.8-2.1-12.3,0.8-14.5,6.7c-0.1,0.1-0.1,0.3-0.2,0.4c-6.4-0.7-12.2,4-12.8,10.5S12,56,18.4,56.6c0.4,0,0.8,0.1,1.1,0.1
				c0.4,0,0.7,0,1.1,0c0.1,0,0.3,0,0.4,0h52.2c5.5,0,9.9-4.5,9.9-10C83.1,41.6,79.2,37.3,74.1,36.9L74.1,36.9z"/>
			<path class="st172" d="M74.3,36.7c-0.8-5.7-5.8-10-11.6-10h-0.7c-2.9-7.4-11.2-11.1-18.6-8.2c-3.5,1.4-6.3,4.1-7.9,7.5
				c-5.8-2.1-12.3,0.8-14.5,6.7c-0.1,0.2-0.1,0.3-0.2,0.5c-6.4-0.8-12.3,3.8-13.1,10.2c-0.8,6.4,3.8,12.3,10.2,13.1
				c0.5,0.1,1.1,0.1,1.7,0.1c0.4,0,0.7,0,1.1,0c0.1,0,0.3,0,0.4,0h52.2c5.5,0,9.9-4.5,9.9-10C83.3,41.4,79.4,37.1,74.3,36.7
				L74.3,36.7z"/>
			<path class="st173" d="M74.5,36.5c-0.8-5.7-5.7-10-11.5-10h-0.7c-2.9-7.4-11.2-11.1-18.6-8.2c-3.5,1.4-6.3,4.1-7.9,7.5
				c-5.8-2.1-12.3,0.8-14.5,6.7c-0.1,0.1-0.1,0.3-0.2,0.4c-6.5-0.3-12,4.6-12.3,11.1S13.5,56,20,56.3c0.4,0,0.7,0,1.1,0
				c0.1,0,0.3,0,0.4,0h52.2c5.5,0,9.9-4.4,10-9.9C83.7,41.2,79.7,36.9,74.5,36.5z"/>
			<path class="st174" d="M74.7,36.3c-0.8-5.7-5.8-10-11.6-10h-0.7c-2.9-7.4-11.2-11.1-18.6-8.2c-3.5,1.4-6.4,4.1-7.9,7.5
				c-5.8-2.1-12.3,0.8-14.5,6.7c-0.1,0.1-0.1,0.3-0.2,0.4c-6.4-0.7-12.2,4-12.8,10.5s4,12.2,10.5,12.8c0.4,0,0.8,0.1,1.1,0.1
				c0.4,0,0.7,0,1.1,0c0.1,0,0.3,0,0.4,0h52.2c5.5,0,9.9-4.5,9.9-10C83.7,41,79.8,36.8,74.7,36.3L74.7,36.3z"/>
			<path class="st175" d="M74.9,36.1c-0.8-5.7-5.8-10-11.6-10h-0.7c-2.9-7.4-11.2-11.1-18.6-8.2c-3.5,1.4-6.3,4.1-7.9,7.5
				c-5.8-2.1-12.3,0.8-14.5,6.7c-0.1,0.1-0.1,0.3-0.2,0.4c-6.4-0.7-12.2,4-12.8,10.5s4,12.2,10.5,12.8c0.4,0,0.8,0.1,1.1,0.1
				c0.4,0,0.7,0,1.1,0c0.1,0,0.3,0,0.4,0h52.2c5.5,0,9.9-4.5,9.9-10C83.9,40.8,80,36.5,74.9,36.1L74.9,36.1z"/>
			<path class="st176" d="M75.1,35.9c-0.8-5.7-5.8-10-11.6-10h-0.7c-2.9-7.4-11.2-11.1-18.6-8.2c-3.5,1.4-6.3,4.1-7.9,7.5
				c-5.8-2.1-12.3,0.8-14.5,6.7c-0.1,0.1-0.1,0.3-0.2,0.4c-0.4,0-0.8-0.1-1.2-0.1c-6.5,0-11.7,5.2-11.7,11.7s5.2,11.7,11.7,11.7
				c0.4,0,0.7,0,1.1,0c0.1,0,0.3,0,0.4,0h52.2c5.5,0,9.9-4.5,9.9-10C84.1,40.6,80.2,36.3,75.1,35.9L75.1,35.9z"/>
			<path class="st177" d="M75.3,35.7c-0.8-5.7-5.8-10-11.6-10h-0.7c-2.9-7.4-11.2-11.1-18.6-8.2c-3.5,1.4-6.3,4.1-7.9,7.5
				c-5.8-2.2-12.3,0.8-14.5,6.7c-0.1,0.2-0.1,0.3-0.2,0.5c-0.4,0-0.8-0.1-1.2-0.1c-6.5,0-11.7,5.2-11.7,11.7
				c0,6.5,5.2,11.7,11.7,11.7c0.4,0,0.7,0,1.1,0c0.1,0,0.3,0,0.4,0h52.2c5.5,0,9.9-4.5,9.9-10C84.3,40.4,80.4,36.2,75.3,35.7
				L75.3,35.7z"/>
			<path class="st178" d="M75.5,35.5c-0.8-5.7-5.7-10-11.5-10h-0.7c-2.9-7.4-11.2-11.1-18.6-8.2c-3.5,1.4-6.3,4.1-7.9,7.5
				c-5.8-2.1-12.3,0.8-14.5,6.7c-0.1,0.1-0.1,0.3-0.2,0.4c-0.4,0-0.8,0-1.3,0c-6.5,0-11.7,5.2-11.7,11.7S14.5,55.3,21,55.3
				c0.4,0,0.7,0,1.1,0c0.1,0,0.3,0,0.4,0h52.2c5.5,0,9.9-4.5,9.9-10C84.5,40.2,80.6,36,75.5,35.5z"/>
			<path class="st179" d="M75.7,35.3c-0.8-5.7-5.8-10-11.6-10h-0.7c-2.9-7.4-11.2-11.1-18.6-8.2c-3.5,1.4-6.4,4.1-7.9,7.5
				c-5.8-2.1-12.3,0.8-14.5,6.7c-0.1,0.1-0.1,0.3-0.2,0.4c-0.4,0-0.8-0.1-1.2-0.1c-6.5,0-11.7,5.2-11.7,11.7s5.2,11.7,11.7,11.7
				c0.4,0,0.7,0,1.1,0c0.1,0,0.3,0,0.4,0h52.2c5.5,0,9.9-4.5,9.9-10C84.7,40,80.8,35.8,75.7,35.3L75.7,35.3z"/>
			<path class="st180" d="M75.9,35.1c-0.8-5.7-5.8-10-11.6-10h-0.7c-2.9-7.4-11.2-11.1-18.6-8.2c-3.5,1.4-6.3,4.1-7.9,7.5
				c-5.8-2.1-12.3,0.8-14.5,6.7c-0.1,0.1-0.1,0.3-0.2,0.4c-0.4,0-0.8,0-1.2,0c-6.5,0-11.7,5.2-11.7,11.7c0,6.5,5.2,11.7,11.7,11.7
				c0.4,0,0.7,0,1.1,0c0.1,0,0.3,0,0.4,0h52.2c5.5,0,9.9-4.5,9.9-10C84.9,39.8,81,35.6,75.9,35.1L75.9,35.1z"/>
			<path class="st181" d="M76.1,34.9c-0.8-5.7-5.8-10-11.6-10h-0.7c-2.9-7.4-11.2-11.1-18.6-8.2c-3.5,1.4-6.3,4.1-7.9,7.5
				C31.6,22.1,25.1,25,23,30.9c-0.1,0.1-0.1,0.3-0.2,0.4c-0.4,0-0.8-0.1-1.2-0.1c-6.5,0-11.7,5.2-11.7,11.7
				c0,6.5,5.2,11.7,11.7,11.7c0.4,0,0.7,0,1.1,0c0.1,0,0.3,0,0.4,0h52.2c5.5,0,9.9-4.5,9.9-10C85.1,39.6,81.2,35.3,76.1,34.9
				L76.1,34.9z"/>
			<path class="st182" d="M76.3,34.7c-0.8-5.7-5.8-10-11.6-10h-0.7c-2.9-7.4-11.2-11.1-18.6-8.2c-3.5,1.4-6.3,4.1-7.9,7.5
				c-5.8-2.2-12.3,0.8-14.5,6.7c-0.1,0.2-0.1,0.3-0.2,0.5c-0.4,0-0.8-0.1-1.2-0.1c-6.5,0.2-11.5,5.6-11.3,12.1
				c0.2,6.2,5.2,11.2,11.4,11.3c0.4,0,0.7,0,1.1,0c0.1,0,0.3,0,0.4,0h52.2c5.5,0,9.9-4.5,9.9-10C85.3,39.4,81.4,35.1,76.3,34.7
				L76.3,34.7z"/>
			<path class="st183" d="M76.5,34.5c-0.8-5.7-5.7-10-11.5-10h-0.7c-2.9-7.4-11.2-11.1-18.6-8.2c-3.5,1.4-6.3,4.1-7.9,7.5
				c-5.8-2.1-12.3,0.8-14.5,6.7c-0.1,0.1-0.1,0.3-0.2,0.4c-0.4,0-0.8,0-1.3,0c-6.5,0-11.7,5.2-11.7,11.7c0,6.5,5.2,11.7,11.7,11.7
				c0.4,0,0.7,0,1.1,0c0.1,0,0.3,0,0.4,0h52.2c5.5-0.1,9.9-4.6,9.8-10.1C85.4,39.2,81.6,35,76.5,34.5z"/>
			<path class="st184" d="M76.7,34.3c-0.8-5.7-5.8-10-11.6-10h-0.7c-2.9-7.4-11.2-11.1-18.6-8.2c-3.5,1.4-6.4,4.1-7.9,7.6
				c-5.8-2.1-12.3,0.8-14.5,6.7c-0.1,0.1-0.1,0.3-0.2,0.4c-0.4,0-0.8-0.1-1.2-0.1c-6.5,0-11.7,5.2-11.7,11.7
				c0,6.5,5.2,11.7,11.7,11.7c0.4,0,0.7,0,1.1,0c0.1,0,0.3,0,0.4,0h52.2c5.5,0,9.9-4.5,9.9-10C85.7,39,81.8,34.7,76.7,34.3
				L76.7,34.3z"/>
			<path class="st185" d="M76.9,34.1c-0.8-5.7-5.8-10-11.6-10h-0.7c-2.9-7.4-11.2-11.1-18.6-8.2c-3.5,1.4-6.3,4.1-7.9,7.5
				c-5.8-2.1-12.3,0.8-14.5,6.7c-0.1,0.1-0.1,0.3-0.2,0.4c-0.4,0-0.8,0-1.2,0c-6.5,0-11.7,5.2-11.7,11.7c0,6.5,5.2,11.7,11.7,11.7
				c0.4,0,0.7,0,1.1,0c0.1,0,0.3,0,0.4,0h52.2c5.5,0,9.9-4.5,9.9-10C85.9,38.8,82,34.6,76.9,34.1L76.9,34.1z"/>
			<path class="st186" d="M77.2,33.9c-0.8-5.7-5.8-10-11.6-10h-0.7c-2.9-7.4-11.2-11.1-18.6-8.2c-3.5,1.4-6.3,4.1-7.9,7.5
				C32.6,21.1,26.1,24,24,29.9c-0.1,0.1-0.1,0.3-0.2,0.4c-0.4,0-0.8-0.1-1.2-0.1c-6.5,0-11.7,5.2-11.7,11.7
				c0,6.5,5.2,11.7,11.7,11.7c0.4,0,0.7,0,1.1,0c0.1,0,0.3,0,0.4,0h52.2c5.5,0,9.9-4.5,9.9-10C86.1,38.6,82.2,34.3,77.2,33.9
				L77.2,33.9z"/>
			<path class="st187" d="M77.3,33.7c-0.8-5.7-5.8-10-11.6-10h-0.7c-2.9-7.4-11.2-11.1-18.6-8.2c-3.5,1.4-6.3,4.1-7.9,7.5
				c-5.8-2.2-12.3,0.8-14.5,6.6c-0.1,0.2-0.1,0.3-0.2,0.5c-0.4,0-0.8-0.1-1.2-0.1c-6.5,0-11.7,5.2-11.7,11.7s5.2,11.7,11.7,11.7
				c0.4,0,0.7,0,1.1,0c0.1,0,0.3,0,0.4,0h52.2c5.5,0,9.9-4.5,9.9-10C86.3,38.4,82.4,34.1,77.3,33.7L77.3,33.7z"/>
			<path class="st188" d="M77.6,33.5c-0.8-5.7-5.8-10-11.6-10h-0.7c-2.9-7.4-11.2-11.1-18.6-8.2c-3.5,1.4-6.3,4.1-7.9,7.5
				c-5.8-2.1-12.3,0.8-14.5,6.7c-0.1,0.1-0.1,0.3-0.2,0.4c-0.4,0-0.8-0.1-1.3-0.1c-6.5,0-11.7,5.2-11.7,11.7S16.5,53.3,23,53.3
				c0.4,0,0.7,0,1.1,0c0.1,0,0.3,0,0.4,0h52.2c5.5-0.1,9.8-4.7,9.7-10.2C86.3,38.2,82.5,34,77.6,33.5z"/>
			<path class="st189" d="M77.8,33.3c-0.8-5.7-5.8-10-11.6-10h-0.7c-2.9-7.4-11.2-11.1-18.6-8.2c-3.5,1.4-6.3,4.1-7.9,7.5
				c-5.8-2.1-12.3,0.8-14.5,6.7c-0.1,0.1-0.1,0.3-0.2,0.4c-0.4,0-0.8-0.1-1.2-0.1c-6.5,0-11.7,5.2-11.7,11.7
				c0,6.5,5.2,11.7,11.7,11.7c0.4,0,0.7,0,1.1,0c0.1,0,0.3,0,0.4,0h52.2c5.5,0,9.9-4.5,9.9-10C86.7,37.9,82.8,33.7,77.8,33.3
				L77.8,33.3z"/>
			<path class="st190" d="M78,33.1c-0.8-5.7-5.8-10-11.6-10h-0.7c-2.9-7.4-11.2-11.1-18.6-8.2c-3.5,1.4-6.3,4.1-7.9,7.5
				C33.5,20.2,27,23.2,24.8,29c-0.1,0.2-0.1,0.3-0.2,0.5c-0.4,0-0.8,0-1.2,0c-6.5,0-11.7,5.2-11.7,11.7c0,6.5,5.2,11.7,11.7,11.7
				c0.4,0,0.7,0,1.1,0c0.1,0,0.3,0,0.4,0h52.2c5.5,0.2,10.1-4.1,10.2-9.6C87.5,37.9,83.4,33.4,78,33.1z"/>
			<path class="st191" d="M78.2,32.9c-0.8-5.7-5.8-10-11.6-10h-0.7c-2.9-7.4-11.2-11.1-18.6-8.2c-3.5,1.4-6.3,4.1-7.9,7.5
				C33.6,20,27.1,23,25,28.9c-0.1,0.1-0.1,0.3-0.2,0.4c-0.4,0-0.8-0.1-1.2-0.1c-6.5,0-11.7,5.2-11.7,11.7s5.2,11.7,11.7,11.7
				c0.4,0,0.7,0,1.1,0c0.1,0,0.3,0,0.4,0h52.2c5.5,0,9.9-4.5,9.9-10C87.1,37.5,83.2,33.3,78.2,32.9L78.2,32.9z"/>
			<path class="st192" d="M78.4,32.7c-0.8-5.7-5.8-10-11.6-10h-0.7c-2.9-7.4-11.2-11.1-18.6-8.2c-3.5,1.4-6.3,4.1-7.9,7.5
				c-5.8-2.2-12.3,0.8-14.5,6.6c-0.1,0.2-0.1,0.3-0.2,0.5c-0.4,0-0.8-0.1-1.2-0.1c-6.5,0-11.7,5.2-11.7,11.7
				c0,6.5,5.2,11.7,11.7,11.7c0.4,0,0.7,0,1.1,0c0.1,0,0.3,0,0.4,0h52.2c5.5,0,9.9-4.5,9.9-10C87.3,37.4,83.4,33.1,78.4,32.7
				L78.4,32.7z"/>
			<path class="st193" d="M78.6,32.5c-0.8-5.7-5.8-10-11.6-10h-0.7c-2.9-7.4-11.2-11.1-18.6-8.2c-3.5,1.4-6.3,4.1-7.9,7.5
				c-5.8-2.1-12.3,0.8-14.5,6.7c-0.1,0.1-0.1,0.3-0.2,0.4c-0.4,0-0.8-0.1-1.3-0.1c-6.5,0-11.7,5.2-11.7,11.7S17.5,52.3,24,52.3
				c0.4,0,0.7,0,1.1,0c0.1,0,0.3,0,0.4,0h52.2c5.5-0.1,9.8-4.7,9.7-10.2C87.3,37.2,83.5,33,78.6,32.5z"/>
			<path class="st194" d="M78.8,32.3c-0.8-5.7-5.8-10-11.6-10h-0.7c-2.9-7.4-11.2-11.1-18.6-8.2c-3.5,1.4-6.3,4.1-7.9,7.5
				c-5.8-2.1-12.3,0.8-14.5,6.7c-0.1,0.1-0.1,0.3-0.2,0.4c-0.4,0-0.8-0.1-1.2-0.1c-6.5,0-11.7,5.2-11.7,11.7s5.2,11.7,11.7,11.7
				c0.4,0,0.7,0,1.1,0c0.1,0,0.3,0,0.4,0H78c5.5,0,9.9-4.5,9.9-10C87.8,36.9,83.9,32.7,78.8,32.3L78.8,32.3z"/>
			<path class="st195" d="M79,32.1c-0.8-5.7-5.8-10-11.6-10h-0.7c-2.9-7.4-11.2-11.1-18.6-8.2c-3.5,1.4-6.3,4.1-7.9,7.5
				C34.5,19.2,28,22.2,25.8,28c-0.1,0.2-0.1,0.3-0.2,0.5c-0.4,0-0.8,0-1.2,0c-6.5,0-11.7,5.2-11.7,11.7c0,6.5,5.2,11.7,11.7,11.7
				c0.4,0,0.7,0,1.1,0c0.1,0,0.3,0,0.4,0h52.2c5.5,0.2,10.1-4,10.4-9.5C88.7,36.9,84.5,32.3,79,32.1L79,32.1z"/>
			<path class="st196" d="M79.2,31.9c-0.8-5.7-5.8-10-11.6-10H67c-2.9-7.4-11.2-11.1-18.6-8.2c-3.5,1.4-6.3,4.1-7.9,7.5
				C34.6,19,28.2,22,26,27.9c-0.1,0.1-0.1,0.3-0.2,0.4c-0.4,0-0.8-0.1-1.2-0.1c-6.5,0-11.7,5.2-11.7,11.7s5.2,11.7,11.7,11.7
				c0.4,0,0.7,0,1.1,0c0.1,0,0.3,0,0.4,0h52.2c5.5,0,9.9-4.5,9.9-10C88.2,36.5,84.2,32.3,79.2,31.9L79.2,31.9z"/>
			<path class="st197" d="M79.4,31.7c-0.8-5.7-5.8-10-11.6-10h-0.7c-2.9-7.4-11.2-11.1-18.6-8.2c-3.5,1.4-6.3,4.1-7.9,7.5
				c-5.8-2.1-12.3,0.8-14.5,6.7c-0.1,0.1-0.1,0.3-0.2,0.4c-0.4,0-0.8-0.1-1.2-0.1c-6.5,0-11.7,5.2-11.7,11.7s5.2,11.7,11.7,11.7
				c0.4,0,0.7,0,1.1,0c0.1,0,0.3,0,0.4,0h52.2c5.5,0,9.9-4.5,9.9-10C88.4,36.3,84.4,32.1,79.4,31.7L79.4,31.7z"/>
			<path class="st198" d="M79.6,31.5c-0.8-5.7-5.8-10-11.6-10h-0.7c-2.9-7.4-11.2-11.1-18.6-8.2c-3.5,1.4-6.3,4.1-7.9,7.5
				c-5.8-2.1-12.3,0.8-14.5,6.7c-0.1,0.1-0.1,0.3-0.2,0.4c-0.4,0-0.8-0.1-1.3-0.1c-6.5,0-11.7,5.2-11.7,11.7S18.5,51.3,25,51.3
				c0.4,0,0.7,0,1.1,0c0.1,0,0.3,0,0.4,0h52.2c5.5-0.2,9.8-4.7,9.6-10.2C88.2,36.1,84.5,32.1,79.6,31.5z"/>
			<path class="st199" d="M79.8,31.3c-0.8-5.7-5.8-10-11.6-10h-0.7c-2.9-7.4-11.2-11.1-18.6-8.2c-3.5,1.4-6.3,4.1-7.9,7.5
				c-5.8-2.1-12.3,0.8-14.5,6.7c-0.1,0.1-0.1,0.3-0.2,0.4c-0.4,0-0.8-0.1-1.2-0.1c-6.5,0-11.7,5.2-11.7,11.7S18.8,51,25.2,51
				c0.4,0,0.7,0,1.1,0c0.1,0,0.3,0,0.4,0H79c5.5,0,9.9-4.5,9.9-10C88.8,35.9,84.9,31.7,79.8,31.3L79.8,31.3z"/>
			<path class="st200" d="M80,31.1c-0.8-5.7-5.8-10-11.6-10h-0.7c-2.9-7.4-11.2-11.1-18.6-8.2c-3.5,1.4-6.3,4.1-7.9,7.5
				C35.5,18.2,29,21.2,26.8,27c-0.1,0.2-0.1,0.3-0.2,0.5c-0.4,0-0.8,0-1.2,0c-6.5,0-11.7,5.2-11.7,11.7c0,6.5,5.2,11.7,11.7,11.7
				c0.4,0,0.7,0,1.1,0c0.1,0,0.3,0,0.4,0h52.2c5.5,0.2,10.1-4,10.4-9.5S85.5,31.3,80,31.1z"/>
			<path class="st201" d="M80.2,30.9c-0.8-5.7-5.8-10-11.6-10H68c-2.9-7.4-11.2-11.1-18.6-8.2c-3.5,1.4-6.3,4.1-7.9,7.5
				C35.6,18,29.2,21,27,26.8c-0.1,0.1-0.1,0.3-0.2,0.4c-0.4,0-0.8-0.1-1.2-0.1c-6.5,0-11.7,5.2-11.7,11.7c0,6.5,5.2,11.7,11.7,11.7
				c0.4,0,0.7,0,1.1,0c0.1,0,0.3,0,0.4,0h52.2c5.5,0,9.9-4.5,9.9-10C89.2,35.5,85.3,31.3,80.2,30.9L80.2,30.9z"/>
			<path class="st202" d="M80.4,30.7c-0.8-5.7-5.8-10-11.6-10h-0.7c-2.9-7.4-11.2-11.1-18.6-8.2c-3.5,1.4-6.3,4.1-7.9,7.5
				c-5.8-2.1-12.3,0.8-14.5,6.7c-0.1,0.1-0.1,0.3-0.2,0.4c-0.4,0-0.8-0.1-1.2-0.1c-6.5,0-11.7,5.2-11.7,11.7s5.2,11.7,11.7,11.7
				c0.4,0,0.7,0,1.1,0c0.1,0,0.3,0,0.4,0h52.2c5.5,0,9.9-4.5,9.9-10C89.4,35.3,85.5,31.1,80.4,30.7L80.4,30.7z"/>
			<path class="st203" d="M80.6,30.5c-0.8-5.7-5.8-10-11.6-10h-0.7c-2.9-7.4-11.2-11.1-18.6-8.2c-3.5,1.4-6.3,4.1-7.9,7.5
				c-5.8-2.1-12.3,0.8-14.5,6.7c-0.1,0.1-0.1,0.3-0.2,0.4c-0.4,0-0.8-0.1-1.3-0.1c-6.5,0-11.7,5.2-11.7,11.7
				c0,6.5,5.2,11.7,11.7,11.7c0.4,0,0.7,0,1.1,0c0.1,0,0.3,0,0.4,0h52.2c5.5-0.2,9.8-4.8,9.6-10.3C89.1,35.1,85.4,31.1,80.6,30.5z"
				/>
			<path d="M80.8,30.3c-0.8-5.7-5.8-10-11.6-10h-0.7C65.7,12.9,57.4,9.2,50,12.1c-3.5,1.4-6.3,4.1-7.9,7.5
				c-5.8-2.1-12.3,0.8-14.5,6.7c-0.1,0.1-0.1,0.3-0.2,0.4c-0.4,0-0.8-0.1-1.2-0.1c-6.5,0-11.7,5.2-11.7,11.7S19.8,50,26.2,50
				c0.4,0,0.7,0,1.1,0c0.1,0,0.3,0,0.4,0H80c5.5,0,9.9-4.5,9.9-10C89.8,34.9,85.9,30.7,80.8,30.3L80.8,30.3z"/>
		</g>
	</g>
</g>
<path class="st204" d="M79.9,27.9c-0.9-6.4-6.4-11.1-12.9-11.2h-0.7C63.1,8.4,53.9,4.3,45.6,7.5c-4,1.5-7.2,4.6-8.9,8.5
	c-6.5-2.4-13.8,1-16.1,7.5c-0.1,0.2-0.1,0.3-0.2,0.5c-0.5-0.1-0.9-0.1-1.4-0.1c-7.2,0-13.1,5.9-13.1,13.1S11.8,50,19,50
	c0.4,0,0.8,0,1.2-0.1c0.2,0,0.3,0,0.5,0.1H79c6.1,0,11.1-5,11-11.1C90,33.1,85.6,28.3,79.9,27.9L79.9,27.9z"/>
</svg>
