<svg xmlns="http://www.w3.org/2000/svg" xmlns:xlink="http://www.w3.org/1999/xlink" width="395.35" height="487.26" viewBox="0 0 395.35 487.26">
  <defs>
    <style>
      .a{fill:url(#a);}.b{fill:url(#b);}.c{fill:url(#c);}.d{fill:url(#d);}.e{fill:url(#e);}.f{fill:url(#f);}.g{fill:url(#g);}.h{fill:url(#h);}.i{fill:url(#i);}.j{fill:url(#j);}.k{fill:url(#k);}.l{fill:url(#l);}.m{fill:url(#m);}.n{fill:url(#n);}.o{fill:url(#o);}.p{fill:url(#p);}.q{fill:url(#q);}.r{fill:url(#r);}.s{fill:url(#s);}.t{fill:url(#t);}.u{fill:url(#u);}.v{fill:url(#v);}.w{fill:url(#w);}.x{fill:url(#x);}.y{fill:url(#y);}.z{fill:url(#z);}.aa{fill:url(#aa);}.ab{fill:url(#ab);}.ac{fill:url(#ac);}.ad{fill:url(#ad);}.ae{fill:url(#ae);}.af{fill:url(#af);}.ag{fill:url(#ag);}.ah{fill:url(#ah);}.ai{fill:url(#ai);}.aj{fill:url(#aj);}.ak{fill:url(#ak);}.al{fill:url(#al);}.am{fill:url(#am);}.an{fill:url(#an);}.ao{fill:url(#ao);}.ap{fill:url(#ap);}.aq{fill:url(#aq);}.ar{fill:url(#ar);}.as{fill:url(#as);}.at{fill:url(#at);}.au{fill:url(#au);}.av{fill:url(#av);}.aw{fill:url(#aw);}.ax{fill:url(#ax);}.ay{fill:url(#ay);}.az{fill:url(#az);}.ba{fill:url(#ba);}.bb{fill:url(#bb);}.bc{fill:url(#bc);}.bd{fill:url(#bd);}.be{fill:url(#be);}.bf{fill:url(#bf);}.bg{fill:url(#bg);}.bh{fill:url(#bh);}.bi{fill:url(#bi);}.bj{fill:url(#bj);}.bk{fill:url(#bk);}.bl{fill:url(#bl);}.bm{fill:url(#bm);}.bn{fill:url(#bn);}.bo{fill:url(#bo);}.bp{fill:url(#bp);}.bq{fill:url(#bq);}.br{fill:url(#br);}.bs{fill:url(#bs);}.bt{fill:url(#bt);}.bu{fill:url(#bu);}.bv{fill:url(#bv);}.bw{fill:url(#bw);}.bx{fill:url(#bx);}.by{fill:url(#by);}.bz{fill:url(#bz);}.ca{fill:url(#ca);}.cb{fill:url(#cb);}.cc{fill:url(#cc);}.cd{fill:url(#cd);}.ce{fill:url(#ce);}.cf{fill:url(#cf);}.cg{fill:url(#cg);}.ch{fill:url(#ch);}.ci{fill:url(#ci);}.cj{fill:url(#cj);}.ck{fill:url(#ck);}.cl{fill:url(#cl);}.cm{fill:url(#cm);}.cn{fill:url(#cn);}.co{fill:url(#co);}.cp{fill:url(#cp);}.cq{fill:url(#cq);}.cr{fill:url(#cr);}.cs{fill:url(#cs);}.ct{fill:url(#ct);}.cu{fill:url(#cu);}.cv{fill:url(#cv);}.cw{fill:url(#cw);}.cx{fill:url(#cx);}.cy{fill:url(#cy);}.cz{fill:url(#cz);}.da{fill:url(#da);}.db{fill:url(#db);}.dc{fill:url(#dc);}.dd{fill:url(#dd);}.de{fill:url(#de);}.df{fill:url(#df);}.dg{fill:url(#dg);}.dh{fill:url(#dh);}.di{fill:url(#di);}.dj{fill:url(#dj);}.dk{fill:url(#dk);}.dl{fill:url(#dl);}.dm{fill:url(#dm);}.dn{fill:url(#dn);}.do{fill:url(#do);}.dp{fill:url(#dp);}.dq{fill:url(#dq);}.dr{fill:url(#dr);}.ds{fill:url(#ds);}.dt{fill:url(#dt);}.du{fill:url(#du);}.dv{fill:url(#dv);}.dw{fill:url(#dw);}.dx{fill:url(#dx);}.dy{fill:url(#dy);}.dz{fill:url(#dz);}.ea{fill:url(#ea);}.eb{fill:url(#eb);}.ec{fill:url(#ec);}.ed{fill:url(#ed);}.ee{fill:url(#ee);}
    </style>
    <linearGradient id="a" x1="283.72" y1="2.35" x2="283.72" y2="392.29" gradientUnits="userSpaceOnUse">
      <stop offset="0" stop-color="#f0ab00"/>
      <stop offset="1" stop-color="#997014"/>
       <animate attributeName="stop-color" from="#f0ab00" to="#997014" dur="700" repeatCount="indefinite" />
    </linearGradient>
    <linearGradient id="b" x1="240.14" y1="2.35" x2="240.14" y2="392.29" xlink:href="#a"/>
    <linearGradient id="c" x1="223.06" y1="2.35" x2="223.06" y2="392.29" xlink:href="#a"/>
    <linearGradient id="d" x1="264.53" y1="189.79" x2="264.53" y2="189.79" xlink:href="#a"/>
    <linearGradient id="e" x1="289.85" y1="2.35" x2="289.85" y2="392.29" xlink:href="#a"/>
    <linearGradient id="f" x1="339.47" y1="2.35" x2="339.47" y2="392.29" xlink:href="#a"/>
    <linearGradient id="g" x1="339.33" y1="2.35" x2="339.33" y2="392.29" xlink:href="#a"/>
    <linearGradient id="h" x1="339.61" y1="2.35" x2="339.61" y2="392.29" xlink:href="#a"/>
    <linearGradient id="i" x1="339.75" y1="2.35" x2="339.75" y2="392.29" xlink:href="#a"/>
    <linearGradient id="j" x1="279.23" y1="2.35" x2="279.23" y2="392.29" xlink:href="#a"/>
    <linearGradient id="k" x1="215.35" y1="2.35" x2="215.35" y2="392.29" xlink:href="#a"/>
    <linearGradient id="l" x1="245.38" y1="2.35" x2="245.38" y2="392.29" xlink:href="#a"/>
    <linearGradient id="m" x1="246.61" y1="2.35" x2="246.61" y2="392.29" xlink:href="#a"/>
    <linearGradient id="n" x1="107.18" y1="2.35" x2="107.18" y2="392.32" xlink:href="#a"/>
    <linearGradient id="o" x1="64.78" y1="2.35" x2="64.78" y2="392.29" xlink:href="#a"/>
    <linearGradient id="p" x1="242.26" y1="2.35" x2="242.26" y2="392.29" xlink:href="#a"/>
    <linearGradient id="q" x1="224.61" y1="2.35" x2="224.61" y2="392.29" xlink:href="#a"/>
    <linearGradient id="r" x1="267" y1="2.35" x2="267" y2="392.29" xlink:href="#a"/>
    <linearGradient id="s" x1="279.74" y1="2.35" x2="279.74" y2="392.29" xlink:href="#a"/>
    <linearGradient id="t" x1="279.74" y1="2.35" x2="279.74" y2="392.29" xlink:href="#a"/>
    <linearGradient id="u" x1="279.73" y1="2.35" x2="279.73" y2="392.29" xlink:href="#a"/>
    <linearGradient id="v" x1="279.74" y1="2.35" x2="279.74" y2="392.29" xlink:href="#a"/>
    <linearGradient id="w" x1="279.74" y1="2.35" x2="279.74" y2="392.29" xlink:href="#a"/>
    <linearGradient id="x" x1="279.73" y1="2.35" x2="279.73" y2="392.29" xlink:href="#a"/>
    <linearGradient id="y" x1="271.06" y1="216.9" x2="271.06" y2="250.05" xlink:href="#a"/>
    <linearGradient id="z" x1="285.31" y1="2.35" x2="285.31" y2="392.29" xlink:href="#a"/>
    <linearGradient id="aa" x1="226.36" y1="2.35" x2="226.36" y2="392.29" xlink:href="#a"/>
    <linearGradient id="ab" x1="225.7" y1="132.68" x2="225.7" y2="165.82" xlink:href="#a"/>
    <linearGradient id="ac" x1="218.47" y1="2.35" x2="218.47" y2="392.29" xlink:href="#a"/>
    <linearGradient id="ad" x1="85.76" y1="2.35" x2="85.76" y2="392.29" xlink:href="#a"/>
    <linearGradient id="ae" x1="78.28" y1="2.35" x2="78.28" y2="392.29" xlink:href="#a"/>
    <linearGradient id="af" x1="77.61" y1="2.35" x2="77.61" y2="381.81" xlink:href="#a"/>
    <linearGradient id="ag" x1="77.45" y1="2.35" x2="77.45" y2="160.94" xlink:href="#a"/>
    <linearGradient id="ah" x1="77.75" y1="2.35" x2="77.75" y2="392.29" xlink:href="#a"/>
    <linearGradient id="ai" x1="77.53" y1="2.35" x2="77.53" y2="392.29" xlink:href="#a"/>
    <linearGradient id="aj" x1="78" y1="2.35" x2="78" y2="392.29" xlink:href="#a"/>
    <linearGradient id="ak" x1="78.21" y1="2.35" x2="78.21" y2="392.29" xlink:href="#a"/>
    <linearGradient id="al" x1="78.15" y1="2.35" x2="78.15" y2="392.29" xlink:href="#a"/>
    <linearGradient id="am" x1="139.33" y1="2.35" x2="139.33" y2="392.29" xlink:href="#a"/>
    <linearGradient id="an" x1="310.18" y1="2.35" x2="310.18" y2="392.29" xlink:href="#a"/>
    <linearGradient id="ao" x1="298" y1="2.35" x2="298" y2="190.96" xlink:href="#a"/>
    <linearGradient id="ap" x1="301.39" y1="2.35" x2="301.39" y2="392.29" xlink:href="#a"/>
    <linearGradient id="aq" x1="258.93" y1="2.35" x2="258.93" y2="392.29" xlink:href="#a"/>
    <linearGradient id="ar" x1="52.56" y1="2.35" x2="52.56" y2="392.29" xlink:href="#a"/>
    <linearGradient id="as" x1="107.43" y1="2.35" x2="107.43" y2="392.29" xlink:href="#a"/>
    <linearGradient id="at" x1="129.16" y1="2.35" x2="129.16" y2="392.29" xlink:href="#a"/>
    <linearGradient id="au" x1="129.92" y1="2.35" x2="129.92" y2="392.29" xlink:href="#a"/>
    <linearGradient id="av" x1="128.88" y1="2.35" x2="128.88" y2="392.29" xlink:href="#a"/>
    <linearGradient id="aw" x1="129.61" y1="2.35" x2="129.61" y2="392.29" xlink:href="#a"/>
    <linearGradient id="ax" x1="128.79" y1="2.35" x2="128.79" y2="316.02" xlink:href="#a"/>
    <linearGradient id="ay" x1="153.81" y1="2.35" x2="153.81" y2="392.29" xlink:href="#a"/>
    <linearGradient id="az" x1="156.54" y1="2.35" x2="156.54" y2="392.29" xlink:href="#a"/>
    <linearGradient id="ba" x1="163.55" y1="154.03" x2="163.55" y2="198.61" xlink:href="#a"/>
    <linearGradient id="bb" x1="141.93" y1="2.35" x2="141.93" y2="392.29" xlink:href="#a"/>
    <linearGradient id="bc" x1="142.47" y1="2.35" x2="142.47" y2="392.29" xlink:href="#a"/>
    <linearGradient id="bd" x1="125.89" y1="2.35" x2="125.89" y2="392.29" xlink:href="#a"/>
    <linearGradient id="be" x1="125.89" y1="2.35" x2="125.89" y2="392.29" xlink:href="#a"/>
    <linearGradient id="bf" x1="125.87" y1="2.35" x2="125.87" y2="392.29" xlink:href="#a"/>
    <linearGradient id="bg" x1="125.88" y1="2.35" x2="125.88" y2="392.29" xlink:href="#a"/>
    <linearGradient id="bh" x1="125.88" y1="2.35" x2="125.88" y2="392.29" xlink:href="#a"/>
    <linearGradient id="bi" x1="125.88" y1="2.35" x2="125.88" y2="392.29" xlink:href="#a"/>
    <linearGradient id="bj" x1="174.07" y1="2.35" x2="174.07" y2="392.29" xlink:href="#a"/>
    <linearGradient id="bk" x1="174.19" y1="2.35" x2="174.19" y2="136.93" xlink:href="#a"/>
    <linearGradient id="bl" x1="173.34" y1="2.35" x2="173.34" y2="115.87" xlink:href="#a"/>
    <linearGradient id="bm" x1="274.98" y1="2.35" x2="274.98" y2="392.29" xlink:href="#a"/>
    <linearGradient id="bn" x1="281.9" y1="95.37" x2="281.9" y2="117.09" xlink:href="#a"/>
    <linearGradient id="bo" x1="275.1" y1="2.35" x2="275.1" y2="136.08" xlink:href="#a"/>
    <linearGradient id="bp" x1="274.25" y1="2.35" x2="274.25" y2="103.24" xlink:href="#a"/>
    <linearGradient id="bq" x1="36.09" y1="2.35" x2="36.09" y2="392.29" xlink:href="#a"/>
    <linearGradient id="br" x1="35.78" y1="2.35" x2="35.78" y2="392.29" xlink:href="#a"/>
    <linearGradient id="bs" x1="43.01" y1="127.42" x2="43.01" y2="138.85" xlink:href="#a"/>
    <linearGradient id="bt" x1="89.56" y1="2.35" x2="89.56" y2="392.29" xlink:href="#a"/>
    <linearGradient id="bu" x1="91.4" y1="2.35" x2="91.4" y2="392.29" xlink:href="#a"/>
    <linearGradient id="bv" x1="103.29" y1="2.35" x2="103.29" y2="392.29" xlink:href="#a"/>
    <linearGradient id="bw" x1="135.51" y1="2.35" x2="135.51" y2="392.29" xlink:href="#a"/>
    <linearGradient id="bx" x1="75.26" y1="2.35" x2="75.26" y2="392.29" xlink:href="#a"/>
    <linearGradient id="by" x1="97.4" y1="2.35" x2="97.4" y2="392.29" xlink:href="#a"/>
    <linearGradient id="bz" x1="93.36" y1="2.35" x2="93.36" y2="392.29" xlink:href="#a"/>
    <linearGradient id="ca" x1="93.72" y1="2.35" x2="93.72" y2="187.46" xlink:href="#a"/>
    <linearGradient id="cb" x1="136.26" y1="2.35" x2="136.26" y2="392.29" xlink:href="#a"/>
    <linearGradient id="cc" x1="242.77" y1="2.35" x2="242.77" y2="392.29" xlink:href="#a"/>
    <linearGradient id="cd" x1="167.36" y1="2.35" x2="167.36" y2="392.29" xlink:href="#a"/>
    <linearGradient id="ce" x1="215.23" y1="129.18" x2="215.23" y2="254.34" xlink:href="#a"/>
    <linearGradient id="cf" x1="215.02" y1="2.35" x2="215.02" y2="392.29" xlink:href="#a"/>
    <linearGradient id="cg" x1="214.37" y1="2.35" x2="214.37" y2="392.29" xlink:href="#a"/>
    <linearGradient id="ch" x1="214.52" y1="2.35" x2="214.52" y2="392.29" xlink:href="#a"/>
    <linearGradient id="ci" x1="215.17" y1="2.35" x2="215.17" y2="392.29" xlink:href="#a"/>
    <linearGradient id="cj" x1="214.32" y1="2.35" x2="214.32" y2="140.4" xlink:href="#a"/>
    <linearGradient id="ck" x1="277.87" y1="2.35" x2="277.87" y2="392.29" xlink:href="#a"/>
    <linearGradient id="cl" x1="278.35" y1="2.35" x2="278.35" y2="392.29" xlink:href="#a"/>
    <linearGradient id="cm" x1="277.62" y1="2.35" x2="277.62" y2="392.29" xlink:href="#a"/>
    <linearGradient id="cn" x1="218.77" y1="2.35" x2="218.77" y2="392.29" xlink:href="#a"/>
    <linearGradient id="co" x1="109.44" y1="2.35" x2="109.44" y2="392.29" xlink:href="#a"/>
    <linearGradient id="cp" x1="143.57" y1="2.35" x2="143.57" y2="392.29" xlink:href="#a"/>
    <linearGradient id="cq" x1="46.56" y1="2.35" x2="46.56" y2="392.29" xlink:href="#a"/>
    <linearGradient id="cr" x1="48.12" y1="2.35" x2="48.12" y2="392.29" xlink:href="#a"/>
    <linearGradient id="cs" x1="41.84" y1="99.81" x2="41.84" y2="121.53" xlink:href="#a"/>
    <linearGradient id="ct" x1="349.88" y1="2.35" x2="349.88" y2="392.29" xlink:href="#a"/>
    <linearGradient id="cu" x1="33.1" y1="2.35" x2="33.1" y2="392.29" xlink:href="#a"/>
    <linearGradient id="cv" x1="69.23" y1="2.35" x2="69.23" y2="392.29" xlink:href="#a"/>
    <linearGradient id="cw" x1="69.35" y1="2.35" x2="69.35" y2="392.29" xlink:href="#a"/>
    <linearGradient id="cx" x1="57.8" y1="2.35" x2="57.8" y2="392.29" xlink:href="#a"/>
    <linearGradient id="cy" x1="61.68" y1="2.35" x2="61.68" y2="68.64" xlink:href="#a"/>
    <linearGradient id="cz" x1="69.18" y1="2.35" x2="69.18" y2="383.96" xlink:href="#a"/>
    <linearGradient id="da" x1="69.6" y1="2.35" x2="69.6" y2="181.79" xlink:href="#a"/>
    <linearGradient id="db" x1="69.83" y1="2.35" x2="69.83" y2="195.22" xlink:href="#a"/>
    <linearGradient id="dc" x1="69.77" y1="2.35" x2="69.77" y2="392.29" xlink:href="#a"/>
    <linearGradient id="dd" x1="69.67" y1="2.35" x2="69.67" y2="392.29" xlink:href="#a"/>
    <linearGradient id="de" x1="29.19" y1="2.35" x2="29.19" y2="392.29" xlink:href="#a"/>
    <linearGradient id="df" x1="58.86" y1="2.35" x2="58.86" y2="392.29" xlink:href="#a"/>
    <linearGradient id="dg" x1="28.91" y1="2.35" x2="28.91" y2="392.29" xlink:href="#a"/>
    <linearGradient id="dh" x1="86.21" y1="2.35" x2="86.21" y2="392.29" xlink:href="#a"/>
    <linearGradient id="di" x1="48.3" y1="2.35" x2="48.3" y2="392.29" xlink:href="#a"/>
    <linearGradient id="dj" x1="44.44" y1="2.35" x2="44.44" y2="392.29" xlink:href="#a"/>
    <linearGradient id="dk" x1="53.16" y1="2.35" x2="53.16" y2="392.29" xlink:href="#a"/>
    <linearGradient id="dl" x1="125.78" y1="2.35" x2="125.78" y2="392.29" xlink:href="#a"/>
    <linearGradient id="dm" x1="104.7" y1="2.35" x2="104.7" y2="392.29" xlink:href="#a"/>
    <linearGradient id="dn" x1="133.08" y1="2.35" x2="133.08" y2="392.29" xlink:href="#a"/>
    <linearGradient id="do" x1="132.7" y1="2.35" x2="132.7" y2="392.29" xlink:href="#a"/>
    <linearGradient id="dp" x1="336.36" y1="2.35" x2="336.36" y2="392.29" xlink:href="#a"/>
    <linearGradient id="dq" x1="362.25" y1="2.35" x2="362.25" y2="392.29" xlink:href="#a"/>
    <linearGradient id="dr" x1="366.16" y1="2.35" x2="366.16" y2="392.29" xlink:href="#a"/>
    <linearGradient id="ds" x1="336.49" y1="2.35" x2="336.49" y2="392.29" xlink:href="#a"/>
    <linearGradient id="dt" x1="372.61" y1="2.35" x2="372.61" y2="392.29" xlink:href="#a"/>
    <linearGradient id="du" x1="371.7" y1="2.35" x2="371.7" y2="333.88" xlink:href="#a"/>
    <linearGradient id="dv" x1="372.01" y1="2.35" x2="372.01" y2="392.29" xlink:href="#a"/>
    <linearGradient id="dw" x1="309.14" y1="2.35" x2="309.14" y2="392.29" xlink:href="#a"/>
    <linearGradient id="dx" x1="347.05" y1="2.35" x2="347.05" y2="392.29" xlink:href="#a"/>
    <linearGradient id="dy" x1="350.91" y1="2.35" x2="350.91" y2="392.29" xlink:href="#a"/>
    <linearGradient id="dz" x1="342.19" y1="2.35" x2="342.19" y2="392.29" xlink:href="#a"/>
    <linearGradient id="ea" x1="269.57" y1="2.35" x2="269.57" y2="392.29" xlink:href="#a"/>
    <linearGradient id="eb" x1="290.65" y1="2.35" x2="290.65" y2="392.29" xlink:href="#a"/>
    <linearGradient id="ec" x1="258.91" y1="2.35" x2="258.91" y2="392.29" xlink:href="#a"/>
    <linearGradient id="ed" x1="262.66" y1="2.35" x2="262.66" y2="392.29" xlink:href="#a"/>
    <linearGradient id="ee" x1="216.73" y1="2.35" x2="216.73" y2="392.29" xlink:href="#a"/>
  </defs>
  <title>
    Asset 1
  </title>
  <path  class="path a" d="M257 283.55v-4.33l-21.25-.11v-42.56l17.15-23.41v-43.23l11.24-12.41h16.41l6.5-11h10.74l4.3-5.23a4.65 4.65 0 0 0 5.57-1.09 3.64 3.64 0 0 0-.92-5.45 4.66 4.66 0 0 0-6.07.82 3.61 3.61 0 0 0 .49 5.1l-3.95 4.81h-3.39v-12.41l21-13.15h14.19v-18.2a4.06 4.06 0 0 0 3.76-3.85 4.37 4.37 0 0 0-8.68 0 4.05 4.05 0 0 0 3.76 3.85v17.17h-13.4l-7.14 4.47v-17.17h7.86V92.09a4.05 4.05 0 0 0 3.83-3.85 4.37 4.37 0 0 0-8.68 0 4.06 4.06 0 0 0 3.76 3.85v13h-7.88v18.93l-13.5 8.45v13h-6.31l-6.51 11h-16.26l-11.85 13.07v43.28l-17.06 23.28-.1.13v43.91l21.25.11v3.29a4.05 4.05 0 0 0-3.76 3.85 4.36 4.36 0 0 0 8.68 0 4.05 4.05 0 0 0-3.78-3.84z"/>
  <path  class="path b" d="M197.39 479.51V255.09l35-16.89v-61l18.91-23.32h26.33l6.37-12.47v-5.49a4.06 4.06 0 0 0 3.78-3.85 4.36 4.36 0 0 0-8.68 0 4.05 4.05 0 0 0 3.76 3.84v5.16l-6 11.77h-26.14l-19.37 23.88-.11.14v60.72l-35 16.89v225a4.06 4.06 0 0 0-3.76 3.85 4.36 4.36 0 0 0 8.68 0 4.05 4.05 0 0 0-3.77-3.81z"/>
  <path  class="path c" d="M242.1 284.47a4.66 4.66 0 0 0-5.6.93l-4.92-2.64v-38.29l-25.91 11v224.04a4.06 4.06 0 0 0-3.77 3.85 4.36 4.36 0 0 0 8.68 0 4.06 4.06 0 0 0-3.76-3.85V256.1l23.61-10v37.24l5.48 2.94a3.69 3.69 0 0 0 1.74 4.87 4.63 4.63 0 0 0 6-1.34 3.69 3.69 0 0 0-1.55-5.34z"/>
  <path  class="path e" d="M336.83 215a5.13 5.13 0 0 0-6.41 2.44 4.21 4.21 0 0 0 2.19 5.5l-9.49 21.09h-30.18l3.51-4.49h15.06l3.85-9.07a4.45 4.45 0 0 0 5-2.39 3.79 3.79 0 0 0-2.51-5 4.5 4.5 0 0 0-5.6 2.25 3.72 3.72 0 0 0 2 4.8l-3.57 8.4h-14.86l-20.6 26.38-9.17-.06-13 11.92H241v-38.56l16.53-23.33v-24.06l1.25-.79a5.32 5.32 0 0 0 6.47.61 4.14 4.14 0 0 0 1.11-6.17 5.28 5.28 0 0 0-6.86-1c.55-.36 1.1-.71 0 0a4.13 4.13 0 0 0-1.4 5.72l-1.73 1.1v24.29l-16.57 23.33v39.89h13.79l13-11.91 9.28.06 16.69-21.36v.5h31.34l9.78-21.73a5.07 5.07 0 0 0 5.86-2.58 4.28 4.28 0 0 0-2.71-5.78zm-76.7-30.72a4.05 4.05 0 0 1 5.25.77 3.17 3.17 0 0 1-.85 4.72c-.85.54-.43.27 0 0a4 4 0 0 1-5.25-.77 3.17 3.17 0 0 1 .85-4.69zm71.58 33.06zm6.76 3a3.92 3.92 0 0 1-4.9 1.86 3.27 3.27 0 0 1-2.08-4.4 3.93 3.93 0 0 1 4.9-1.86 3.27 3.27 0 0 1 2.08 4.45z"/>
  <path  class="path f" d="M339.54 220.78l-.14.3z"/>
  <path  class="path h" d="M339.67 220.48l-.13.3z"/>
  <path  class="path i" d="M339.67 220.48c.25-.56.16-.36 0 0z"/>
  <path  class="path j" d="M304.16 77.31c.38-1.17.19-.59 0 0a4.37 4.37 0 0 0-3.35-5.47 5 5 0 0 0-6.09 3 4.3 4.3 0 0 0 2.77 5.26l-10.42 32.42h-15.6L260.27 128a4.61 4.61 0 0 0-5.49 1.38 3.67 3.67 0 0 0 1.27 5.4 4.65 4.65 0 0 0 6-1.15 3.61 3.61 0 0 0-.82-5.07l10.85-15h15.83l10.66-33.16a5 5 0 0 0 5.57-3.1c-.14.59-.36 1.18.02.01zm-8.48-1.75zm7.37 1.44a3.85 3.85 0 0 1-4.66 2.3 3.35 3.35 0 0 1-2.57-4.19l-.06.2.06-.2a3.84 3.84 0 0 1 4.66-2.3 3.34 3.34 0 0 1 2.57 4.19zm-7.16-2.1z"/>
  <path  class="path k" d="M215.93 479.51V276.06a4.05 4.05 0 0 0 3.77-3.85 4.36 4.36 0 0 0-8.68 0 4.05 4.05 0 0 0 3.76 3.85v203.45a4.05 4.05 0 0 0-3.76 3.85 4.36 4.36 0 0 0 8.68 0 4.06 4.06 0 0 0-3.77-3.85z"/>
  <path  class="path l" d="M247.2 126.18a4.2 4.2 0 0 0-4.28 3.38h-31.2v22.62l16.37 21.18 20.63-24.45h22.65l3.85-8.7v-13.08a4.05 4.05 0 0 0 3.77-3.84 4.36 4.36 0 0 0-8.68 0 4.05 4.05 0 0 0 3.76 3.84v12.79l-3.52 7.95h-22.4l-20 23.73-15.25-19.74V130.6h30a4.2 4.2 0 0 0 4.3 3.4 3.92 3.92 0 1 0 0-7.8z"/>
  <path  class="path m" d="M257.6 141.44a4.2 4.2 0 0 0 4.28 3.38 3.92 3.92 0 1 0 0-7.8 4.19 4.19 0 0 0-4.28 3.38h-12.07l-12.16 15.22a4.64 4.64 0 0 0-5.55 1.16 3.65 3.65 0 0 0 1 5.44 4.66 4.66 0 0 0 6.05-.89 3.61 3.61 0 0 0-.56-5.1l11.81-14.79z"/>
  <path  class="path n" d="M97.82 88.29a4.19 4.19 0 0 0-4.28-3.38 3.92 3.92 0 1 0 0 7.8 4.19 4.19 0 0 0 4.28-3.38H110l10.2-32.22a4.36 4.36 0 0 0 4.8-2.78 3.86 3.86 0 0 0-3-4.81 4.42 4.42 0 0 0-5.36 2.69 3.79 3.79 0 0 0 2.45 4.62l-9.93 31.46z"/>
  <path  class="path o" d="M75.77 144.67a4.2 4.2 0 0 0 4.23 3.38 3.92 3.92 0 1 0 0-7.8 4.2 4.2 0 0 0-4.28 3.38H63.7l-12.16 15.23A4.64 4.64 0 0 0 46 160a3.65 3.65 0 0 0 1 5.44 4.67 4.67 0 0 0 6.06-.9 3.61 3.61 0 0 0-.56-5.09l11.81-14.79z"/>
  <path  class="path p" d="M234.33 184.38v43.17l12.1-15.7V200.5a4.05 4.05 0 0 0 3.76-3.85 4.37 4.37 0 0 0-8.68 0 4.06 4.06 0 0 0 3.76 3.85v11l-9.79 12.7v-39.56l2-2.5a5.27 5.27 0 0 0 6.38-1.22 4.13 4.13 0 0 0-1.07-6.17 5.29 5.29 0 0 0-6.87 1c.4-.49.8-1 0 0s-.4.49 0 0a4.09 4.09 0 0 0 .63 5.81l-2.13 2.64zm2.54-8.06a4 4 0 0 1 5.26-.74 3.16 3.16 0 0 1 .82 4.72 4 4 0 0 1-5.26.73 3.16 3.16 0 0 1-.81-4.71z"/>
  <path  class="path q" d="M224.61 264.67a4.69 4.69 0 0 0-4.92 4.42 4.61 4.61 0 0 0 4.34 4.36v206.07a4.05 4.05 0 0 0-3.76 3.84 4.36 4.36 0 0 0 8.68 0 4.05 4.05 0 0 0-3.76-3.84V273.45a4.61 4.61 0 0 0 4.34-4.36 4.69 4.69 0 0 0-4.92-4.42zm0 7.8a3.4 3.4 0 1 1 3.77-3.38 3.59 3.59 0 0 1-3.77 3.37z"/>
  <path  class="path r" d="M282.44 202.82a4.63 4.63 0 0 0 5.52-1.27 3.66 3.66 0 0 0-1.13-5.42 4.66 4.66 0 0 0-6 1 3.61 3.61 0 0 0 .69 5.08l-10.81 14.18h-8.17l-17.24 25.48v31.53h5.64l13.34-10.86-.28-19.23h11.28l.12-5.43a4.63 4.63 0 0 0 4.35-4.31 4.95 4.95 0 0 0-9.84-.11 4.61 4.61 0 0 0 4.33 4.42l-.11 4.4h-11.31l.28 19.82-12.63 10.28h-4v-30.2l16.73-24.73h8.13zm-11.38 30.66c0 .46 0 .93 0 0s0-.47 0 0a3.79 3.79 0 1 1 3.72 3.42 3.6 3.6 0 0 1-3.72-3.43z"/>
  <path  class="path s" d="M279.74 233.57v.29c-.01-.08 0-.17 0-.29z"/>
  <path  class="path t" d="M279.74 233c0-.16 0-.2 0 0z"/>
  <path  class="path u" d="M279.73 234.13c0 .16 0 .2 0 0z"/>
  <path  class="path v" d="M279.74 233.28v-.27.27z"/>
  <path  class="path w" d="M279.74 233.57z"/>
  <path  class="path x" d="M279.73 233.86v0z"/>
  <path  class="path y" d="M271.06 233.48v-.01.01"/>
  <path  class="path z" d="M283.08 246.69l.07-16.78a4.06 4.06 0 0 0 3.78-3.83 4.37 4.37 0 0 0-8.68 0 4.05 4.05 0 0 0 3.75 3.85l-.06 15.75h-14.3v16.93h6.67l20.36-27.16a4.37 4.37 0 0 0 4 2.39 3.92 3.92 0 1 0-4.34-3.9.81.81 0 0 0 0 .09l-20.65 27.54h-4.91v-14.88z"/>
  <path  class="path aa" d="M225.29 154.8a4.15 4.15 0 0 0 1.37-6.13 5.24 5.24 0 0 0-6.28-1.48l-1.72-2.27v-7.86h7.91a4.2 4.2 0 0 0 4.28 3.38 3.92 3.92 0 1 0 0-7.8 4.2 4.2 0 0 0-4.28 3.38h-9.07v9.21l1.9 2.52a4.1 4.1 0 0 0-.94 5.81 5.27 5.27 0 0 0 6.83 1.24zm-4.8-6.49a4 4 0 0 1 5.21.94c-.29-.39-.57-.77 0 0l.32.43-.32-.43a3.17 3.17 0 0 1-1.05 4.68 4 4 0 0 1-5.22-.94 3.18 3.18 0 0 1 1.05-4.68z"/>
  <path  class="path ab" d="M225.7 149.25"/>
  <path  class="path ad" d="M94.6 109.22a4.13 4.13 0 0 0-4.34-3.9A4.2 4.2 0 0 0 86 108.7h-9.09v9.21l1.86 2.56a4.1 4.1 0 0 0-.9 5.78 5.27 5.27 0 0 0 6.82 1.23 4.16 4.16 0 0 0 1.37-6.12 5.24 5.24 0 0 0-6.33-1.46l-1.67-2.29v-7.86H86a4.2 4.2 0 0 0 4.28 3.38 4.14 4.14 0 0 0 4.32-3.91zm-9.5 12.71a3.18 3.18 0 0 1-1.05 4.69 4 4 0 0 1-5.22-.94 3.18 3.18 0 0 1 1-4.69 4 4 0 0 1 5.28.94z"/>
  <path  class="path af" d="M77.63 125.9z"/>
  <path  class="path ah" d="M77.88 126.24l-.25-.34z"/>
  <path  class="path ai" d="M77.59 125.86l-.13-.17z"/>
  <path  class="path aj" d="M77.88 126.24l.25.34z"/>
  <path  class="path ak" d="M78.17 126.64l.09.12z"/>
  <path  class="path al" d="M78.13 126.59z"/>
  <path  class="path am" d="M138.26 108.86a4.16 4.16 0 0 0 1.37-6.12 5.24 5.24 0 0 0-6.32-1.46L131.64 99v-7.88h7.91a4.2 4.2 0 0 0 4.29 3.38 3.92 3.92 0 1 0 0-7.8 4.2 4.2 0 0 0-4.29 3.38h-9.06v9.21l1.87 2.55a4.1 4.1 0 0 0-.91 5.78c.75 1 .38.51 0 0a5.27 5.27 0 0 0 6.81 1.24zm-4.81-6.49a4 4 0 0 1 5.21.94 3.18 3.18 0 0 1-1 4.69 4 4 0 0 1-5.22-.95 3.18 3.18 0 0 1 1.02-4.68z"/>
  <path  class="path an" d="M309.28 169l8.21-15.17h13.06l12.79-29h4.26a4.2 4.2 0 0 0 4.28 3.38 3.92 3.92 0 1 0 0-7.8 4.2 4.2 0 0 0-4.28 3.38h-5l-12.8 28.95h-13L308.58 168l-6.25-.39-4 6.31 4.44 4.77-6.38 11.58h-17.61l-7.62 10.46a5.23 5.23 0 0 0-6.28 1.52 4.15 4.15 0 0 0 1.42 6.11 5.26 5.26 0 0 0 6.8-1.28c-.37.51-.74 1 0 0a4.11 4.11 0 0 0-1-5.79l7.28-10h17.7l7-12.76-4.41-4.74 3.21-5.11zm-37.1 37.41a4 4 0 0 1-5.21 1 3.18 3.18 0 0 1-1.09-4.67 4 4 0 0 1 5.21-1 3.18 3.18 0 0 1 1.09 4.72z"/>
  <path  class="path ap" d="M342.12 107.08a4.53 4.53 0 0 0-5.67 2.1 3.7 3.7 0 0 0 1.83 4.85l-10.19 22-12 .59-10.53 13.08-15.1-.25L283 161.7h-17l-8 10.79 12.72 14.78h16.48l13.8-23.51a5.16 5.16 0 0 0 6-2.07 4.2 4.2 0 0 0-2.06-6 5.21 5.21 0 0 0-6.64 1.85l-.35.59.35-.59a4.15 4.15 0 0 0 1.63 5.71l-13.5 22.94h-15.16l-11.86-13.79 7.24-9.71h17l7.43-12.23 4.26.07-8.21 15.5h-18.72l-3.56 6.43 7.42 9.69h10.67l1-1.59a4.56 4.56 0 0 0 5.35-1.75 3.71 3.71 0 0 0-1.73-5.29 4.6 4.6 0 0 0-5.89 1.55 3.64 3.64 0 0 0 1.25 5l-.64 1h-9.38l-6.69-8.74 2.94-5.31h18.78l8.75-16.51 9.48.16 10.56-13.12 12.18-.6 10.47-22.62a4.48 4.48 0 0 0 5.12-2.25 3.77 3.77 0 0 0-2.37-5zm-42.74 51a4 4 0 0 1 5.08-1.41 3.22 3.22 0 0 1 1.58 4.56 4 4 0 0 1-5.08 1.42 3.22 3.22 0 0 1-1.58-4.58z"/>
  <path  class="path aq" d="M262.64 230.28a4.56 4.56 0 0 0 5.36-1.71 3.69 3.69 0 0 0-1.66-5.3 4.61 4.61 0 0 0-5.91 1.49 3.64 3.64 0 0 0 1.19 5l-7.9 12.64-.07.15v10.72a4.61 4.61 0 0 0-4.34 4.36 4.95 4.95 0 0 0 9.83 0 4.61 4.61 0 0 0-4.34-4.36V242.9zM258 257.65a3.78 3.78 0 1 1-3.76-3.38 3.59 3.59 0 0 1 3.76 3.38z"/>
  <path  class="path ar" d="M68.74 192.08A4.75 4.75 0 0 0 73.6 196a4.44 4.44 0 1 0 0-8.83 4.75 4.75 0 0 0-4.86 3.9H37.82l-3.65-3.82a3.59 3.59 0 0 0 .06-5.12 4.69 4.69 0 0 0-6.12-.42 3.63 3.63 0 0 0-.46 5.5 4.68 4.68 0 0 0 5.64.72l4 4.18zm4.86-3.9a3.4 3.4 0 1 1-3.76 3.38 3.59 3.59 0 0 1 3.76-3.38z"/>
  <path  class="path as" d="M138.26 196.88l-1.66-1.2a4.14 4.14 0 0 0-1.46-5.63 5.3 5.3 0 0 0-6.87 1 4.14 4.14 0 0 0 1.12 6.16 5.31 5.31 0 0 0 6.54-.68l1.18.86v24.07l16.53 23.33v38.55h-12.16l-13-11.92-9.16.06-20.58-26.37h-15l-9.61-11.71H65v-7.59a4.06 4.06 0 0 0 3.76-3.81 4.36 4.36 0 0 0-8.68 0 4.06 4.06 0 0 0 3.76 3.85v8.62h9.71l9.63 11.66 15 .05 20.61 26.39 9.28-.06 13 11.91h13.79V244.5l-16.53-23.33zm-8.2-.5a3.16 3.16 0 0 1-.86-4.72 4.05 4.05 0 0 1 5.25-.77 3.17 3.17 0 0 1 .85 4.72 4 4 0 0 1-5.24.77z"/>
  <path  class="path at" d="M129.39 197.23l-.46-.29z"/>
  <path  class="path av" d="M128.93 196.93l-.11-.08z"/>
  <path  class="path aw" d="M129.39 197.23l.45.29z"/>
  <path  class="path ay" d="M142.83 140.4a4.2 4.2 0 0 0-4.28-3.38 3.92 3.92 0 1 0 0 7.8 4.2 4.2 0 0 0 4.28-3.38h11.48l11.81 14.79a3.6 3.6 0 0 0-.56 5.1 4.67 4.67 0 0 0 6.06.89 3.65 3.65 0 0 0 1-5.44 4.65 4.65 0 0 0-5.56-1.16L154.9 140.4z"/>
  <path  class="path ba" d="M163.55 176.32z"/>
  <path  class="path bb" d="M184.86 478.47l.06-233.69 3.79-2.4v-65.05a4.05 4.05 0 0 0 3.76-3.85 4.36 4.36 0 0 0-8.68 0 4.05 4.05 0 0 0 3.76 3.85v26l-18 9.51v35.29l13.22-9.13v-9.08a4.06 4.06 0 0 0 3.77-3.83 4.36 4.36 0 0 0-8.68 0 4.05 4.05 0 0 0 3.75 3.86v8.57l-10.94 7.57v-32.63l16.88-8.9v37.28l-25.33 16.1v-19.43L147 212.83v-43.28l-10.23-13.07h-16.23l-6.5-11h-10.81l-4.94-8.13a3.64 3.64 0 0 0 1.25-5 4.6 4.6 0 0 0-5.89-1.55 3.7 3.7 0 0 0-1.73 5.29 4.56 4.56 0 0 0 5.36 1.75l5.27 8.67h10.8l6.5 11h16.41l9.63 12.41v43.22l15.19 25.68v30.65l-3.13 3.93v6.88l3.13 4.1v195.13a4.05 4.05 0 0 0-3.77 3.84 4.36 4.36 0 0 0 8.68 0 4.05 4.05 0 0 0-3.75-3.84V283.82l-3.13-4.1v-5.91l3.13-3.93v-10.75.05l10.08-6.41v226.72a4.06 4.06 0 0 0-3.76 3.85 4.36 4.36 0 0 0 8.68 0 4.05 4.05 0 0 0-3.76-3.85V252l10.26-6.52-.06 233a4.61 4.61 0 0 0-4.34 4.36 4.94 4.94 0 0 0 9.83 0 4.61 4.61 0 0 0-4.31-4.37zm-.58 7.74a3.4 3.4 0 1 1 3.76-3.38 3.59 3.59 0 0 1-3.76 3.39z"/>
  <path  class="path bc" d="M162.51 27.34a4.61 4.61 0 0 0 4.34 4.36v97.85h-6.34V76.91a4.06 4.06 0 0 0 3.76-3.85 4.36 4.36 0 0 0-8.68 0 4.05 4.05 0 0 0 3.77 3.85v52.65h-1.85a4.19 4.19 0 0 0-4.28-3.38 3.92 3.92 0 1 0 0 7.8 4.19 4.19 0 0 0 4.28-3.38h30v21.25l-15.21 19.74-20-23.73h-22.47l-3.52-7.95V87.28h10.58l16.42-21.85a4.64 4.64 0 0 0 5.52-1.3 3.66 3.66 0 0 0-1.17-5.41 4.65 4.65 0 0 0-6 1 3.6 3.6 0 0 0 .72 5.08l-2.08 2.76V43a4.61 4.61 0 0 0 4.34-4.36 4.95 4.95 0 0 0-9.84 0 4.61 4.61 0 0 0 4.33 4.36v25.92h.17l-3 4-14.68-13V44.56A4.61 4.61 0 0 0 136 40.2a4.94 4.94 0 0 0-9.83 0 4.61 4.61 0 0 0 4.34 4.36v15.79l15.18 13.41-9.39 12.49h-10V68.59a4.05 4.05 0 0 0 3.76-3.84 4.37 4.37 0 0 0-8.68 0 4.05 4.05 0 0 0 3.77 3.84V78l-8.54 16.11H97.85l-3.56 6.44 7.42 9.69h10.67l1-1.59a4.56 4.56 0 0 0 5.35-1.76 3.7 3.7 0 0 0-1.73-5.29 4.6 4.6 0 0 0-5.89 1.55 3.64 3.64 0 0 0 1.24 5l-.64 1.05h-9.38l-6.69-8.73 2.94-5.32h18.78l7.81-14.74V140l3.83 8.9h22.66l20.63 24.45 16.37-21.18v-22.61H174.2V126l.23.25 8.94-6.62a4.7 4.7 0 0 0 5.7.16 3.63 3.63 0 0 0 .59-5.49 4.69 4.69 0 0 0-6.11-.53 3.63 3.63 0 0 0-.91 5.06L174.2 125v-8.33l.39.16 5.71-10.67.08-17.32 4.62-4.17v-8.72l-4.14-1.87V64.9a4.06 4.06 0 0 0 3.77-3.84A4.37 4.37 0 0 0 176 61a4.05 4.05 0 0 0 3.75 3.86v9.82l4.14 1.87v7.66l-4.61 4.23v17.4l-5 9.35V43.53a4.05 4.05 0 0 0 3.72-3.85 4.36 4.36 0 0 0-8.68 0 4.05 4.05 0 0 0 3.68 3.85v86h-5V31.7a4.62 4.62 0 0 0 4.34-4.36 4.95 4.95 0 0 0-9.83 0zm-16.56 11.34a3.78 3.78 0 0 1 7.52 0 3.78 3.78 0 0 1-7.52 0zM127.3 40.2a3.78 3.78 0 0 1 7.52 0 3.78 3.78 0 0 1-7.52 0zm43.89-12.87a3.78 3.78 0 0 1-7.53 0 3.78 3.78 0 0 1 7.53 0z"/>
  <path  class="path be" d="M125.88 240.25v0z"/>
  <path  class="path bf" d="M125.87 239.4c0-.2 0-.16 0 0z"/>
  <path  class="path bg" d="M125.88 239.67v-.27.27z"/>
  <path  class="path bh" d="M125.88 240v0z"/>
  <path  class="path bi" d="M125.88 240v-.29.29z"/>
  <path  class="path bj" d="M182.92 136h-9.06a4.19 4.19 0 0 0-4.28-3.38 3.92 3.92 0 1 0 0 7.8 4.2 4.2 0 0 0 4.28-3.38h7.91v7.86l-1.77 2.26a5.25 5.25 0 0 0-6.23 1.51l.42-.56-.42.56-.42.57.42-.57a4.16 4.16 0 0 0 1.37 6.13 5.28 5.28 0 0 0 6.82-1.23 4.11 4.11 0 0 0-1-5.84l1.95-2.49zM181 153l.23-.31-.23.31a4 4 0 0 1-5.22.94 3.17 3.17 0 0 1-1-4.69 4 4 0 0 1 4.6-1.23l1 .58a3.14 3.14 0 0 1 .62 4.4zm-.23.31z"/>
  <path  class="path bm" d="M283.83 89.26h-9.07a4.2 4.2 0 0 0-4.28-3.38 3.92 3.92 0 1 0 0 7.8 4.2 4.2 0 0 0 4.28-3.38h7.91v7.86l-1.67 2.28a5.25 5.25 0 0 0-6.31 1.47l.42-.56-.42.56-.42.57.42-.57A4.15 4.15 0 0 0 276 108a5.27 5.27 0 0 0 6.82-1.23A4.11 4.11 0 0 0 282 101l1.88-2.55zm-1.92 17c.29-.39.57-.77 0 0a4 4 0 0 1-5.22.94 3.18 3.18 0 0 1-1.05-4.69 4 4 0 0 1 5.22-.94 3.18 3.18 0 0 1 1.04 4.66z"/>
  <path  class="path bn" d="M281.9 106.23"/>
  <path  class="path bq" d="M44.93 116.17h-9.06a4.2 4.2 0 0 0-4.28-3.38 3.92 3.92 0 1 0 0 7.8 4.2 4.2 0 0 0 4.28-3.38h7.91v7.86L42 127.31a5.24 5.24 0 0 0-6.24 1.51 4.15 4.15 0 0 0 1.37 6.12 5.28 5.28 0 0 0 6.87-1.23 4.11 4.11 0 0 0-1-5.83l1.94-2.5zm-1.92 17c.29-.39.57-.77 0 0s-.29.39 0 0a4 4 0 0 1-5.22.94 3.18 3.18 0 0 1-1.05-4.68 4 4 0 0 1 5.22-.95 3.18 3.18 0 0 1 1.04 4.66z"/>
  <path  class="path bs" d="M43.01 133.14"/>
  <path  class="path bt" d="M101.61 54.19H86a4.19 4.19 0 0 0-4.28-3.38 3.92 3.92 0 1 0 0 7.8A4.19 4.19 0 0 0 86 55.22h14.49l.13 11.24-2.73 2a5.33 5.33 0 0 0-6.46-.12 4.11 4.11 0 0 0-.57 6.22 5.31 5.31 0 0 0 6.93.52 4.1 4.1 0 0 0 .87-5.85l3.13-2.3zM97 74.29l.28-.21-.28.21a4.06 4.06 0 0 1-5.3-.39 3.15 3.15 0 0 1 .44-4.77 4.09 4.09 0 0 1 4.82 0l.75.79a3.13 3.13 0 0 1-.71 4.37zm.41-.31zm-.68.52z"/>
  <path  class="path bv" d="M129.22 200.68l-7.61-10.47H104l-6.38-11.58 4.43-4.77-4-6.31-6.25.39-8.19-15.12h-4.73a4.2 4.2 0 0 0-4.28-3.38 3.92 3.92 0 1 0 0 7.8 4.19 4.19 0 0 0 4.28-3.38h4.05L91.15 169l6.3-.4 3.21 5.11-4.41 4.74 7 12.76h17.7l7.27 10a4.1 4.1 0 0 0-1 5.78 5.27 5.27 0 0 0 6.81 1.28 4.15 4.15 0 0 0 1.42-6.11 5.23 5.23 0 0 0-6.23-1.48zm4.24 6.76a4 4 0 0 1-5.21-1 3.18 3.18 0 0 1 1.09-4.68 4 4 0 0 1 5.21 1 3.18 3.18 0 0 1-1.09 4.68z"/>
  <path  class="path bx" d="M74.47 205.27h5.8v10l17 12.58h9.25a3.53 3.53 0 0 0-.3 1.41 4.06 4.06 0 0 0 3.78 3.83l.06 16.78h14.3v14.85h-4.9l-20.69-27.54v-.09a4.37 4.37 0 1 0-4.34 3.9 4.38 4.38 0 0 0 4-2.39l20.36 27.16h6.67v-15.95h6.33l-.27 19.19 13.35 10.86h5.64v-31.47l-17.24-25.48h-8.17l-2.26-3-8.2-11.51a3.59 3.59 0 0 0 .34-4.78 4.6 4.6 0 0 0-4.83-1.52l-4.64-6.52h-3l-20.46-35.1-.16-.27H73a4.2 4.2 0 0 0-4.28-3.38 3.92 3.92 0 1 0 0 7.79 4.2 4.2 0 0 0 4.28-3.34h8.25l20.46 35.1.16.28h3.06l4.21 5.91-.14.07a3.66 3.66 0 0 0-1.13 5.42 4.63 4.63 0 0 0 5.52 1.27l3.22 4.22h-8.28L83.41 174.7a3.63 3.63 0 0 0 1.12-5 4.61 4.61 0 0 0-5.92-1.44 3.69 3.69 0 0 0-1.6 5.32 4.58 4.58 0 0 0 5.4 1.65l25.2 39.36h9.74l3.52 4.62h-16.42L78.93 184H50.64v-8l-13-7.88 5.79-11.93L29 145.84a4.1 4.1 0 0 0-1.05-5.8c.53.38 1.05.76 0 0s-.53-.38 0 0a5.31 5.31 0 0 0-6.91.69 4.12 4.12 0 0 0 .77 6.21 5.32 5.32 0 0 0 6.47-.29L42 156.43l-5.35 11-23.84-14.34v-15.35a4.06 4.06 0 0 0 3.77-3.85 4.14 4.14 0 0 0-4.34-3.9 4.13 4.13 0 0 0-4.34 3.9 4.06 4.06 0 0 0 3.76 3.85v5.89H9.45l-8.3-19.91v-39.3l11.51-35h3.85a4.2 4.2 0 0 0 4.28 3.38 3.92 3.92 0 1 0 0-7.8 4.2 4.2 0 0 0-4.28 3.38H11.8L0 84.2v39.61l8.65 20.86h3v9l37.83 22.84v1H33.19c-.93-.64-5.91-4.11-11.91-8.49a3.62 3.62 0 0 0-.91-5.09 4.68 4.68 0 0 0-6.11.56 3.64 3.64 0 0 0 .62 5.48 4.71 4.71 0 0 0 5.66-.15c6.64 4.85 12 8.58 12.1 8.63l.15.1h16.7V185H78.3l25.53 35.25h4.9v5.47a4.3 4.3 0 0 0-1.56 1.1h-2.43v-4.44h-6.46l-13-10.12-.09-13.68-36.19-.07a4.19 4.19 0 0 0-4.27-3.39 3.92 3.92 0 1 0 0 7.8 4.2 4.2 0 0 0 4.27-3.38l35 .07.09 13.12 13.72 10.67h5.71v3.4h-5.88l-16.21-12v-10.56H74l-15.62 14.6-8.73-7.84a3.6 3.6 0 0 0-.36-5.11 4.7 4.7 0 0 0-6.14 0 3.62 3.62 0 0 0 0 5.51 4.7 4.7 0 0 0 5.69.33L58 220l.41.36zm-52-59.15a3.16 3.16 0 0 1-.59-4.75 4.07 4.07 0 0 1 5.29-.53 3.16 3.16 0 0 1 .59 4.75 4.06 4.06 0 0 1-5.24.53zm94.68 93.94a3.78 3.78 0 1 1 3.81 3.34 3.58 3.58 0 0 1-3.76-3.34zm-7.31-19.82h11.78l2.83 3.71h8.13l16.73 24.73v30.19h-4l-12.63-10.27.29-19.82h-11.31l-.11-4.4a4.6 4.6 0 0 0 4.33-4.42 4.95 4.95 0 0 0-9.83.11 4.63 4.63 0 0 0 4.35 4.31l.1 4.44h-9.33l-.06-15.74a4 4 0 0 0 3.75-3.86 4.14 4.14 0 0 0-4.36-3.89 5.5 5.5 0 0 0-.64.06z"/>
  <path  class="path by" d="M142.45 172.49l-8.05-10.79h-17l-7.4-12.24-15.13.25-21.7-24.08v-25l15.45-21.39h15.84l11-34.15a4.37 4.37 0 0 0 4.81-2.75 3.86 3.86 0 0 0-3-4.83 4.42 4.42 0 0 0-5.27 2.67 3.77 3.77 0 0 0 2.42 4.63l-10.79 33.4H88L77.46 92.77l-7.11-6.88v-4A4.05 4.05 0 0 0 74.12 78a4.37 4.37 0 0 0-8.68 0 4.05 4.05 0 0 0 3.76 3.85v4.45l7.61 7.37L72 100.3v24.05l-12.16-13.52a3.6 3.6 0 0 0 .23-5.11 4.68 4.68 0 0 0-6.1-.58 3.63 3.63 0 0 0-.65 5.48 4.67 4.67 0 0 0 5.62.86l35.37 39.27 9.46-.16 8.75 16.51h18.78l2.94 5.31-6.69 8.74h-9.38l-.64-1a3.64 3.64 0 0 0 1.25-5 4.6 4.6 0 0 0-5.89-1.55 3.7 3.7 0 0 0-1.73 5.29 4.56 4.56 0 0 0 5.36 1.75l1 1.59h10.67l7.42-9.69-3.61-6.46h-18.74l-8.26-15.5 4.26-.07 7.43 12.23h17l7.24 9.71-11.86 13.79h-15.13l-13.37-23a4.14 4.14 0 0 0 1.5-5.63 5.21 5.21 0 0 0-6.64-1.85 4.21 4.21 0 0 0-2.06 6 5.17 5.17 0 0 0 6.19 2l13.69 23.56h16.48zm-41.63-14.83zm.18.31v-.08zm-6.6 3.25a3.22 3.22 0 0 1 1.6-4.57 4 4 0 0 1 5.08 1.41 3.22 3.22 0 0 1-1.58 4.57 4 4 0 0 1-5.11-1.42z"/>
  <path  class="path bz" d="M93.72 162.29l-.35-.59z"/>
  <path  class="path cb" d="M132.57 237.88l7.82 12.53v10.48a4.61 4.61 0 0 0-4.34 4.36 4.94 4.94 0 0 0 9.83 0 4.61 4.61 0 0 0-4.34-4.36v-10.75l-8-12.76a3.64 3.64 0 0 0 1.19-5 4.61 4.61 0 0 0-5.91-1.49 3.7 3.7 0 0 0-1.66 5.31 4.57 4.57 0 0 0 5.41 1.68zm12.16 27.37a3.78 3.78 0 1 1-3.76-3.38 3.59 3.59 0 0 1 3.76 3.39z"/>
  <path  class="path cc" d="M195.35 79.17v170.66h.82v.06l.11-.06h.18v-.1l28.8-14.55v-57.76l-18.07-23.84v-29.25h40.91l14.14-11.64a4.7 4.7 0 0 0 5.7-.11 3.63 3.63 0 0 0 .27-5.51 4.69 4.69 0 0 0-6.13-.24 3.6 3.6 0 0 0-.61 5.09l-7.14 5.88V74.64l6.74-7 10.27-.08 8.14 15.19h8.8l5.67-10.08-4.14-9.67-2.54.1a4.25 4.25 0 0 0-4.43-3.22 4.1 4.1 0 0 0-4.16 4.12 4.38 4.38 0 0 0 8.64.19l1.71-.07 3.65 8.44-5.13 9.11h-7.36L272 66.47l-10 .08 9.58-10a5.31 5.31 0 0 0 6.46-.77 4.12 4.12 0 0 0-.53-6.23 5.32 5.32 0 0 0-6.93.47 4.09 4.09 0 0 0 .13 5.85l-17.4 18.24-.14.15v44.5l-5.52 4.54h-3.58V51.55a4.05 4.05 0 0 0 3.76-3.85 4.36 4.36 0 0 0-8.68 0 4.06 4.06 0 0 0 3.76 3.85v71.75H217l18.07-11.71V62.45a4.06 4.06 0 0 0 3.76-3.85 4.36 4.36 0 0 0-8.68 0 4.06 4.06 0 0 0 3.76 3.85v48.6L215 123.3h-8.93v30.6l18.07 23.83v5.92l-21.74-29V97.52a4.05 4.05 0 0 0 3.77-3.84 4.37 4.37 0 0 0-8.68 0 4 4 0 0 0 3.76 3.84v57.42l22.89 30.58v49.06l-4.14 2.08V187.5L210 176a3.6 3.6 0 0 0 .31-5.11 4.67 4.67 0 0 0-6.09-.66 3.64 3.64 0 0 0-.73 5.48 4.67 4.67 0 0 0 5.6.93l9.79 11.18v49.38l-7.82 3.95V209a4.06 4.06 0 0 0 3.77-3.85 4.37 4.37 0 0 0-8.68 0 4.06 4.06 0 0 0 3.76 3.85v32.6h.28l-8.93 4.51v-44l7.21-8.58a5.28 5.28 0 0 0 6.31-1.22 4.13 4.13 0 0 0-1-6.18 5.3 5.3 0 0 0-6.88.91 4.09 4.09 0 0 0 .65 5.88l-7.42 8.85v45l-3.6 1.82V79.17a4.06 4.06 0 0 0 3.77-3.85 4.37 4.37 0 0 0-8.68 0 4.05 4.05 0 0 0 3.73 3.85zm76.15-28.5l-.26.27.26-.27a4.07 4.07 0 0 1 5.31-.36 3.15 3.15 0 0 1 .4 4.77 4.07 4.07 0 0 1-5.31.36 3.15 3.15 0 0 1-.39-4.77zm.26-.27zm-64 137.27l-.25.3.25-.3a4.05 4.05 0 0 1 5.26-.7 3.16 3.16 0 0 1 .78 4.73 4.06 4.06 0 0 1-5.26.7 3.16 3.16 0 0 1-.73-4.73zm.25-.3z"/>
  <path  class="path cd" d="M179.55 177.5a4.69 4.69 0 0 0-4.92 4.42 4.61 4.61 0 0 0 4.34 4.37v16.53l-12.88 6.63V184.3l-2.28-2.74a4.09 4.09 0 0 0 .67-5.85 5.29 5.29 0 0 0-6.87-1 4.13 4.13 0 0 0-1.07 6.17 5.28 5.28 0 0 0 6.33 1.25l2.07 2.47v39.59l-9.79-12.7v-11a4.05 4.05 0 0 0 3.76-3.85 4.36 4.36 0 0 0-8.68 0 4.05 4.05 0 0 0 3.77 3.86v11.35l12.1 15.7v-16.91l14-7.22v-17.14a4.61 4.61 0 0 0 4.34-4.37 4.7 4.7 0 0 0-4.89-4.41zm-22.07 2.81a3.16 3.16 0 0 1 .82-4.72 4 4 0 0 1 5.25.73c-.3-.38-.61-.75 0 0s.31.38 0 0a3.17 3.17 0 0 1-.82 4.72 4 4 0 0 1-5.25-.73zm22.07 5a3.4 3.4 0 1 1 3.76-3.38 3.59 3.59 0 0 1-3.76 3.36z"/>
  <path  class="path cf" d="M215.12 191.9l-.2.24z"/>
  <path  class="path cg" d="M214.42 192.74l-.1.12z"/>
  <path  class="path ch" d="M214.42 192.74l.2-.24z"/>
  <path  class="path ci" d="M215.22 191.78l-.1.12z"/>
  <path  class="path ck" d="M278.09 55.75l-.44.46z"/>
  <path  class="path cn" d="M226.64 63.55a4.69 4.69 0 0 0-4.91 4.45 4.61 4.61 0 0 0 4.34 4.37V76l-11 3.07-.41.11v31.92l-1.66 1.46a4.7 4.7 0 0 0-5.69.28 3.62 3.62 0 0 0-.06 5.51 4.7 4.7 0 0 0 6.14.05 3.6 3.6 0 0 0 .42-5.11l10-8.78v-9.59a4.61 4.61 0 0 0 4.34-4.36 4.95 4.95 0 0 0-9.84 0 4.61 4.61 0 0 0 4.34 4.36v9.15l-6.82 6V80l11.45-3.18v-4.49a4.61 4.61 0 0 0 4.28-4.33 4.69 4.69 0 0 0-4.92-4.45zm-7.24 27a3.78 3.78 0 1 1 3.76 3.38 3.59 3.59 0 0 1-3.75-3.37zm7.24-19.21a3.4 3.4 0 1 1 3.77-3.34 3.59 3.59 0 0 1-3.77 3.34z"/>
  <path  class="path co" d="M118.21 113.51a4.69 4.69 0 0 0-4.92 4.42 4.61 4.61 0 0 0 4.34 4.36V127h-13.1l-2.26-4.89a3.7 3.7 0 0 0 1.83-4.85 4.52 4.52 0 0 0-5.67-2.11 3.77 3.77 0 0 0-2.35 5.1 4.47 4.47 0 0 0 5.12 2.25l2.56 5.53h12.93l-4.92 4.33a4.7 4.7 0 0 0-5.69.28 3.62 3.62 0 0 0-.06 5.51 4.69 4.69 0 0 0 6.14.05 3.6 3.6 0 0 0 .42-5.11l6.21-5.47v-5.31a4.61 4.61 0 0 0 4.34-4.36 4.69 4.69 0 0 0-4.92-4.44zm0 7.8a3.4 3.4 0 1 1 3.76-3.38 3.59 3.59 0 0 1-3.76 3.38z"/>
  <path  class="path cp" d="M149.71 97.4a4.7 4.7 0 0 0-4.92 4.42 4.62 4.62 0 0 0 4.34 4.37v9.15l-9.62 8.48a4.7 4.7 0 0 0-5.69.28 3.63 3.63 0 0 0-.06 5.51 4.69 4.69 0 0 0 6.14.05 3.6 3.6 0 0 0 .42-5.1l10-8.79v-9.59a4.62 4.62 0 0 0 4.34-4.37 4.69 4.69 0 0 0-4.95-4.41zm0 7.8a3.4 3.4 0 1 1 3.76-3.38 3.59 3.59 0 0 1-3.76 3.38z"/>
  <path  class="path cq" d="M26.77 131.62L47 149.51l10.23-10.64h12.85l3.26-4.16-24.93-23.65a4.08 4.08 0 0 0-.28-5.77 5.32 5.32 0 0 0-7-.15 4.11 4.11 0 0 0-.17 6.25 5.33 5.33 0 0 0 6.58.41l24.26 23-2.37 3H56.72L46.95 148l-19.37-17.12a3.6 3.6 0 0 0-.41-5.11 4.7 4.7 0 0 0-6.14 0 3.63 3.63 0 0 0 0 5.52 4.7 4.7 0 0 0 5.74.33zm15.07-20.95c-.71-.67-.36-.34 0 0a3.15 3.15 0 0 1 .13-4.78 4.07 4.07 0 0 1 5.32.12 3.14 3.14 0 0 1-.13 4.78 4.07 4.07 0 0 1-5.32-.12z"/>
  <path  class="path cs" d="M41.84 110.67"/>
  <path  class="path ct" d="M368.2 180a3.59 3.59 0 0 0 .06 5.12l-3.65 3.82h-30.92a4.74 4.74 0 0 0-4.86-3.9 4.44 4.44 0 1 0 0 8.83 4.74 4.74 0 0 0 4.86-3.9h31.45l4-4.18a4.68 4.68 0 0 0 5.64-.71 3.63 3.63 0 0 0-.47-5.5 4.68 4.68 0 0 0-6.11.42zm-39.36 12.84a3.4 3.4 0 1 1 3.76-3.38 3.59 3.59 0 0 1-3.76 3.33z"/>
  <path  class="path cu" d="M8.59 125.19a4.19 4.19 0 0 0 4.28-3.38h7.39V108.3l34.25-22.89a4.69 4.69 0 0 0 5.68.42 3.65 3.65 0 0 0 .89-5.46 4.67 4.67 0 0 0-6.07-.8 3.64 3.64 0 0 0-1.19 5L19.1 107.78v13h-6.23a4.2 4.2 0 0 0-4.28-3.38 3.92 3.92 0 1 0 0 7.8z"/>
  <path  class="path cv" d="M69.27 93.91l-.08.15z"/>
  <path  class="path cw" d="M69.44 93.58l-.18.33z"/>
  <path  class="path cx" d="M67.2 87.58a5.19 5.19 0 0 0-6.57 2.06 4.16 4.16 0 0 0 1.76 5.6l-2 3.93h-6.16a4.19 4.19 0 0 0-4.28-3.38 3.92 3.92 0 1 0 0 7.8 4.19 4.19 0 0 0 4.28-3.38h6.85l2.36-4.5a5.14 5.14 0 0 0 6.06-2.22l-.05.1.05-.1.1-.19-.1.19a4.23 4.23 0 0 0-2.3-5.91zM68.46 93a4 4 0 0 1-5 1.58 3.24 3.24 0 0 1-1.76-4.51c-.22.42-.45.83 0 0s.22-.42 0 0a4 4 0 0 1 5-1.57 3.24 3.24 0 0 1 1.76 4.5z"/>
  <path  class="path cy" d="M61.68 90.09z"/>
  <path  class="path da" d="M69.61 93.27z"/>
  <path  class="path dc" d="M69.82 92.88l-.09.18z"/>
  <path  class="path dd" d="M69.73 93.05l-.11.22z"/>
  <path  class="path de" d="M13 93.72v16.6h-.17a4.19 4.19 0 0 0-4.28-3.38 3.92 3.92 0 1 0 0 7.8 4.19 4.19 0 0 0 4.28-3.38h1.32V94.24l32.57-21.89a4.69 4.69 0 0 0 5.68.4 3.65 3.65 0 0 0 .87-5.46 4.67 4.67 0 0 0-6.08-.78 3.64 3.64 0 0 0-1.17 5l-32.77 22z"/>
  <path  class="path df" d="M62 40.07v30.14L29.51 91.72a5.33 5.33 0 0 0-6.45-.5 4.13 4.13 0 0 0-1 6.18 5.3 5.3 0 0 0 6.88.92 4.12 4.12 0 0 0 1.29-5.77l32.89-21.82V41.1H74l16.52-23.77A4.6 4.6 0 0 0 96 15.86a3.67 3.67 0 0 0-1.38-5.37 4.63 4.63 0 0 0-6 1.24 3.62 3.62 0 0 0 .91 5.05L73.31 40.07zM28.22 97.49a4 4 0 0 1-5.26-.7 3.16 3.16 0 0 1 .79-4.72 4 4 0 0 1 5.26.7 3.16 3.16 0 0 1-.79 4.72z"/>
  <path  class="path dh" d="M95.19 24.16a3.62 3.62 0 0 0 .92 5.05l-12 17.28H69.2v18.79H82a4.75 4.75 0 0 0 4.86 3.9 4.44 4.44 0 1 0 0-8.83A4.75 4.75 0 0 0 82 64.24H70.36V47.53h14.35l12.38-17.77a4.61 4.61 0 0 0 5.46-1.47 3.68 3.68 0 0 0-1.37-5.37 4.64 4.64 0 0 0-5.99 1.24zm-8.34 37.22a3.4 3.4 0 1 1-3.76 3.38 3.59 3.59 0 0 1 3.76-3.38z"/>
  <path  class="path di" d="M35.22 47a4.05 4.05 0 0 0-3.76 3.85 4.14 4.14 0 0 0 4.34 3.9 4.14 4.14 0 0 0 4.34-3.9A4.06 4.06 0 0 0 36.37 47v-8.36l-14.76-.26v-5.8L61.29 4.42h6.23A4.2 4.2 0 0 0 71.8 7.8a4.14 4.14 0 0 0 4.34-3.9A4.14 4.14 0 0 0 71.8 0a4.2 4.2 0 0 0-4.28 3.38h-6.64l-40.43 28.7v7.32l14.76.25z"/>
  <path  class="path dj" d="M77.74 18.24L69.43 32h-13.6v24.64l-41.76 29h-1.2a4.2 4.2 0 0 0-4.28-3.38 3.92 3.92 0 1 0 0 7.8 4.2 4.2 0 0 0 4.28-3.38h1.6L57 57.15V33.07h13.12l8.64-14.34A4.54 4.54 0 0 0 84.1 17a3.7 3.7 0 0 0-1.75-5.28 4.6 4.6 0 0 0-5.88 1.57 3.65 3.65 0 0 0 1.27 4.95z"/>
  <path  class="path dk" d="M62 12L44.07 32.8h-2.78A4.2 4.2 0 0 0 37 29.42a4.14 4.14 0 0 0-4.34 3.9A4.14 4.14 0 0 0 37 37.21a4.19 4.19 0 0 0 4.28-3.38h3.35L62.55 13h9L67 19.39a4.62 4.62 0 0 0-5.48 1.41 3.67 3.67 0 0 0 1.31 5.39 4.64 4.64 0 0 0 6-1.18A3.62 3.62 0 0 0 68 20l5.65-8z"/>
  <path  class="path dl" d="M85.38 7.8a4.2 4.2 0 0 0 4.28-3.38h49.83l22.59 9.77a3.75 3.75 0 0 0 2.22 4.71 4.57 4.57 0 0 0 5.79-1.82 3.73 3.73 0 0 0-2-5.21 4.62 4.62 0 0 0-5.49 1.38l-22.73-9.82-.12-.05H89.66A4.2 4.2 0 0 0 85.38 0 4.14 4.14 0 0 0 81 3.9a4.14 4.14 0 0 0 4.38 3.9z"/>
  <path  class="path dm" d="M108.15 10.59a4.37 4.37 0 0 0-8.68 0 4.05 4.05 0 0 0 3.76 3.85V19h11.48v8.71l-14.38 14.23a4.69 4.69 0 0 0-5.67.57A3.63 3.63 0 0 0 95 48a4.69 4.69 0 0 0 6.13-.27 3.6 3.6 0 0 0 .09-5.12l14.68-14.53V18h-11.51v-3.57a4.06 4.06 0 0 0 3.76-3.84z"/>
  <path  class="path dn" d="M137.65 11.16h-15.76a4.75 4.75 0 0 0-4.89-3.9 4.69 4.69 0 0 0-4.92 4.42 4.69 4.69 0 0 0 4.92 4.41 4.75 4.75 0 0 0 4.86-3.9h15.46l11.79 6v3.06a4.06 4.06 0 0 0-3.76 3.85 4.37 4.37 0 0 0 8.68 0 4.06 4.06 0 0 0-3.77-3.85v-3.62zM117 15.06a3.59 3.59 0 0 1-3.76-3.38 3.78 3.78 0 0 1 7.52 0 3.59 3.59 0 0 1-3.76 3.38z"/>
  <path  class="path do" d="M139.06 36a4.1 4.1 0 0 0 4.18-4 4.38 4.38 0 0 0-8.64-.24l-11.3.37V18.45h3.13a4.19 4.19 0 0 0 4.28 3.38 4.14 4.14 0 0 0 4.34-3.9 4.14 4.14 0 0 0-4.34-3.9 4.19 4.19 0 0 0-4.28 3.38h-4.29v15.77l12.5-.41a4.24 4.24 0 0 0 4.42 3.23z"/>
  <path  class="path dp" d="M383.55 48.35h-4.71a4.2 4.2 0 0 0-4.29-3.35 3.92 3.92 0 1 0 0 7.8 4.2 4.2 0 0 0 4.28-3.38h3.85l11.51 35v39.3l-8.29 19.91h-11v-13l-10-7V112.3l-14.13-9.3a3.64 3.64 0 0 0-1.25-5 4.67 4.67 0 0 0-6.06.86 3.65 3.65 0 0 0 1 5.45 4.7 4.7 0 0 0 5.68-.47l13.6 8.88v11.31l10 7v12.54h-15l-1.07-.78a3.62 3.62 0 0 0-.94-5.05 4.68 4.68 0 0 0-6.1.56 3.64 3.64 0 0 0 .62 5.49 4.7 4.7 0 0 0 5.69-.19l.73.53v14.93l-23.56 12.82-12.56-.9-29.35 42.5h-8.64l12-16.88h3.06l20.62-35.37h17.16l4.44-5.83a4.64 4.64 0 0 0 5.52-1.27 3.66 3.66 0 0 0-1.14-5.42 4.66 4.66 0 0 0-6 1 3.61 3.61 0 0 0 .69 5.08l-4.09 5.39h-17.29l-20.62 35.37h-3l-17.54 24.62h13.16v7.61h12.67l17-12.58v-10h7.31a4.2 4.2 0 0 0 4.28 3.38 3.92 3.92 0 1 0 0-7.8 4.2 4.2 0 0 0-4.28 3.38H319v10.54l-16.22 12h-5.92v-3.4h5.71l13.72-10.67.09-13.12 44.21-.07a4.2 4.2 0 0 0 4.28 3.37 3.92 3.92 0 1 0 0-7.8 4.19 4.19 0 0 0-4.27 3.39l-45.36.07-.09 13.68-13 10.12h-6.44v4.44h-4v-5.81h4.91l26.68-38.38H342L359.29 171a4.69 4.69 0 0 0 5.68.39 3.65 3.65 0 0 0 .86-5.46 4.67 4.67 0 0 0-6.08-.77 3.64 3.64 0 0 0-1.16 5l-17 11.46h-19L296 220h-4.28v-.76h-12.2l3.29-4.62h10l29.32-42.46 12 .87h.19l24.43-13.3v-2.33h17l4.36-2.59a4.69 4.69 0 0 0 5.65.7 3.67 3.67 0 0 0 1.23-5.41 4.65 4.65 0 0 0-6-1.1 3.67 3.67 0 0 0-1.5 4.94l-4.06 2.41h-16.7v-11.68h27.97l8.61-20.67V84.35z"/>
  <path  class="path dq" d="M382.48 121.81a4.2 4.2 0 0 0 4.29 3.38 3.92 3.92 0 1 0 0-7.8 4.2 4.2 0 0 0-4.29 3.38h-6.23v-13l-34.72-23.2a3.63 3.63 0 0 0-1.19-5 4.67 4.67 0 0 0-6.07.8 3.64 3.64 0 0 0 .89 5.46 4.69 4.69 0 0 0 5.68-.42l34.25 22.89v13.51z"/>
  <path  class="path dr" d="M386.76 106.94a4.2 4.2 0 0 0-4.29 3.38h-.16v-16.6l-33-22.2a3.64 3.64 0 0 0-1.17-5 4.67 4.67 0 0 0-6.07.78 3.64 3.64 0 0 0 .87 5.46 4.7 4.7 0 0 0 5.68-.4l32.54 21.89v17.12h1.32a4.2 4.2 0 0 0 4.29 3.38 3.92 3.92 0 1 0 0-7.8z"/>
  <path  class="path ds" d="M365.12 92.6a4.13 4.13 0 0 0 1.32 5.73 5.3 5.3 0 0 0 6.88-.92 4.13 4.13 0 0 0-1-6.18 5.31 5.31 0 0 0-6.48.53l-32.46-21.55V40.07H322l-16.19-23.29a3.62 3.62 0 0 0 .91-5.05 4.63 4.63 0 0 0-6-1.24 3.67 3.67 0 0 0-1.38 5.37 4.6 4.6 0 0 0 5.46 1.47l16.59 23.77h10.83v29.63zm6.48-.53a3.16 3.16 0 0 1 .79 4.72 4 4 0 0 1-5.26.7 3.16 3.16 0 0 1-.79-4.73 4.05 4.05 0 0 1 5.26-.7z"/>
  <path  class="path dv" d="M372.29 91.23l-.56-.37z"/>
  <path  class="path dw" d="M313.36 65.28h12.79V46.49h-14.87l-12-17.28a3.62 3.62 0 0 0 .92-5.05 4.64 4.64 0 0 0-6-1.24 3.67 3.67 0 0 0-1.38 5.37 4.61 4.61 0 0 0 5.46 1.47l12.38 17.77H325v16.71h-11.64a4.75 4.75 0 0 0-4.86-3.9 4.44 4.44 0 1 0 0 8.83 4.75 4.75 0 0 0 4.86-3.89zm-4.86 2.86a3.4 3.4 0 1 1 3.77-3.38 3.59 3.59 0 0 1-3.77 3.38z"/>
  <path  class="path dx" d="M323.55 7.8a4.2 4.2 0 0 0 4.28-3.38h6.23l39.68 28.16v5.81l-14.74.25V47a4.06 4.06 0 0 0-3.77 3.85 4.37 4.37 0 0 0 8.68 0 4.05 4.05 0 0 0-3.78-3.85v-7.34l14.77-.25v-7.33l-40.44-28.7h-6.63A4.2 4.2 0 0 0 323.55 0a4.14 4.14 0 0 0-4.34 3.9 4.13 4.13 0 0 0 4.34 3.9z"/>
  <path  class="path dy" d="M311.24 17a4.55 4.55 0 0 0 5.35 1.77l8.63 14.34h13.14v24.04l42.36 29.4.16.11h1.6a4.2 4.2 0 0 0 4.28 3.34 3.92 3.92 0 1 0 0-7.8 4.2 4.2 0 0 0-4.29 3.38h-1.2l-41.76-29V32h-13.6l-8.31-13.79a3.65 3.65 0 0 0 1.27-5 4.6 4.6 0 0 0-5.87-1.53 3.7 3.7 0 0 0-1.76 5.32z"/>
  <path  class="path dz" d="M332.8 13l17.91 20.8h3.35a4.19 4.19 0 0 0 4.28 3.38 4.14 4.14 0 0 0 4.34-3.9 4.14 4.14 0 0 0-4.34-3.9 4.2 4.2 0 0 0-4.28 3.38h-2.79L333.37 12H321.7l5.68 8a3.61 3.61 0 0 0-.86 5.06 4.65 4.65 0 0 0 6 1.18 3.67 3.67 0 0 0 1.3-5.39 4.61 4.61 0 0 0-5.48-1.41L323.81 13z"/>
  <path  class="path ea" d="M231 18.91a3.75 3.75 0 0 0 2.22-4.71l22.59-9.77h49.83A4.19 4.19 0 0 0 310 7.8a4.14 4.14 0 0 0 4.34-3.9A4.14 4.14 0 0 0 310 0a4.2 4.2 0 0 0-4.28 3.38H255.6l-22.83 9.88a4.62 4.62 0 0 0-5.49-1.38 3.74 3.74 0 0 0-2 5.21 4.57 4.57 0 0 0 5.72 1.82z"/>
  <path  class="path eb" d="M294.26 47.76a4.69 4.69 0 0 0 6.13.27 3.62 3.62 0 0 0 .3-5.51 4.69 4.69 0 0 0-5.66-.57l-14.39-14.24V19h11.48v-4.57a4.05 4.05 0 0 0 3.76-3.85 4.37 4.37 0 0 0-8.68 0 4.05 4.05 0 0 0 3.8 3.85V18h-11.52v10.11l14.68 14.53a3.6 3.6 0 0 0 .1 5.12z"/>
  <path  class="path ec" d="M278.32 16.09a4.69 4.69 0 0 0 4.91-4.41 4.69 4.69 0 0 0-4.91-4.42 4.75 4.75 0 0 0-4.86 3.9H257.7l-19.34 9.56v3.67a4.06 4.06 0 0 0-3.76 3.84 4.37 4.37 0 0 0 8.68 0 4.05 4.05 0 0 0-3.76-3.84v-3.05L258 12.19h15.46a4.75 4.75 0 0 0 4.86 3.9zm0-7.79a3.59 3.59 0 0 1 3.76 3.38 3.79 3.79 0 0 1-7.53 0 3.59 3.59 0 0 1 3.77-3.38z"/>
  <path  class="path ed" d="M260.74 31.74a4.38 4.38 0 0 0-8.63.24 4.1 4.1 0 0 0 4.18 4 4.24 4.24 0 0 0 4.41-3.24l12.5.41V17.41h-4.29a4.2 4.2 0 0 0-4.27-3.41 4.13 4.13 0 0 0-4.34 3.9 4.13 4.13 0 0 0 4.34 3.9 4.2 4.2 0 0 0 4.28-3.38H272V32.1z"/>
  <path  class="path ee" d="M210.11 72.29a3.6 3.6 0 0 0 .36-5.11L227 52.34V33.27a4.05 4.05 0 0 0 3.76-3.85 4.36 4.36 0 0 0-8.68 0 4.05 4.05 0 0 0 3.76 3.85v18.64l-16.18 14.54a4.69 4.69 0 0 0-5.69.33 3.62 3.62 0 0 0 0 5.51 4.69 4.69 0 0 0 6.14 0z"/>
</svg>
