<svg xmlns="http://www.w3.org/2000/svg" width="24.58" height="7.52" viewBox="0 0 24.58 7.52">
  <path fill="none" stroke="#f0ab00" stroke-miterlimit="10" d="M21.01 3.76H0"/>
  <circle cx="20.82" cy="3.76" r="3.76" fill="#f0ab00"/>
</svg>
